%TF.GenerationSoftware,KiCad,Pcbnew,(5.1.10)-1*%
%TF.CreationDate,2021-09-09T22:09:12-04:00*%
%TF.ProjectId,PLB,504c422e-6b69-4636-9164-5f7063625858,3*%
%TF.SameCoordinates,Original*%
%TF.FileFunction,Other,User*%
%FSLAX46Y46*%
G04 Gerber Fmt 4.6, Leading zero omitted, Abs format (unit mm)*
G04 Created by KiCad (PCBNEW (5.1.10)-1) date 2021-09-09 22:09:12*
%MOMM*%
%LPD*%
G01*
G04 APERTURE LIST*
%ADD10C,0.050000*%
G04 APERTURE END LIST*
D10*
%TO.C,C1*%
X138679920Y-153638000D02*
X138679920Y-152178000D01*
X138679920Y-152178000D02*
X141979920Y-152178000D01*
X141979920Y-152178000D02*
X141979920Y-153638000D01*
X141979920Y-153638000D02*
X138679920Y-153638000D01*
%TO.C,C6*%
X213101920Y-132048000D02*
X213101920Y-130588000D01*
X213101920Y-130588000D02*
X216401920Y-130588000D01*
X216401920Y-130588000D02*
X216401920Y-132048000D01*
X216401920Y-132048000D02*
X213101920Y-132048000D01*
%TO.C,C7*%
X145789920Y-144304000D02*
X145789920Y-145764000D01*
X145789920Y-145764000D02*
X142489920Y-145764000D01*
X142489920Y-145764000D02*
X142489920Y-144304000D01*
X142489920Y-144304000D02*
X145789920Y-144304000D01*
%TO.C,C8*%
X134265920Y-143638000D02*
X135725920Y-143638000D01*
X135725920Y-143638000D02*
X135725920Y-146938000D01*
X135725920Y-146938000D02*
X134265920Y-146938000D01*
X134265920Y-146938000D02*
X134265920Y-143638000D01*
%TO.C,C9*%
X134265920Y-147194000D02*
X135725920Y-147194000D01*
X135725920Y-147194000D02*
X135725920Y-150494000D01*
X135725920Y-150494000D02*
X134265920Y-150494000D01*
X134265920Y-150494000D02*
X134265920Y-147194000D01*
%TO.C,C10*%
X216243920Y-136016000D02*
X214783920Y-136016000D01*
X214783920Y-136016000D02*
X214783920Y-132716000D01*
X214783920Y-132716000D02*
X216243920Y-132716000D01*
X216243920Y-132716000D02*
X216243920Y-136016000D01*
%TO.C,C11*%
X214465920Y-136016000D02*
X213005920Y-136016000D01*
X213005920Y-136016000D02*
X213005920Y-132716000D01*
X213005920Y-132716000D02*
X214465920Y-132716000D01*
X214465920Y-132716000D02*
X214465920Y-136016000D01*
%TO.C,C13*%
X143610080Y-129554240D02*
X142150080Y-129554240D01*
X142150080Y-129554240D02*
X142150080Y-126254240D01*
X142150080Y-126254240D02*
X143610080Y-126254240D01*
X143610080Y-126254240D02*
X143610080Y-129554240D01*
%TO.C,C15*%
X146068800Y-129554240D02*
X144608800Y-129554240D01*
X144608800Y-129554240D02*
X144608800Y-126254240D01*
X144608800Y-126254240D02*
X146068800Y-126254240D01*
X146068800Y-126254240D02*
X146068800Y-129554240D01*
%TO.C,C17*%
X149041680Y-129563600D02*
X147081680Y-129563600D01*
X147081680Y-129563600D02*
X147081680Y-126163600D01*
X147081680Y-126163600D02*
X149041680Y-126163600D01*
X149041680Y-126163600D02*
X149041680Y-129563600D01*
%TO.C,J2*%
X251051920Y-128248000D02*
X251051920Y-144548000D01*
X251051920Y-144548000D02*
X263401920Y-144548000D01*
X263401920Y-144548000D02*
X263401920Y-128248000D01*
X263401920Y-128248000D02*
X251051920Y-128248000D01*
%TO.C,BT12*%
X232175920Y-208710000D02*
X232175920Y-186460000D01*
X232175920Y-186460000D02*
X213175920Y-186460000D01*
X213175920Y-186460000D02*
X213175920Y-208710000D01*
X213175920Y-208710000D02*
X232175920Y-208710000D01*
%TO.C,BT8*%
X150895920Y-208710000D02*
X150895920Y-186460000D01*
X150895920Y-186460000D02*
X131895920Y-186460000D01*
X131895920Y-186460000D02*
X131895920Y-208710000D01*
X131895920Y-208710000D02*
X150895920Y-208710000D01*
%TO.C,BT11*%
X211855920Y-208710000D02*
X211855920Y-186460000D01*
X211855920Y-186460000D02*
X192855920Y-186460000D01*
X192855920Y-186460000D02*
X192855920Y-208710000D01*
X192855920Y-208710000D02*
X211855920Y-208710000D01*
%TO.C,BT6*%
X111100000Y-70436000D02*
X111100000Y-92686000D01*
X111100000Y-92686000D02*
X130100000Y-92686000D01*
X130100000Y-92686000D02*
X130100000Y-70436000D01*
X130100000Y-70436000D02*
X111100000Y-70436000D01*
%TO.C,BT7*%
X130575920Y-208710000D02*
X130575920Y-186460000D01*
X130575920Y-186460000D02*
X111575920Y-186460000D01*
X111575920Y-186460000D02*
X111575920Y-208710000D01*
X111575920Y-208710000D02*
X130575920Y-208710000D01*
%TO.C,BT5*%
X131420000Y-70436000D02*
X131420000Y-92686000D01*
X131420000Y-92686000D02*
X150420000Y-92686000D01*
X150420000Y-92686000D02*
X150420000Y-70436000D01*
X150420000Y-70436000D02*
X131420000Y-70436000D01*
%TO.C,BT4*%
X151740000Y-70436000D02*
X151740000Y-92686000D01*
X151740000Y-92686000D02*
X170740000Y-92686000D01*
X170740000Y-92686000D02*
X170740000Y-70436000D01*
X170740000Y-70436000D02*
X151740000Y-70436000D01*
%TO.C,BT10*%
X191744200Y-208710000D02*
X191744200Y-186460000D01*
X191744200Y-186460000D02*
X172744200Y-186460000D01*
X172744200Y-186460000D02*
X172744200Y-208710000D01*
X172744200Y-208710000D02*
X191744200Y-208710000D01*
%TO.C,BT3*%
X172060000Y-70436000D02*
X172060000Y-92686000D01*
X172060000Y-92686000D02*
X191060000Y-92686000D01*
X191060000Y-92686000D02*
X191060000Y-70436000D01*
X191060000Y-70436000D02*
X172060000Y-70436000D01*
%TO.C,BT2*%
X192380000Y-70436000D02*
X192380000Y-92686000D01*
X192380000Y-92686000D02*
X211380000Y-92686000D01*
X211380000Y-92686000D02*
X211380000Y-70436000D01*
X211380000Y-70436000D02*
X192380000Y-70436000D01*
%TO.C,J16*%
X81479920Y-88036000D02*
X103729920Y-88036000D01*
X103729920Y-88036000D02*
X103729920Y-81636000D01*
X103729920Y-81636000D02*
X81479920Y-81636000D01*
X81479920Y-81636000D02*
X81479920Y-88036000D01*
%TO.C,R1*%
X145983920Y-142084000D02*
X147883920Y-142084000D01*
X147883920Y-142084000D02*
X147883920Y-145444000D01*
X147883920Y-145444000D02*
X145983920Y-145444000D01*
X145983920Y-145444000D02*
X145983920Y-142084000D01*
%TO.C,R2*%
X147888920Y-142084000D02*
X149788920Y-142084000D01*
X149788920Y-142084000D02*
X149788920Y-145444000D01*
X149788920Y-145444000D02*
X147888920Y-145444000D01*
X147888920Y-145444000D02*
X147888920Y-142084000D01*
%TO.C,R3*%
X211417920Y-133958600D02*
X209957920Y-133958600D01*
X209957920Y-133958600D02*
X209957920Y-130658600D01*
X209957920Y-130658600D02*
X211417920Y-130658600D01*
X211417920Y-130658600D02*
X211417920Y-133958600D01*
%TO.C,R4*%
X209639920Y-133984000D02*
X208179920Y-133984000D01*
X208179920Y-133984000D02*
X208179920Y-130684000D01*
X208179920Y-130684000D02*
X209639920Y-130684000D01*
X209639920Y-130684000D02*
X209639920Y-133984000D01*
%TO.C,R5*%
X153096980Y-129612660D02*
X151636980Y-129612660D01*
X151636980Y-129612660D02*
X151636980Y-126312660D01*
X151636980Y-126312660D02*
X153096980Y-126312660D01*
X153096980Y-126312660D02*
X153096980Y-129612660D01*
%TO.C,R6*%
X151214840Y-129612660D02*
X149754840Y-129612660D01*
X149754840Y-129612660D02*
X149754840Y-126312660D01*
X149754840Y-126312660D02*
X151214840Y-126312660D01*
X151214840Y-126312660D02*
X151214840Y-129612660D01*
%TO.C,R7*%
X156861260Y-129612660D02*
X155401260Y-129612660D01*
X155401260Y-129612660D02*
X155401260Y-126312660D01*
X155401260Y-126312660D02*
X156861260Y-126312660D01*
X156861260Y-126312660D02*
X156861260Y-129612660D01*
%TO.C,R9*%
X232055920Y-128398000D02*
X233515920Y-128398000D01*
X233515920Y-128398000D02*
X233515920Y-131698000D01*
X233515920Y-131698000D02*
X232055920Y-131698000D01*
X232055920Y-131698000D02*
X232055920Y-128398000D01*
%TO.C,R10*%
X230277920Y-128398000D02*
X231737920Y-128398000D01*
X231737920Y-128398000D02*
X231737920Y-131698000D01*
X231737920Y-131698000D02*
X230277920Y-131698000D01*
X230277920Y-131698000D02*
X230277920Y-128398000D01*
%TO.C,R12*%
X154979120Y-129579640D02*
X153519120Y-129579640D01*
X153519120Y-129579640D02*
X153519120Y-126279640D01*
X153519120Y-126279640D02*
X154979120Y-126279640D01*
X154979120Y-126279640D02*
X154979120Y-129579640D01*
%TO.C,R13*%
X181334160Y-129554240D02*
X179874160Y-129554240D01*
X179874160Y-129554240D02*
X179874160Y-126254240D01*
X179874160Y-126254240D02*
X181334160Y-126254240D01*
X181334160Y-126254240D02*
X181334160Y-129554240D01*
%TO.C,R14*%
X179525680Y-129554240D02*
X178065680Y-129554240D01*
X178065680Y-129554240D02*
X178065680Y-126254240D01*
X178065680Y-126254240D02*
X179525680Y-126254240D01*
X179525680Y-126254240D02*
X179525680Y-129554240D01*
%TO.C,R15*%
X184869840Y-129513600D02*
X183409840Y-129513600D01*
X183409840Y-129513600D02*
X183409840Y-126213600D01*
X183409840Y-126213600D02*
X184869840Y-126213600D01*
X184869840Y-126213600D02*
X184869840Y-129513600D01*
%TO.C,R18*%
X183081680Y-129533920D02*
X181621680Y-129533920D01*
X181621680Y-129533920D02*
X181621680Y-126233920D01*
X181621680Y-126233920D02*
X183081680Y-126233920D01*
X183081680Y-126233920D02*
X183081680Y-129533920D01*
%TO.C,R23*%
X186678320Y-129493280D02*
X185218320Y-129493280D01*
X185218320Y-129493280D02*
X185218320Y-126193280D01*
X185218320Y-126193280D02*
X186678320Y-126193280D01*
X186678320Y-126193280D02*
X186678320Y-129493280D01*
%TO.C,R24*%
X188527440Y-129493280D02*
X187067440Y-129493280D01*
X187067440Y-129493280D02*
X187067440Y-126193280D01*
X187067440Y-126193280D02*
X188527440Y-126193280D01*
X188527440Y-126193280D02*
X188527440Y-129493280D01*
%TO.C,R26*%
X162936940Y-129612660D02*
X161476940Y-129612660D01*
X161476940Y-129612660D02*
X161476940Y-126312660D01*
X161476940Y-126312660D02*
X162936940Y-126312660D01*
X162936940Y-126312660D02*
X162936940Y-129612660D01*
%TO.C,R28*%
X164951160Y-129546620D02*
X163491160Y-129546620D01*
X163491160Y-129546620D02*
X163491160Y-126246620D01*
X163491160Y-126246620D02*
X164951160Y-126246620D01*
X164951160Y-126246620D02*
X164951160Y-129546620D01*
%TO.C,R29*%
X158776420Y-129612660D02*
X157316420Y-129612660D01*
X157316420Y-129612660D02*
X157316420Y-126312660D01*
X157316420Y-126312660D02*
X158776420Y-126312660D01*
X158776420Y-126312660D02*
X158776420Y-129612660D01*
%TO.C,R30*%
X159396680Y-126312660D02*
X160856680Y-126312660D01*
X160856680Y-126312660D02*
X160856680Y-129612660D01*
X160856680Y-129612660D02*
X159396680Y-129612660D01*
X159396680Y-129612660D02*
X159396680Y-126312660D01*
%TO.C,R31*%
X144425920Y-130430000D02*
X145885920Y-130430000D01*
X145885920Y-130430000D02*
X145885920Y-133730000D01*
X145885920Y-133730000D02*
X144425920Y-133730000D01*
X144425920Y-133730000D02*
X144425920Y-130430000D01*
%TO.C,U2*%
X226492000Y-141136000D02*
X226492000Y-130136000D01*
X216992000Y-141136000D02*
X216992000Y-130136000D01*
X226492000Y-141136000D02*
X216992000Y-141136000D01*
X226492000Y-130136000D02*
X216992000Y-130136000D01*
%TO.C,U3*%
X136444920Y-146044000D02*
X144214920Y-146044000D01*
X136444920Y-151644000D02*
X144214920Y-151644000D01*
X136444920Y-146044000D02*
X136444920Y-151644000D01*
X144214920Y-146044000D02*
X144214920Y-151644000D01*
%TO.C,C20*%
X219545920Y-115190000D02*
X219545920Y-118490000D01*
X218085920Y-115190000D02*
X219545920Y-115190000D01*
X218085920Y-118490000D02*
X218085920Y-115190000D01*
X219545920Y-118490000D02*
X218085920Y-118490000D01*
%TO.C,BT9*%
X152215920Y-208710000D02*
X171215920Y-208710000D01*
X152215920Y-186460000D02*
X152215920Y-208710000D01*
X171215920Y-186460000D02*
X152215920Y-186460000D01*
X171215920Y-208710000D02*
X171215920Y-186460000D01*
%TO.C,L1*%
X116505920Y-131004000D02*
X123513920Y-131004000D01*
X116505920Y-136712000D02*
X116505920Y-131004000D01*
X123513920Y-136712000D02*
X116505920Y-136712000D01*
X123513920Y-131004000D02*
X123513920Y-136712000D01*
%TO.C,R8*%
X180747920Y-148718000D02*
X182207920Y-148718000D01*
X182207920Y-148718000D02*
X182207920Y-152018000D01*
X182207920Y-152018000D02*
X180747920Y-152018000D01*
X180747920Y-152018000D02*
X180747920Y-148718000D01*
%TO.C,R11*%
X178969920Y-148718000D02*
X180429920Y-148718000D01*
X180429920Y-148718000D02*
X180429920Y-152018000D01*
X180429920Y-152018000D02*
X178969920Y-152018000D01*
X178969920Y-152018000D02*
X178969920Y-148718000D01*
%TO.C,R16*%
X177191920Y-148718000D02*
X178651920Y-148718000D01*
X178651920Y-148718000D02*
X178651920Y-152018000D01*
X178651920Y-152018000D02*
X177191920Y-152018000D01*
X177191920Y-152018000D02*
X177191920Y-148718000D01*
%TO.C,R17*%
X175413920Y-148718000D02*
X176873920Y-148718000D01*
X176873920Y-148718000D02*
X176873920Y-152018000D01*
X176873920Y-152018000D02*
X175413920Y-152018000D01*
X175413920Y-152018000D02*
X175413920Y-148718000D01*
%TO.C,U6*%
X138094720Y-128361400D02*
X115641120Y-128361400D01*
X138094720Y-118404600D02*
X138094720Y-128361400D01*
X115641120Y-118404600D02*
X138094720Y-118404600D01*
X115641120Y-128361400D02*
X115641120Y-118404600D01*
%TO.C,R20*%
X195225920Y-148718000D02*
X196685920Y-148718000D01*
X196685920Y-148718000D02*
X196685920Y-152018000D01*
X196685920Y-152018000D02*
X195225920Y-152018000D01*
X195225920Y-152018000D02*
X195225920Y-148718000D01*
%TO.C,R21*%
X193447920Y-148718000D02*
X194907920Y-148718000D01*
X194907920Y-148718000D02*
X194907920Y-152018000D01*
X194907920Y-152018000D02*
X193447920Y-152018000D01*
X193447920Y-152018000D02*
X193447920Y-148718000D01*
%TO.C,R25*%
X198781920Y-148718000D02*
X200241920Y-148718000D01*
X200241920Y-148718000D02*
X200241920Y-152018000D01*
X200241920Y-152018000D02*
X198781920Y-152018000D01*
X198781920Y-152018000D02*
X198781920Y-148718000D01*
%TO.C,R27*%
X197003920Y-148718000D02*
X198463920Y-148718000D01*
X198463920Y-148718000D02*
X198463920Y-152018000D01*
X198463920Y-152018000D02*
X197003920Y-152018000D01*
X197003920Y-152018000D02*
X197003920Y-148718000D01*
%TO.C,JP1*%
X102971920Y-119508000D02*
X102971920Y-122808000D01*
X102971920Y-119508000D02*
X100471920Y-119508000D01*
X100471920Y-122808000D02*
X102971920Y-122808000D01*
X100471920Y-122808000D02*
X100471920Y-119508000D01*
%TO.C,J3*%
X92533920Y-155630000D02*
X92533920Y-175270000D01*
X81633920Y-155630000D02*
X92533920Y-155630000D01*
X81633920Y-175270000D02*
X81633920Y-155630000D01*
X92533920Y-175270000D02*
X81633920Y-175270000D01*
%TO.C,J4*%
X108973920Y-184744990D02*
X122513920Y-184744990D01*
X122513920Y-184744990D02*
X122513920Y-170855012D01*
X122513920Y-170855012D02*
X108973920Y-170855012D01*
X108973920Y-170855012D02*
X108973920Y-184744990D01*
%TO.C,J5*%
X149613920Y-183982990D02*
X163153920Y-183982990D01*
X163153920Y-183982990D02*
X163153920Y-170093012D01*
X163153920Y-170093012D02*
X149613920Y-170093012D01*
X149613920Y-170093012D02*
X149613920Y-183982990D01*
%TO.C,J6*%
X129172000Y-184490990D02*
X142712000Y-184490990D01*
X142712000Y-184490990D02*
X142712000Y-170601012D01*
X142712000Y-170601012D02*
X129172000Y-170601012D01*
X129172000Y-170601012D02*
X129172000Y-184490990D01*
%TO.C,J7*%
X170187920Y-184236990D02*
X183727920Y-184236990D01*
X183727920Y-184236990D02*
X183727920Y-170347012D01*
X183727920Y-170347012D02*
X170187920Y-170347012D01*
X170187920Y-170347012D02*
X170187920Y-184236990D01*
%TO.C,J8*%
X132823920Y-94655010D02*
X119283920Y-94655010D01*
X119283920Y-94655010D02*
X119283920Y-108544988D01*
X119283920Y-108544988D02*
X132823920Y-108544988D01*
X132823920Y-108544988D02*
X132823920Y-94655010D01*
%TO.C,J9*%
X189999920Y-183728990D02*
X203539920Y-183728990D01*
X203539920Y-183728990D02*
X203539920Y-169839012D01*
X203539920Y-169839012D02*
X189999920Y-169839012D01*
X189999920Y-169839012D02*
X189999920Y-183728990D01*
%TO.C,J10*%
X152889920Y-94655010D02*
X139349920Y-94655010D01*
X139349920Y-94655010D02*
X139349920Y-108544988D01*
X139349920Y-108544988D02*
X152889920Y-108544988D01*
X152889920Y-108544988D02*
X152889920Y-94655010D01*
%TO.C,J11*%
X173209920Y-94655010D02*
X159669920Y-94655010D01*
X159669920Y-94655010D02*
X159669920Y-108544988D01*
X159669920Y-108544988D02*
X173209920Y-108544988D01*
X173209920Y-108544988D02*
X173209920Y-94655010D01*
%TO.C,J13*%
X193275920Y-94655010D02*
X179735920Y-94655010D01*
X179735920Y-94655010D02*
X179735920Y-108544988D01*
X179735920Y-108544988D02*
X193275920Y-108544988D01*
X193275920Y-108544988D02*
X193275920Y-94655010D01*
%TO.C,J14*%
X214103920Y-94655010D02*
X200563920Y-94655010D01*
X200563920Y-94655010D02*
X200563920Y-108544988D01*
X200563920Y-108544988D02*
X214103920Y-108544988D01*
X214103920Y-108544988D02*
X214103920Y-94655010D01*
%TO.C,J15*%
X234677920Y-94655010D02*
X221137920Y-94655010D01*
X221137920Y-94655010D02*
X221137920Y-108544988D01*
X221137920Y-108544988D02*
X234677920Y-108544988D01*
X234677920Y-108544988D02*
X234677920Y-94655010D01*
%TO.C,J19*%
X92543920Y-120158000D02*
X81633920Y-120158000D01*
X81633920Y-120158000D02*
X81633920Y-108998000D01*
X81633920Y-108998000D02*
X92543920Y-108998000D01*
X92543920Y-108998000D02*
X92543920Y-111828000D01*
X92543920Y-111828000D02*
X95303920Y-111828000D01*
X95303920Y-111828000D02*
X95303920Y-117328000D01*
X95303920Y-117328000D02*
X92543920Y-117328000D01*
X92543920Y-117328000D02*
X92543920Y-120158000D01*
%TO.C,J1*%
X81479920Y-123882000D02*
X81479920Y-151282000D01*
X103729920Y-123882000D02*
X81479920Y-123882000D01*
X103729920Y-151282000D02*
X103729920Y-123882000D01*
X81479920Y-151282000D02*
X103729920Y-151282000D01*
%TO.C,JP2*%
X101227920Y-172954000D02*
X96627920Y-172954000D01*
X101227920Y-172954000D02*
X101227920Y-170454000D01*
X96627920Y-170454000D02*
X96627920Y-172954000D01*
X96627920Y-170454000D02*
X101227920Y-170454000D01*
%TO.C,JP3*%
X166979920Y-147560000D02*
X166979920Y-152160000D01*
X166979920Y-147560000D02*
X164479920Y-147560000D01*
X164479920Y-152160000D02*
X166979920Y-152160000D01*
X164479920Y-152160000D02*
X164479920Y-147560000D01*
%TO.C,JP4*%
X173075920Y-147560000D02*
X173075920Y-152160000D01*
X173075920Y-147560000D02*
X170575920Y-147560000D01*
X170575920Y-152160000D02*
X173075920Y-152160000D01*
X170575920Y-152160000D02*
X170575920Y-147560000D01*
%TO.C,JP5*%
X170027920Y-147560000D02*
X170027920Y-152160000D01*
X170027920Y-147560000D02*
X167527920Y-147560000D01*
X167527920Y-152160000D02*
X170027920Y-152160000D01*
X167527920Y-152160000D02*
X167527920Y-147560000D01*
%TO.C,BT1*%
X231700000Y-70436000D02*
X212700000Y-70436000D01*
X231700000Y-92686000D02*
X231700000Y-70436000D01*
X212700000Y-92686000D02*
X231700000Y-92686000D01*
X212700000Y-70436000D02*
X212700000Y-92686000D01*
%TO.C,D1*%
X207817920Y-134664000D02*
X211017920Y-134664000D01*
X211017920Y-134664000D02*
X211017920Y-140164000D01*
X211017920Y-140164000D02*
X207817920Y-140164000D01*
X207817920Y-140164000D02*
X207817920Y-134664000D01*
%TO.C,R32*%
X225801920Y-124746000D02*
X229101920Y-124746000D01*
X225801920Y-126206000D02*
X225801920Y-124746000D01*
X229101920Y-126206000D02*
X225801920Y-126206000D01*
X229101920Y-124746000D02*
X229101920Y-126206000D01*
%TO.C,J17*%
X252387920Y-174920000D02*
X252387920Y-161280000D01*
X263287920Y-174920000D02*
X252387920Y-174920000D01*
X263287920Y-161280000D02*
X263287920Y-174920000D01*
X252387920Y-161280000D02*
X263287920Y-161280000D01*
%TO.C,J20*%
X252641920Y-201590000D02*
X252641920Y-187950000D01*
X263541920Y-201590000D02*
X252641920Y-201590000D01*
X263541920Y-187950000D02*
X263541920Y-201590000D01*
X252641920Y-187950000D02*
X263541920Y-187950000D01*
%TO.C,J21*%
X252133920Y-93592000D02*
X252133920Y-76952000D01*
X263033920Y-93592000D02*
X252133920Y-93592000D01*
X263033920Y-76952000D02*
X263033920Y-93592000D01*
X252133920Y-76952000D02*
X263033920Y-76952000D01*
%TO.C,J22*%
X252387920Y-121786000D02*
X252387920Y-105146000D01*
X263287920Y-121786000D02*
X252387920Y-121786000D01*
X263287920Y-105146000D02*
X263287920Y-121786000D01*
X252387920Y-105146000D02*
X263287920Y-105146000D01*
%TO.C,J23*%
X250177920Y-80982000D02*
X233537920Y-80982000D01*
X250177920Y-70082000D02*
X250177920Y-80982000D01*
X233537920Y-70082000D02*
X250177920Y-70082000D01*
X233537920Y-80982000D02*
X233537920Y-70082000D01*
%TO.C,J18*%
X252387920Y-159680000D02*
X252387920Y-146040000D01*
X263287920Y-159680000D02*
X252387920Y-159680000D01*
X263287920Y-146040000D02*
X263287920Y-159680000D01*
X252387920Y-146040000D02*
X263287920Y-146040000D01*
%TO.C,R33*%
X210211920Y-123316000D02*
X210211920Y-120016000D01*
X211671920Y-123316000D02*
X210211920Y-123316000D01*
X211671920Y-120016000D02*
X211671920Y-123316000D01*
X210211920Y-120016000D02*
X211671920Y-120016000D01*
%TO.C,R34*%
X211989920Y-123316000D02*
X211989920Y-120016000D01*
X213449920Y-123316000D02*
X211989920Y-123316000D01*
X213449920Y-120016000D02*
X213449920Y-123316000D01*
X211989920Y-120016000D02*
X213449920Y-120016000D01*
%TO.C,U7A1*%
X209489920Y-120166000D02*
X209489920Y-123166000D01*
X205789920Y-120166000D02*
X205789920Y-123166000D01*
X205789920Y-123166000D02*
X209489920Y-123166000D01*
X205789920Y-120166000D02*
X209489920Y-120166000D01*
%TO.C,U7B1*%
X223781620Y-158610300D02*
X223781620Y-156322400D01*
X223781620Y-156322400D02*
X223781620Y-156322400D01*
X223781620Y-156322400D02*
X223781620Y-150001600D01*
X223781620Y-150001600D02*
X223781620Y-150001600D01*
X223781620Y-150001600D02*
X223781620Y-147713700D01*
X223781620Y-147713700D02*
X226069520Y-147713700D01*
X226069520Y-147713700D02*
X226069520Y-147713700D01*
X226069520Y-147713700D02*
X232390320Y-147713700D01*
X232390320Y-147713700D02*
X232390320Y-147713700D01*
X232390320Y-147713700D02*
X234678220Y-147713700D01*
X234678220Y-147713700D02*
X234678220Y-150001600D01*
X234678220Y-150001600D02*
X234678220Y-150001600D01*
X234678220Y-150001600D02*
X234678220Y-156322400D01*
X234678220Y-156322400D02*
X234678220Y-156322400D01*
X234678220Y-156322400D02*
X234678220Y-158610300D01*
X234678220Y-158610300D02*
X232390320Y-158610300D01*
X232390320Y-158610300D02*
X232390320Y-158610300D01*
X232390320Y-158610300D02*
X226069520Y-158610300D01*
X226069520Y-158610300D02*
X226069520Y-158610300D01*
X226069520Y-158610300D02*
X223781620Y-158610300D01*
X220975921Y-150662000D02*
G75*
G03*
X220975921Y-150662000I0J0D01*
G01*
%TO.C,RESET1*%
X226232720Y-121126000D02*
X225470720Y-121126000D01*
X226232720Y-122123200D02*
X226232720Y-121126000D01*
X233243120Y-122123200D02*
X226232720Y-122123200D01*
X233243120Y-121126000D02*
X233243120Y-122123200D01*
X234005120Y-121126000D02*
X233243120Y-121126000D01*
X234005120Y-116110000D02*
X234005120Y-121124980D01*
X233243120Y-115112800D02*
X233243120Y-116110000D01*
X226232720Y-115112800D02*
X233243120Y-115112800D01*
X226232720Y-116110000D02*
X226232720Y-115112800D01*
X225470720Y-116110000D02*
X226232720Y-116110000D01*
X225470720Y-121126000D02*
X225470720Y-116110000D01*
X234005120Y-116110000D02*
X233243120Y-116110000D01*
%TO.C,R35*%
X135883920Y-142970000D02*
X132583920Y-142970000D01*
X135883920Y-141510000D02*
X135883920Y-142970000D01*
X132583920Y-141510000D02*
X135883920Y-141510000D01*
X132583920Y-142970000D02*
X132583920Y-141510000D01*
%TO.C,TP2*%
X105781920Y-172212000D02*
G75*
G03*
X105781920Y-172212000I-1520000J0D01*
G01*
%TO.C,TP3*%
X101717920Y-183134000D02*
G75*
G03*
X101717920Y-183134000I-1520000J0D01*
G01*
%TO.C,TP4*%
X104257920Y-165354000D02*
G75*
G03*
X104257920Y-165354000I-1520000J0D01*
G01*
%TO.C,TP7*%
X130419920Y-162052000D02*
G75*
G03*
X130419920Y-162052000I-1520000J0D01*
G01*
%TO.C,TP8*%
X139309920Y-162052000D02*
G75*
G03*
X139309920Y-162052000I-1520000J0D01*
G01*
%TO.C,TP1*%
X238623920Y-165100000D02*
G75*
G03*
X238623920Y-165100000I-1520000J0D01*
G01*
%TO.C,TP5*%
X241417920Y-111760000D02*
G75*
G03*
X241417920Y-111760000I-1520000J0D01*
G01*
%TO.C,TP6*%
X223129920Y-123698000D02*
G75*
G03*
X223129920Y-123698000I-1520000J0D01*
G01*
%TO.C,U4*%
X177247920Y-113108000D02*
X177247920Y-129208000D01*
X165387920Y-113108000D02*
X165387920Y-129208000D01*
X165387920Y-129208000D02*
X177247920Y-129208000D01*
X165387920Y-113108000D02*
X177247920Y-113108000D01*
%TO.C,JP6*%
X139581920Y-117328000D02*
X134981920Y-117328000D01*
X139581920Y-117328000D02*
X139581920Y-114828000D01*
X134981920Y-114828000D02*
X134981920Y-117328000D01*
X134981920Y-114828000D02*
X139581920Y-114828000D01*
%TO.C,JP7*%
X145931920Y-117328000D02*
X141331920Y-117328000D01*
X145931920Y-117328000D02*
X145931920Y-114828000D01*
X141331920Y-114828000D02*
X141331920Y-117328000D01*
X141331920Y-114828000D02*
X145931920Y-114828000D01*
%TO.C,JP8*%
X151265920Y-117328000D02*
X146665920Y-117328000D01*
X151265920Y-117328000D02*
X151265920Y-114828000D01*
X146665920Y-114828000D02*
X146665920Y-117328000D01*
X146665920Y-114828000D02*
X151265920Y-114828000D01*
%TO.C,R19*%
X188463920Y-119666000D02*
X191763920Y-119666000D01*
X188463920Y-121126000D02*
X188463920Y-119666000D01*
X191763920Y-121126000D02*
X188463920Y-121126000D01*
X191763920Y-119666000D02*
X191763920Y-121126000D01*
%TO.C,R22*%
X183129920Y-118650000D02*
X186429920Y-118650000D01*
X183129920Y-120110000D02*
X183129920Y-118650000D01*
X186429920Y-120110000D02*
X183129920Y-120110000D01*
X186429920Y-118650000D02*
X186429920Y-120110000D01*
%TO.C,U1*%
X132357920Y-148140000D02*
G75*
G03*
X132357920Y-148140000I-9750000J0D01*
G01*
%TO.C,J12*%
X210573920Y-169839012D02*
X210573920Y-183728990D01*
X224113920Y-169839012D02*
X210573920Y-169839012D01*
X224113920Y-183728990D02*
X224113920Y-169839012D01*
X210573920Y-183728990D02*
X224113920Y-183728990D01*
%TO.C,JP9*%
X161518920Y-135368000D02*
X161518920Y-139968000D01*
X161518920Y-135368000D02*
X159018920Y-135368000D01*
X159018920Y-139968000D02*
X161518920Y-139968000D01*
X159018920Y-139968000D02*
X159018920Y-135368000D01*
%TO.C,JP11*%
X157708920Y-135368000D02*
X157708920Y-139968000D01*
X157708920Y-135368000D02*
X155208920Y-135368000D01*
X155208920Y-139968000D02*
X157708920Y-139968000D01*
X155208920Y-139968000D02*
X155208920Y-135368000D01*
%TO.C,JP12*%
X165328920Y-136003000D02*
X165328920Y-140603000D01*
X165328920Y-136003000D02*
X162828920Y-136003000D01*
X162828920Y-140603000D02*
X165328920Y-140603000D01*
X162828920Y-140603000D02*
X162828920Y-136003000D01*
%TO.C,U7*%
X160158920Y-141318000D02*
X152758920Y-141318000D01*
X160158920Y-146718000D02*
X160158920Y-141318000D01*
X152758920Y-146718000D02*
X160158920Y-146718000D01*
X152758920Y-141318000D02*
X152758920Y-146718000D01*
%TO.C,JP10*%
X151993920Y-135368000D02*
X151993920Y-139968000D01*
X151993920Y-135368000D02*
X149493920Y-135368000D01*
X149493920Y-139968000D02*
X151993920Y-139968000D01*
X149493920Y-139968000D02*
X149493920Y-135368000D01*
%TO.C,C19*%
X125717920Y-130804000D02*
X125717920Y-136404000D01*
X128017920Y-130804000D02*
X125717920Y-130804000D01*
X128017920Y-136404000D02*
X128017920Y-130804000D01*
X125717920Y-136404000D02*
X128017920Y-136404000D01*
%TO.C,U5*%
X191283920Y-148724000D02*
X191283920Y-159124000D01*
X183863920Y-148724000D02*
X183863920Y-159124000D01*
X183863920Y-159124000D02*
X191283920Y-159124000D01*
X183863920Y-148724000D02*
X191283920Y-148724000D01*
%TD*%
M02*
