"Id";"Designator";"Package";"Quantity";"Designation";"Supplier and ref";
1;"U6";"CONV_R-78E5.0-1.0";1;"R-78E5.0-1.0";;;
2;"C19";"1206";1;"4.7UF";;;
3;"U5";"SOIC127P600X175-16N";1;"PCA9546AD";;;
4;"RESET1";"KSC401J 50SH LFS";1;"MOMENTARY-SWITCH-SPST-2-SMD-4.6X2.8MM";;;
5;"U7";"SOIC-8-1EP_3.9x4.9mm_P1.27mm_EP2.41x3.3mm_ThermalVias";1;"24LC128";;;
6;"BT2,BT12,BT8,BT11,BT6,BT7,BT5,BT4,BT10,BT3,BT9";"Molex_Mini-Fit_Jr_5569-08A2_2x04_P4.20mm_Horizontal";11;"Conn_02x04_Top_Bottom";;;
7;"J17,J20,J18";"Molex_Micro-Fit_3.0_43650-0300_1x03_P3.00mm_Horizontal";3;"43650-0300";;;
8;"C6,C1,C7,C8,C9,C10,C13,C20";"C_0603_1608Metric_Pad1.05x0.95mm_HandSolder";8;"0.1u";;;
9;"R36,R31";"R_0603_1608Metric_Pad1.05x0.95mm_HandSolder";2;"1K";;;
10;"J2";"PinHeader_1x06_P2.54mm_Horizontal";1;"PROGRAM";;;
11;"C4,C5";"C_0603_1608Metric_Pad1.05x0.95mm_HandSolder";2;"27pF";;;
12;"C11";"C_0603_1608Metric_Pad1.05x0.95mm_HandSolder";1;"0.01u";;;
13;"C15";"C_0603_1608Metric_Pad1.05x0.95mm_HandSolder";1;"1u";;;
14;"C17";"C_0805_2012Metric";1;"10uF";;;
15;"J16";"Molex_Mini-Fit_Jr_5569-02A2_2x01_P4.20mm_Horizontal";1;"RTE";;;
16;"R1,R2";"R_0805_2012Metric";2;"100K";;;
17;"R3,R4";"R_0603_1608Metric_Pad1.05x0.95mm_HandSolder";2;"220";;;
18;"R5,R6,R7,R9,R10,R12,R13,R14,R15,R18,R23,R24,R26,R28,R29,R30,R8,R11,R16,R17,R20,R21,R25,R27,R19,R22";"R_0603_1608Metric_Pad1.05x0.95mm_HandSolder";26;"4.7K";;;
19;"U2";"SSOP-28_5.3x10.2mm_P0.65mm";1;"PIC18F27Q10";;;
20;"U3";"SOP65P640X110-16N";1;"MAX3323E";;;
21;"Y1";"Crystal_SMD_HC49-SD";1;"3.686 MHz";;;
22;"L1";"IND_5022_TDK";1;"100uH";;;
23;"JP1";"SolderJumper-2_P1.3mm_Open_RoundedPad1.0x1.5mm";1;"JUMPER-SMT_2_NO";;;
24;"J3";"Molex_Micro-Fit_3.0_43650-0500_1x05_P3.00mm_Horizontal";1;"Charge_Ctrl";;;
25;"J4,J5,J6,J7,J8,J9,J10,J11,J13,J14,J15,J12";"460150209";12;"460150209";;;
26;"J19";"Molex_Micro-Fit_3.0_43045-0400_2x02_P3.00mm_Horizontal";1;"LEAK DET";;;
27;"J1";"Molex_Mini-Fit_Jr_5569-12A2_2x06_P4.20mm_Horizontal";1;"Profiler Interconnect";;;
28;"JP2";"SolderJumper-3_P1.3mm_Open_RoundedPad1.0x1.5mm_NumberLabels";1;"JUMPER-SMT_3_NO";;;
29;"BT1";"Molex_Mini-Fit_Jr_5569-08A2_2x04_P4.20mm_Horizontal";1;"5569-08A2";;;
30;"D1";"LED_LTST-C155GEKT";1;"LTST-C155";;;
31;"R32,R33,R34,R35";"R_0603_1608Metric_Pad1.05x0.95mm_HandSolder";4;"10K";;;
32;"J21,J22,J23";"Molex_Micro-Fit_3.0_43650-0400_1x04_P3.00mm_Horizontal";3;"43650-0400";;;
33;"U9";"10142048-02";1;"10142048-02";;;
34;"U8";"SCD41-D-R1";1;"SCD41-D-R1";;;
35;"TP2,TP3,TP4,TP7,TP8,TP1,TP5,TP6";"Test_Point_D102mm";8;"5001";;;
36;"U4";"PCA9548AD_118";1;"PCA9548AD,118";;;
37;"U1";"MQ-6";1;"MQ-8";;;
