EESchema Schematic File Version 4
EELAYER 30 0
EELAYER END
$Descr B 17000 11000
encoding utf-8
Sheet 2 4
Title "109633 PCB, SMBus Mux, Profiler"
Date "2020-05-28"
Rev "C"
Comp ""
Comment1 ""
Comment2 ""
Comment3 ""
Comment4 ""
$EndDescr
$Comp
L 109633-rescue:Rsmall-dgi2 R?
U 1 1 5A8F5EC9
P 2925 1425
AR Path="/5B11D17D/5A8F5EC9" Ref="R?"  Part="1" 
AR Path="/5B13E060/5A8F5EC9" Ref="R?"  Part="1" 
AR Path="/5E57930B/5A8F5EC9" Ref="R11"  Part="1" 
AR Path="/5EFBE18D/5A8F5EC9" Ref="R?"  Part="1" 
AR Path="/5F6C1276/5A8F5EC9" Ref="R?"  Part="1" 
AR Path="/5F745286/5A8F5EC9" Ref="R?"  Part="1" 
F 0 "R11" V 2825 1300 50  0000 C CNN
F 1 "4.7K" V 2925 1300 50  0000 C CNN
F 2 "Resistor_SMD:R_0603_1608Metric_Pad1.05x0.95mm_HandSolder" H 2925 1425 60  0001 C CNN
F 3 "" H 2925 1425 60  0001 C CNN
F 4 "Susumu" H -1225 0   50  0001 C CNN "MFR"
F 5 "RR0816P-472-D" H -1225 0   50  0001 C CNN "MPN"
F 6 "-" H -1225 0   50  0001 C CNN "SPR"
F 7 "-" H -1225 0   50  0001 C CNN "SPN"
F 8 "-" H -1225 0   50  0001 C CNN "SPURL"
	1    2925 1425
	0    1    1    0   
$EndComp
$Comp
L 109633-rescue:Rsmall-dgi2 R?
U 1 1 5A8F6471
P 3200 1500
AR Path="/5B11D17D/5A8F6471" Ref="R?"  Part="1" 
AR Path="/5B13E060/5A8F6471" Ref="R?"  Part="1" 
AR Path="/5E57930B/5A8F6471" Ref="R12"  Part="1" 
AR Path="/5EFBE18D/5A8F6471" Ref="R?"  Part="1" 
AR Path="/5F6C1276/5A8F6471" Ref="R?"  Part="1" 
AR Path="/5F745286/5A8F6471" Ref="R?"  Part="1" 
F 0 "R12" V 3100 1375 50  0000 C CNN
F 1 "4.7K" V 3200 1375 50  0000 C CNN
F 2 "Resistor_SMD:R_0603_1608Metric_Pad1.05x0.95mm_HandSolder" H 3200 1500 60  0001 C CNN
F 3 "" H 3200 1500 60  0001 C CNN
F 4 "Susumu" H -1225 0   50  0001 C CNN "MFR"
F 5 "RR0816P-472-D" H -1225 0   50  0001 C CNN "MPN"
F 6 "-" H -1225 0   50  0001 C CNN "SPR"
F 7 "-" H -1225 0   50  0001 C CNN "SPN"
F 8 "-" H -1225 0   50  0001 C CNN "SPURL"
	1    3200 1500
	0    1    1    0   
$EndComp
$Comp
L 109633-rescue:Rsmall-dgi2 R?
U 1 1 5A8F64D0
P 3425 1425
AR Path="/5B11D17D/5A8F64D0" Ref="R?"  Part="1" 
AR Path="/5B13E060/5A8F64D0" Ref="R?"  Part="1" 
AR Path="/5E57930B/5A8F64D0" Ref="R13"  Part="1" 
AR Path="/5EFBE18D/5A8F64D0" Ref="R?"  Part="1" 
AR Path="/5F6C1276/5A8F64D0" Ref="R?"  Part="1" 
AR Path="/5F745286/5A8F64D0" Ref="R?"  Part="1" 
F 0 "R13" V 3325 1300 50  0000 C CNN
F 1 "4.7K" V 3425 1300 50  0000 C CNN
F 2 "Resistor_SMD:R_0603_1608Metric_Pad1.05x0.95mm_HandSolder" H 3425 1425 60  0001 C CNN
F 3 "" H 3425 1425 60  0001 C CNN
F 4 "Susumu" H -1225 100 50  0001 C CNN "MFR"
F 5 "RR0816P-472-D" H -1225 100 50  0001 C CNN "MPN"
F 6 "-" H -1225 100 50  0001 C CNN "SPR"
F 7 "-" H -1225 100 50  0001 C CNN "SPN"
F 8 "-" H -1225 100 50  0001 C CNN "SPURL"
	1    3425 1425
	0    1    1    0   
$EndComp
$Comp
L 109633-rescue:Rsmall-dgi2 R?
U 1 1 5A8F658A
P 3650 1525
AR Path="/5B11D17D/5A8F658A" Ref="R?"  Part="1" 
AR Path="/5B13E060/5A8F658A" Ref="R?"  Part="1" 
AR Path="/5E57930B/5A8F658A" Ref="R14"  Part="1" 
AR Path="/5EFBE18D/5A8F658A" Ref="R?"  Part="1" 
AR Path="/5F6C1276/5A8F658A" Ref="R?"  Part="1" 
AR Path="/5F745286/5A8F658A" Ref="R?"  Part="1" 
F 0 "R14" V 3550 1400 50  0000 C CNN
F 1 "4.7K" V 3650 1400 50  0000 C CNN
F 2 "Resistor_SMD:R_0603_1608Metric_Pad1.05x0.95mm_HandSolder" H 3650 1525 60  0001 C CNN
F 3 "" H 3650 1525 60  0001 C CNN
F 4 "Susumu" H -1225 0   50  0001 C CNN "MFR"
F 5 "RR0816P-472-D" H -1225 0   50  0001 C CNN "MPN"
F 6 "-" H -1225 0   50  0001 C CNN "SPR"
F 7 "-" H -1225 0   50  0001 C CNN "SPN"
F 8 "-" H -1225 0   50  0001 C CNN "SPURL"
	1    3650 1525
	0    1    1    0   
$EndComp
$Comp
L 109633-rescue:Rsmall-dgi2 R?
U 1 1 5A8F6F7C
P 8550 1425
AR Path="/5B11D17D/5A8F6F7C" Ref="R?"  Part="1" 
AR Path="/5B13E060/5A8F6F7C" Ref="R?"  Part="1" 
AR Path="/5E57930B/5A8F6F7C" Ref="R24"  Part="1" 
AR Path="/5EFBE18D/5A8F6F7C" Ref="R?"  Part="1" 
AR Path="/5F6C1276/5A8F6F7C" Ref="R?"  Part="1" 
AR Path="/5F745286/5A8F6F7C" Ref="R?"  Part="1" 
F 0 "R24" V 8450 1300 50  0000 C CNN
F 1 "4.7K" V 8550 1300 50  0000 C CNN
F 2 "Resistor_SMD:R_0603_1608Metric_Pad1.05x0.95mm_HandSolder" H 8550 1425 60  0001 C CNN
F 3 "" H 8550 1425 60  0001 C CNN
F 4 "Susumu" H 675 100 50  0001 C CNN "MFR"
F 5 "RR0816P-472-D" H 675 100 50  0001 C CNN "MPN"
F 6 "-" H 675 100 50  0001 C CNN "SPR"
F 7 "-" H 675 100 50  0001 C CNN "SPN"
F 8 "-" H 675 100 50  0001 C CNN "SPURL"
	1    8550 1425
	0    -1   1    0   
$EndComp
$Comp
L 109633-rescue:Rsmall-dgi2 R?
U 1 1 5A8F7027
P 8250 1450
AR Path="/5B11D17D/5A8F7027" Ref="R?"  Part="1" 
AR Path="/5B13E060/5A8F7027" Ref="R?"  Part="1" 
AR Path="/5E57930B/5A8F7027" Ref="R23"  Part="1" 
AR Path="/5EFBE18D/5A8F7027" Ref="R?"  Part="1" 
AR Path="/5F6C1276/5A8F7027" Ref="R?"  Part="1" 
AR Path="/5F745286/5A8F7027" Ref="R?"  Part="1" 
F 0 "R23" V 8150 1325 50  0000 C CNN
F 1 "4.7K" V 8250 1325 50  0000 C CNN
F 2 "Resistor_SMD:R_0603_1608Metric_Pad1.05x0.95mm_HandSolder" H 8250 1450 60  0001 C CNN
F 3 "" H 8250 1450 60  0001 C CNN
F 4 "Susumu" H 625 -50 50  0001 C CNN "MFR"
F 5 "RR0816P-472-D" H 625 -50 50  0001 C CNN "MPN"
F 6 "-" H 625 -50 50  0001 C CNN "SPR"
F 7 "-" H 625 -50 50  0001 C CNN "SPN"
F 8 "-" H 625 -50 50  0001 C CNN "SPURL"
	1    8250 1450
	0    -1   1    0   
$EndComp
$Comp
L 109633-rescue:Rsmall-dgi2 R?
U 1 1 5A8F72BB
P 9250 1400
AR Path="/5B11D17D/5A8F72BB" Ref="R?"  Part="1" 
AR Path="/5B13E060/5A8F72BB" Ref="R?"  Part="1" 
AR Path="/5E57930B/5A8F72BB" Ref="R26"  Part="1" 
AR Path="/5EFBE18D/5A8F72BB" Ref="R?"  Part="1" 
AR Path="/5F6C1276/5A8F72BB" Ref="R?"  Part="1" 
AR Path="/5F745286/5A8F72BB" Ref="R?"  Part="1" 
F 0 "R26" V 9150 1275 50  0000 C CNN
F 1 "4.7K" V 9250 1275 50  0000 C CNN
F 2 "Resistor_SMD:R_0603_1608Metric_Pad1.05x0.95mm_HandSolder" H 9250 1400 60  0001 C CNN
F 3 "" H 9250 1400 60  0001 C CNN
F 4 "Susumu" H 900 50  50  0001 C CNN "MFR"
F 5 "RR0816P-472-D" H 900 50  50  0001 C CNN "MPN"
F 6 "-" H 900 50  50  0001 C CNN "SPR"
F 7 "-" H 900 50  50  0001 C CNN "SPN"
F 8 "-" H 900 50  50  0001 C CNN "SPURL"
	1    9250 1400
	0    -1   1    0   
$EndComp
$Comp
L 109633-rescue:Rsmall-dgi2 R?
U 1 1 5A8F72C1
P 8950 1425
AR Path="/5B11D17D/5A8F72C1" Ref="R?"  Part="1" 
AR Path="/5B13E060/5A8F72C1" Ref="R?"  Part="1" 
AR Path="/5E57930B/5A8F72C1" Ref="R25"  Part="1" 
AR Path="/5EFBE18D/5A8F72C1" Ref="R?"  Part="1" 
AR Path="/5F6C1276/5A8F72C1" Ref="R?"  Part="1" 
AR Path="/5F745286/5A8F72C1" Ref="R?"  Part="1" 
F 0 "R25" V 8850 1300 50  0000 C CNN
F 1 "4.7K" V 8950 1300 50  0000 C CNN
F 2 "Resistor_SMD:R_0603_1608Metric_Pad1.05x0.95mm_HandSolder" H 8950 1425 60  0001 C CNN
F 3 "" H 8950 1425 60  0001 C CNN
F 4 "Susumu" H 850 -100 50  0001 C CNN "MFR"
F 5 "RR0816P-472-D" H 850 -100 50  0001 C CNN "MPN"
F 6 "-" H 850 -100 50  0001 C CNN "SPR"
F 7 "-" H 850 -100 50  0001 C CNN "SPN"
F 8 "-" H 850 -100 50  0001 C CNN "SPURL"
	1    8950 1425
	0    -1   1    0   
$EndComp
$Comp
L Device:C_Small C?
U 1 1 5A8FAC19
P 12100 1900
AR Path="/5B11D17D/5A8FAC19" Ref="C?"  Part="1" 
AR Path="/5B13E060/5A8FAC19" Ref="C?"  Part="1" 
AR Path="/5E57930B/5A8FAC19" Ref="C12"  Part="1" 
AR Path="/5EFBE18D/5A8FAC19" Ref="C?"  Part="1" 
AR Path="/5F6C1276/5A8FAC19" Ref="C?"  Part="1" 
AR Path="/5F745286/5A8FAC19" Ref="C?"  Part="1" 
F 0 "C12" H 12150 2000 50  0000 L CNN
F 1 "0.1u" H 12150 1800 50  0000 L CNN
F 2 "Capacitor_SMD:C_0603_1608Metric_Pad1.05x0.95mm_HandSolder" H 12100 1900 50  0001 C CNN
F 3 "" H 12100 1900 50  0001 C CNN
F 4 "Kemet" H 2300 475 50  0001 C CNN "MFR"
F 5 "C0603X104K5RAC7411" H 2300 475 50  0001 C CNN "MPN"
F 6 "-" H 2300 475 50  0001 C CNN "SPR"
F 7 "-" H 2300 475 50  0001 C CNN "SPN"
F 8 "-" H 2300 475 50  0001 C CNN "SPURL"
	1    12100 1900
	1    0    0    -1  
$EndComp
$Comp
L Device:C_Small C?
U 1 1 5B11BFAC
P 12600 1900
AR Path="/5B11D17D/5B11BFAC" Ref="C?"  Part="1" 
AR Path="/5B13E060/5B11BFAC" Ref="C?"  Part="1" 
AR Path="/5E57930B/5B11BFAC" Ref="C13"  Part="1" 
AR Path="/5EFBE18D/5B11BFAC" Ref="C?"  Part="1" 
AR Path="/5F6C1276/5B11BFAC" Ref="C?"  Part="1" 
AR Path="/5F745286/5B11BFAC" Ref="C?"  Part="1" 
F 0 "C13" H 12450 2000 50  0000 L CNN
F 1 "1u" H 12450 1800 50  0000 L CNN
F 2 "Capacitor_SMD:C_0603_1608Metric_Pad1.05x0.95mm_HandSolder" H 12638 1750 30  0001 C CNN
F 3 "" H 12600 1900 60  0001 C CNN
F 4 "Samsung Electro-Mechanics" H 1525 500 50  0001 C CNN "MFR"
F 5 "CL10B105KO8NFNC" H 1525 500 50  0001 C CNN "MPN"
F 6 "-" H 1525 500 50  0001 C CNN "SPR"
F 7 "-" H 1525 500 50  0001 C CNN "SPN"
F 8 "-" H 1525 500 50  0001 C CNN "SPURL"
	1    12600 1900
	-1   0    0    -1  
$EndComp
$Comp
L 109633-rescue:PCA9548A-dgi2 U?
U 1 1 5B166440
P 5600 2175
AR Path="/5B11D17D/5B166440" Ref="U?"  Part="1" 
AR Path="/5B13E060/5B166440" Ref="U?"  Part="1" 
AR Path="/5E57930B/5B166440" Ref="U3"  Part="1" 
AR Path="/5EFBE18D/5B166440" Ref="U?"  Part="1" 
AR Path="/5F6C1276/5B166440" Ref="U?"  Part="1" 
AR Path="/5F745286/5B166440" Ref="U?"  Part="1" 
F 0 "U3" H 5150 2875 50  0000 L CNN
F 1 "PCA9548A" H 5750 2875 50  0000 L CNN
F 2 "Footprint:SOP65P780X200-24N" H 5600 2275 50  0001 C CNN
F 3 "" H 5600 2275 50  0001 C CNN
F 4 "NXP USA Inc." H -1225 0   50  0001 C CNN "MFR"
F 5 "PCA9548APW,118" H -1225 0   50  0001 C CNN "MPN"
F 6 "-" H -1225 0   50  0001 C CNN "SPR"
F 7 "-" H -1225 0   50  0001 C CNN "SPN"
F 8 "-" H -1225 0   50  0001 C CNN "SPURL"
	1    5600 2175
	1    0    0    -1  
$EndComp
$Comp
L 109633-rescue:Rsmall-dgi2 R?
U 1 1 5B16EE76
P 3950 1550
AR Path="/5B11D17D/5B16EE76" Ref="R?"  Part="1" 
AR Path="/5B13E060/5B16EE76" Ref="R?"  Part="1" 
AR Path="/5E57930B/5B16EE76" Ref="R15"  Part="1" 
AR Path="/5EFBE18D/5B16EE76" Ref="R?"  Part="1" 
AR Path="/5F6C1276/5B16EE76" Ref="R?"  Part="1" 
AR Path="/5F745286/5B16EE76" Ref="R?"  Part="1" 
F 0 "R15" V 3850 1425 50  0000 C CNN
F 1 "4.7K" V 3950 1425 50  0000 C CNN
F 2 "Resistor_SMD:R_0603_1608Metric_Pad1.05x0.95mm_HandSolder" H 3950 1550 60  0001 C CNN
F 3 "" H 3950 1550 60  0001 C CNN
F 4 "Susumu" H -1225 0   50  0001 C CNN "MFR"
F 5 "RR0816P-472-D" H -1225 0   50  0001 C CNN "MPN"
F 6 "-" H -1225 0   50  0001 C CNN "SPR"
F 7 "-" H -1225 0   50  0001 C CNN "SPN"
F 8 "-" H -1225 0   50  0001 C CNN "SPURL"
	1    3950 1550
	0    1    1    0   
$EndComp
$Comp
L 109633-rescue:Rsmall-dgi2 R?
U 1 1 5B16EE7C
P 4225 1625
AR Path="/5B11D17D/5B16EE7C" Ref="R?"  Part="1" 
AR Path="/5B13E060/5B16EE7C" Ref="R?"  Part="1" 
AR Path="/5E57930B/5B16EE7C" Ref="R16"  Part="1" 
AR Path="/5EFBE18D/5B16EE7C" Ref="R?"  Part="1" 
AR Path="/5F6C1276/5B16EE7C" Ref="R?"  Part="1" 
AR Path="/5F745286/5B16EE7C" Ref="R?"  Part="1" 
F 0 "R16" V 4125 1500 50  0000 C CNN
F 1 "4.7K" V 4225 1500 50  0000 C CNN
F 2 "Resistor_SMD:R_0603_1608Metric_Pad1.05x0.95mm_HandSolder" H 4225 1625 60  0001 C CNN
F 3 "" H 4225 1625 60  0001 C CNN
F 4 "Susumu" H -1225 0   50  0001 C CNN "MFR"
F 5 "RR0816P-472-D" H -1225 0   50  0001 C CNN "MPN"
F 6 "-" H -1225 0   50  0001 C CNN "SPR"
F 7 "-" H -1225 0   50  0001 C CNN "SPN"
F 8 "-" H -1225 0   50  0001 C CNN "SPURL"
	1    4225 1625
	0    1    1    0   
$EndComp
$Comp
L 109633-rescue:Rsmall-dgi2 R?
U 1 1 5B16EE82
P 4450 1450
AR Path="/5B11D17D/5B16EE82" Ref="R?"  Part="1" 
AR Path="/5B13E060/5B16EE82" Ref="R?"  Part="1" 
AR Path="/5E57930B/5B16EE82" Ref="R17"  Part="1" 
AR Path="/5EFBE18D/5B16EE82" Ref="R?"  Part="1" 
AR Path="/5F6C1276/5B16EE82" Ref="R?"  Part="1" 
AR Path="/5F745286/5B16EE82" Ref="R?"  Part="1" 
F 0 "R17" V 4350 1325 50  0000 C CNN
F 1 "4.7K" V 4450 1325 50  0000 C CNN
F 2 "Resistor_SMD:R_0603_1608Metric_Pad1.05x0.95mm_HandSolder" H 4450 1450 60  0001 C CNN
F 3 "" H 4450 1450 60  0001 C CNN
F 4 "Susumu" H -1225 0   50  0001 C CNN "MFR"
F 5 "RR0816P-472-D" H -1225 0   50  0001 C CNN "MPN"
F 6 "-" H -1225 0   50  0001 C CNN "SPR"
F 7 "-" H -1225 0   50  0001 C CNN "SPN"
F 8 "-" H -1225 0   50  0001 C CNN "SPURL"
	1    4450 1450
	0    1    1    0   
$EndComp
$Comp
L 109633-rescue:Rsmall-dgi2 R?
U 1 1 5B16EE88
P 4675 1650
AR Path="/5B11D17D/5B16EE88" Ref="R?"  Part="1" 
AR Path="/5B13E060/5B16EE88" Ref="R?"  Part="1" 
AR Path="/5E57930B/5B16EE88" Ref="R18"  Part="1" 
AR Path="/5EFBE18D/5B16EE88" Ref="R?"  Part="1" 
AR Path="/5F6C1276/5B16EE88" Ref="R?"  Part="1" 
AR Path="/5F745286/5B16EE88" Ref="R?"  Part="1" 
F 0 "R18" V 4575 1525 50  0000 C CNN
F 1 "4.7K" V 4675 1525 50  0000 C CNN
F 2 "Resistor_SMD:R_0603_1608Metric_Pad1.05x0.95mm_HandSolder" H 4675 1650 60  0001 C CNN
F 3 "" H 4675 1650 60  0001 C CNN
F 4 "Susumu" H -1225 0   50  0001 C CNN "MFR"
F 5 "RR0816P-472-D" H -1225 0   50  0001 C CNN "MPN"
F 6 "-" H -1225 0   50  0001 C CNN "SPR"
F 7 "-" H -1225 0   50  0001 C CNN "SPN"
F 8 "-" H -1225 0   50  0001 C CNN "SPURL"
	1    4675 1650
	0    1    1    0   
$EndComp
$Comp
L 109633-rescue:Rsmall-dgi2 R?
U 1 1 5C1E19FB
P 6450 1425
AR Path="/5B11D17D/5C1E19FB" Ref="R?"  Part="1" 
AR Path="/5B13E060/5C1E19FB" Ref="R?"  Part="1" 
AR Path="/5E57930B/5C1E19FB" Ref="R19"  Part="1" 
AR Path="/5EFBE18D/5C1E19FB" Ref="R?"  Part="1" 
AR Path="/5F6C1276/5C1E19FB" Ref="R?"  Part="1" 
AR Path="/5F745286/5C1E19FB" Ref="R?"  Part="1" 
F 0 "R19" V 6350 1300 50  0000 C CNN
F 1 "4.7K" V 6450 1300 50  0000 C CNN
F 2 "Resistor_SMD:R_0603_1608Metric_Pad1.05x0.95mm_HandSolder" H 6450 1425 60  0001 C CNN
F 3 "" H 6450 1425 60  0001 C CNN
F 4 "Susumu" H -1175 -75 50  0001 C CNN "MFR"
F 5 "RR0816P-472-D" H -1175 -75 50  0001 C CNN "MPN"
F 6 "-" H -1175 -75 50  0001 C CNN "SPR"
F 7 "-" H -1175 -75 50  0001 C CNN "SPN"
F 8 "-" H -1175 -75 50  0001 C CNN "SPURL"
	1    6450 1425
	0    -1   1    0   
$EndComp
$Comp
L 109633-rescue:Rsmall-dgi2 R?
U 1 1 5C1E1AD6
P 6950 1425
AR Path="/5B11D17D/5C1E1AD6" Ref="R?"  Part="1" 
AR Path="/5B13E060/5C1E1AD6" Ref="R?"  Part="1" 
AR Path="/5E57930B/5C1E1AD6" Ref="R20"  Part="1" 
AR Path="/5EFBE18D/5C1E1AD6" Ref="R?"  Part="1" 
AR Path="/5F6C1276/5C1E1AD6" Ref="R?"  Part="1" 
AR Path="/5F745286/5C1E1AD6" Ref="R?"  Part="1" 
F 0 "R20" V 6850 1300 50  0000 C CNN
F 1 "4.7K" V 6950 1300 50  0000 C CNN
F 2 "Resistor_SMD:R_0603_1608Metric_Pad1.05x0.95mm_HandSolder" H 6950 1425 60  0001 C CNN
F 3 "" H 6950 1425 60  0001 C CNN
F 4 "Susumu" H -675 -75 50  0001 C CNN "MFR"
F 5 "RR0816P-472-D" H -675 -75 50  0001 C CNN "MPN"
F 6 "-" H -675 -75 50  0001 C CNN "SPR"
F 7 "-" H -675 -75 50  0001 C CNN "SPN"
F 8 "-" H -675 -75 50  0001 C CNN "SPURL"
	1    6950 1425
	0    -1   1    0   
$EndComp
$Comp
L 109633-rescue:Rsmall-dgi2 R?
U 1 1 5C1E3197
P 7800 1425
AR Path="/5B11D17D/5C1E3197" Ref="R?"  Part="1" 
AR Path="/5B13E060/5C1E3197" Ref="R?"  Part="1" 
AR Path="/5E57930B/5C1E3197" Ref="R22"  Part="1" 
AR Path="/5EFBE18D/5C1E3197" Ref="R?"  Part="1" 
AR Path="/5F6C1276/5C1E3197" Ref="R?"  Part="1" 
AR Path="/5F745286/5C1E3197" Ref="R?"  Part="1" 
F 0 "R22" V 7700 1300 50  0000 C CNN
F 1 "4.7K" V 7800 1300 50  0000 C CNN
F 2 "Resistor_SMD:R_0603_1608Metric_Pad1.05x0.95mm_HandSolder" H 7800 1425 60  0001 C CNN
F 3 "" H 7800 1425 60  0001 C CNN
F 4 "Susumu" H 175 -75 50  0001 C CNN "MFR"
F 5 "RR0816P-472-D" H 175 -75 50  0001 C CNN "MPN"
F 6 "-" H 175 -75 50  0001 C CNN "SPR"
F 7 "-" H 175 -75 50  0001 C CNN "SPN"
F 8 "-" H 175 -75 50  0001 C CNN "SPURL"
	1    7800 1425
	0    -1   1    0   
$EndComp
$Comp
L 109633-rescue:Rsmall-dgi2 R?
U 1 1 5C1E4750
P 7400 1400
AR Path="/5B11D17D/5C1E4750" Ref="R?"  Part="1" 
AR Path="/5B13E060/5C1E4750" Ref="R?"  Part="1" 
AR Path="/5E57930B/5C1E4750" Ref="R21"  Part="1" 
AR Path="/5EFBE18D/5C1E4750" Ref="R?"  Part="1" 
AR Path="/5F6C1276/5C1E4750" Ref="R?"  Part="1" 
AR Path="/5F745286/5C1E4750" Ref="R?"  Part="1" 
F 0 "R21" V 7300 1275 50  0000 C CNN
F 1 "4.7K" V 7400 1275 50  0000 C CNN
F 2 "Resistor_SMD:R_0603_1608Metric_Pad1.05x0.95mm_HandSolder" H 7400 1400 60  0001 C CNN
F 3 "" H 7400 1400 60  0001 C CNN
F 4 "Susumu" H -225 -100 50  0001 C CNN "MFR"
F 5 "RR0816P-472-D" H -225 -100 50  0001 C CNN "MPN"
F 6 "-" H -225 -100 50  0001 C CNN "SPR"
F 7 "-" H -225 -100 50  0001 C CNN "SPN"
F 8 "-" H -225 -100 50  0001 C CNN "SPURL"
	1    7400 1400
	0    -1   1    0   
$EndComp
Text Label 5800 1100 0    60   ~ 0
3V3
Text HLabel 15000 2475 2    60   Input ~ 0
UC_SCL
Text HLabel 15000 2575 2    60   Input ~ 0
UC_SDA
Text HLabel 15000 1100 2    60   Input ~ 0
UC+3V3
Text HLabel 2450 2675 0    60   Input ~ 0
ADDR_A1
Text HLabel 2450 2575 0    60   Input ~ 0
ADDR_A0
Text HLabel 2425 1100 0    60   Input ~ 0
ADDR_HI
Text HLabel 2450 2775 0    60   Input ~ 0
ADDR_LO
Text HLabel 15000 4150 2    60   Input ~ 0
UC_GND
Text Label 6075 4150 0    60   ~ 0
PACK_SER_GND
Wire Wire Line
	4500 4900 4500 7125
Wire Wire Line
	2925 1775 5000 1775
Wire Wire Line
	2925 1525 2925 1775
Wire Wire Line
	3025 1875 3200 1875
Wire Wire Line
	3025 1875 3025 5000
Wire Wire Line
	3025 5000 3400 5000
Wire Wire Line
	3475 7125 3475 5100
Wire Wire Line
	3475 5100 2925 5100
Wire Wire Line
	3175 2175 3425 2175
Wire Wire Line
	3175 2175 3175 4900
Wire Wire Line
	3175 4900 4500 4900
Wire Wire Line
	4400 4800 3275 4800
Wire Wire Line
	3275 4800 3275 2275
Wire Wire Line
	3275 2275 3650 2275
Wire Wire Line
	5600 1100 5600 1375
Wire Wire Line
	6200 2175 8250 2175
Wire Wire Line
	6200 2075 8550 2075
Wire Wire Line
	8550 2075 8550 1525
Wire Wire Line
	6200 1775 8950 1775
Wire Wire Line
	6200 1675 9250 1675
Wire Wire Line
	9250 1675 9250 1500
Wire Wire Line
	5600 4150 5600 3925
Wire Wire Line
	3425 1100 3425 1325
Wire Wire Line
	2925 1100 2925 1325
Wire Wire Line
	3200 1100 3200 1400
Wire Wire Line
	3650 1100 3650 1425
Wire Wire Line
	8250 1550 8250 2175
Wire Wire Line
	8950 1525 8950 1775
Wire Wire Line
	8250 1100 8250 1350
Wire Wire Line
	8550 1100 8550 1325
Wire Wire Line
	8950 1100 8950 1325
Wire Wire Line
	9250 1100 9250 1300
Wire Wire Line
	6200 2475 15000 2475
Wire Wire Line
	6200 2575 15000 2575
Wire Wire Line
	12100 1100 12100 1800
Wire Wire Line
	12100 2000 12100 4150
Wire Wire Line
	4925 2775 4925 4150
Wire Wire Line
	3200 1875 3200 1600
Wire Wire Line
	3425 2175 3425 1525
Wire Wire Line
	3650 2275 3650 1625
Wire Wire Line
	2425 1100 2925 1100
Wire Wire Line
	2450 2575 5000 2575
Wire Wire Line
	12600 4150 12600 2000
Wire Wire Line
	11500 4150 12100 4150
Wire Wire Line
	12600 1100 12600 1800
Wire Wire Line
	2450 2775 4925 2775
Wire Wire Line
	2450 2675 5000 2675
Wire Wire Line
	3675 4425 6400 4425
Wire Wire Line
	3775 4325 6325 4325
Wire Wire Line
	3425 3025 3950 3025
Wire Wire Line
	3425 4625 3425 3025
Wire Wire Line
	3525 4525 3525 3125
Wire Wire Line
	3525 3125 4225 3125
Wire Wire Line
	3675 3425 4450 3425
Wire Wire Line
	3675 3425 3675 4425
Wire Wire Line
	3775 4325 3775 3525
Wire Wire Line
	3775 3525 4675 3525
Wire Wire Line
	4900 1625 5000 1625
Wire Wire Line
	3950 1650 3950 3025
Wire Wire Line
	3950 1100 3950 1450
Wire Wire Line
	4225 1100 4225 1525
Wire Wire Line
	4675 1100 4675 1550
Wire Wire Line
	4225 1725 4225 3125
Wire Wire Line
	4450 1550 4450 3425
Wire Wire Line
	4675 1750 4675 3525
Wire Wire Line
	4450 1350 4450 1100
Wire Wire Line
	4925 4150 5600 4150
Wire Wire Line
	6200 3425 6950 3425
Wire Wire Line
	6200 3025 7800 3025
Wire Wire Line
	6450 1525 6450 3525
Wire Wire Line
	6450 1325 6450 1100
Wire Wire Line
	6950 1325 6950 1100
Wire Wire Line
	7800 1325 7800 1100
Wire Wire Line
	7400 1300 7400 1100
Wire Wire Line
	7400 1500 7400 3125
Connection ~ 5600 1100
Connection ~ 3425 1100
Connection ~ 2925 1775
Connection ~ 3200 1100
Connection ~ 3650 1100
Connection ~ 8250 2175
Connection ~ 8550 2075
Connection ~ 9250 1675
Connection ~ 8950 1775
Connection ~ 8250 1100
Connection ~ 8550 1100
Connection ~ 8950 1100
Connection ~ 9250 1100
Connection ~ 5600 4150
Connection ~ 3200 1875
Connection ~ 3425 2175
Connection ~ 3650 2275
Connection ~ 12100 1100
Connection ~ 2925 1100
Connection ~ 4925 2775
Connection ~ 12600 1100
Connection ~ 4675 1100
Connection ~ 4450 1100
Connection ~ 4225 1100
Connection ~ 3950 1100
Connection ~ 4675 3525
Connection ~ 4450 3425
Connection ~ 4225 3125
Connection ~ 3950 3025
Connection ~ 11500 4150
Connection ~ 6450 3525
Connection ~ 6450 1100
Connection ~ 6950 1100
Connection ~ 7800 1100
Connection ~ 7400 1100
Connection ~ 7400 3125
Wire Wire Line
	5600 1100 6450 1100
Wire Wire Line
	3425 1100 3650 1100
Wire Wire Line
	2925 1775 2925 5100
Wire Wire Line
	3200 1100 3425 1100
Wire Wire Line
	3650 1100 3950 1100
Wire Wire Line
	8250 2175 9300 2175
Wire Wire Line
	8550 2075 9400 2075
Wire Wire Line
	9250 1675 11225 1675
Wire Wire Line
	8250 1100 8550 1100
Wire Wire Line
	8550 1100 8950 1100
Wire Wire Line
	8950 1100 9250 1100
Wire Wire Line
	9250 1100 11475 1100
Wire Wire Line
	3200 1875 5000 1875
Wire Wire Line
	3425 2175 5000 2175
Wire Wire Line
	3650 2275 5000 2275
Wire Wire Line
	12100 1100 12600 1100
Wire Wire Line
	2925 1100 3200 1100
Wire Wire Line
	4925 2775 5000 2775
Wire Wire Line
	12600 1100 13050 1100
Wire Wire Line
	4450 1100 4675 1100
Wire Wire Line
	4225 1100 4450 1100
Wire Wire Line
	3950 1100 4225 1100
Wire Wire Line
	4675 3525 5000 3525
Wire Wire Line
	4450 3425 5000 3425
Wire Wire Line
	4225 3125 5000 3125
Wire Wire Line
	3950 3025 5000 3025
Wire Wire Line
	6450 3525 6200 3525
Wire Wire Line
	6450 1100 6950 1100
Wire Wire Line
	6950 1100 7400 1100
Wire Wire Line
	7800 1100 8250 1100
Wire Wire Line
	7400 1100 7800 1100
Wire Wire Line
	7400 3125 6200 3125
Wire Wire Line
	7800 1525 7800 3025
Connection ~ 7800 3025
Wire Wire Line
	7800 3025 8275 3025
Wire Wire Line
	6950 1525 6950 3425
Connection ~ 6950 3425
Wire Wire Line
	6950 3425 7325 3425
Wire Wire Line
	3525 4525 5425 4525
Wire Wire Line
	3425 4625 5525 4625
Connection ~ 6400 7550
Wire Wire Line
	4225 7125 4500 7125
Wire Wire Line
	4400 7025 4225 7025
Wire Wire Line
	4400 4800 4400 7025
Connection ~ 12600 4150
Wire Wire Line
	12600 4150 13050 4150
Connection ~ 12100 4150
Wire Wire Line
	12100 4150 12600 4150
Wire Wire Line
	4675 1100 4900 1100
Wire Wire Line
	4900 1100 4900 1625
Connection ~ 4900 1100
Wire Wire Line
	4900 1100 5600 1100
$Comp
L 109633-rescue:Rsmall-dgi2 R?
U 1 1 5E9DAEEE
P 14550 1100
AR Path="/5E9DAEEE" Ref="R?"  Part="1" 
AR Path="/5F6C1276/5E9DAEEE" Ref="R?"  Part="1" 
AR Path="/5E57930B/5E9DAEEE" Ref="R27"  Part="1" 
AR Path="/5EFBE18D/5E9DAEEE" Ref="R?"  Part="1" 
AR Path="/5F745286/5E9DAEEE" Ref="R?"  Part="1" 
F 0 "R27" H 14650 1025 50  0000 C CNN
F 1 "220" H 14425 1025 50  0000 C CNN
F 2 "Resistor_SMD:R_0603_1608Metric_Pad1.05x0.95mm_HandSolder" H 14550 1100 60  0001 C CNN
F 3 "" H 14550 1100 60  0001 C CNN
F 4 "Susumu" H 6325 -4650 50  0001 C CNN "MFR"
F 5 "RR0816P-221-D" H 6325 -4650 50  0001 C CNN "MPN"
F 6 "-" H 6325 -4650 50  0001 C CNN "SPR"
F 7 "-" H 6325 -4650 50  0001 C CNN "SPN"
F 8 "-" H 6325 -4650 50  0001 C CNN "SPURL"
	1    14550 1100
	-1   0    0    1   
$EndComp
Wire Wire Line
	14650 1100 15000 1100
Text Notes 13600 1450 0    60   ~ 0
SOFT START TO PREVENT PIC RESET\nWHEN I2C POWER SWITCHED ON
Wire Wire Line
	5600 4150 11500 4150
$Comp
L power:PWR_FLAG #FLG?
U 1 1 5E9E55BC
P 11475 1050
AR Path="/5B34FACD/5E9E55BC" Ref="#FLG?"  Part="1" 
AR Path="/5E57930B/5E9E55BC" Ref="#FLG01"  Part="1" 
AR Path="/5EFBE18D/5E9E55BC" Ref="#FLG?"  Part="1" 
AR Path="/5F6C1276/5E9E55BC" Ref="#FLG?"  Part="1" 
AR Path="/5F745286/5E9E55BC" Ref="#FLG?"  Part="1" 
F 0 "#FLG01" H 11475 1145 50  0001 C CNN
F 1 "PWR_FLAG" H 11475 1230 50  0000 C CNN
F 2 "" H 11475 1050 50  0000 C CNN
F 3 "" H 11475 1050 50  0000 C CNN
	1    11475 1050
	1    0    0    -1  
$EndComp
Wire Wire Line
	11475 1050 11475 1100
Connection ~ 11475 1100
Wire Wire Line
	11475 1100 12100 1100
$Comp
L Device:C_Small C14
U 1 1 5E9A368C
P 13050 1925
AR Path="/5E57930B/5E9A368C" Ref="C14"  Part="1" 
AR Path="/5EFBE18D/5E9A368C" Ref="C?"  Part="1" 
AR Path="/5F6C1276/5E9A368C" Ref="C?"  Part="1" 
AR Path="/5F745286/5E9A368C" Ref="C?"  Part="1" 
F 0 "C14" H 13100 2125 50  0000 L CNN
F 1 "10u" H 13100 2025 50  0000 L CNN
F 2 "Capacitor_SMD:C_0805_2012Metric" H 13088 1775 30  0001 C CNN
F 3 "" H 13050 1925 60  0001 C CNN
F 4 "Taiyo Yuden" H 1975 525 50  0001 C CNN "MFR"
F 5 "JMK212AB7106KGHT" H 1975 525 50  0001 C CNN "MPN"
F 6 "-" H 1975 525 50  0001 C CNN "SPR"
F 7 "-" H 1975 525 50  0001 C CNN "SPN"
F 8 "-" H 1975 525 50  0001 C CNN "SPURL"
	1    13050 1925
	1    0    0    -1  
$EndComp
Wire Wire Line
	13050 1100 13050 1825
Connection ~ 13050 1100
Wire Wire Line
	13050 1100 14450 1100
Wire Wire Line
	13050 2025 13050 4150
Connection ~ 13050 4150
Wire Wire Line
	13050 4150 15000 4150
Wire Wire Line
	3450 7550 4500 7550
Wire Wire Line
	4225 7225 4500 7225
Wire Wire Line
	4500 7225 4500 7550
Connection ~ 4500 7550
Wire Wire Line
	4500 7550 5525 7550
Wire Wire Line
	5525 4625 5525 7125
Wire Wire Line
	5250 7125 5525 7125
Wire Wire Line
	5425 7025 5250 7025
Wire Wire Line
	5250 7225 5525 7225
Wire Wire Line
	5525 7225 5525 7550
Connection ~ 5525 7550
Wire Wire Line
	5525 7550 6400 7550
Wire Wire Line
	6250 7225 6400 7225
Wire Wire Line
	6400 7225 6400 7550
Wire Wire Line
	6400 4425 6400 7125
Wire Wire Line
	6325 4325 6325 7025
Wire Wire Line
	6325 7025 6250 7025
Wire Wire Line
	6250 7125 6400 7125
Wire Wire Line
	6400 7550 7325 7550
Wire Wire Line
	8375 3125 8375 7125
Wire Wire Line
	7425 7125 7425 3525
Wire Wire Line
	8100 7125 8375 7125
Wire Wire Line
	8275 7025 8100 7025
Wire Wire Line
	7125 7025 7325 7025
Wire Wire Line
	7325 3425 7325 7025
Wire Wire Line
	7125 7125 7425 7125
Wire Wire Line
	7125 7225 7325 7225
Wire Wire Line
	7325 7225 7325 7550
Wire Wire Line
	8100 7225 8375 7225
Wire Wire Line
	8375 7225 8375 7550
Wire Wire Line
	9400 2075 9400 7125
Wire Wire Line
	9125 7125 9400 7125
Wire Wire Line
	9300 7025 9125 7025
Wire Wire Line
	9300 2175 9300 7025
Wire Wire Line
	9125 7225 9400 7225
Wire Wire Line
	9400 7225 9400 7550
Wire Wire Line
	10050 7225 10200 7225
Wire Wire Line
	10200 7225 10200 7550
Wire Wire Line
	10050 7125 11225 7125
Connection ~ 7325 7550
Wire Wire Line
	7325 7550 8375 7550
Connection ~ 8375 7550
Wire Wire Line
	8375 7550 9400 7550
Connection ~ 9400 7550
Wire Wire Line
	9400 7550 10200 7550
Connection ~ 10200 7550
Wire Wire Line
	10200 7550 11500 7550
Wire Wire Line
	7425 3525 6450 3525
Wire Wire Line
	8375 3125 7400 3125
Wire Wire Line
	8275 3025 8275 7025
Wire Wire Line
	11225 1675 11225 7125
Wire Wire Line
	3450 7225 3450 7550
Wire Wire Line
	3400 5000 3400 7025
Wire Wire Line
	3250 6925 3350 6925
Wire Wire Line
	3250 7225 3450 7225
Wire Wire Line
	3250 7125 3475 7125
Wire Wire Line
	3250 7025 3400 7025
$Comp
L Connector_Generic:Conn_02x04_Top_Bottom J?
U 1 1 60D843A0
P 3050 7025
AR Path="/5F745286/60D843A0" Ref="J?"  Part="1" 
AR Path="/5E57930B/60D843A0" Ref="J3"  Part="1" 
F 0 "J3" H 3100 7250 50  0000 C CNN
F 1 "Conn_02x04_Top_Bottom" H 3100 7251 50  0001 C CNN
F 2 "Connector_Molex:Molex_Mini-Fit_Jr_5569-08A2_2x04_P4.20mm_Horizontal" H 3050 7025 50  0001 C CNN
F 3 "~" H 3050 7025 50  0001 C CNN
	1    3050 7025
	-1   0    0    -1  
$EndComp
Text Notes 3250 7200 0    60   ~ 0
SH\nDA\nCL\nGND
Wire Wire Line
	11500 4150 11500 7550
Wire Wire Line
	2400 5300 2400 6925
Wire Wire Line
	2400 6925 2750 6925
Wire Wire Line
	2400 7850 2400 7025
Wire Wire Line
	2400 7025 2750 7025
$Comp
L Connector_Generic:Conn_02x04_Top_Bottom J?
U 1 1 60E1CB5E
P 4025 7025
AR Path="/5F745286/60E1CB5E" Ref="J?"  Part="1" 
AR Path="/5E57930B/60E1CB5E" Ref="J4"  Part="1" 
F 0 "J4" H 4075 7250 50  0000 C CNN
F 1 "Conn_02x04_Top_Bottom" H 4075 7251 50  0001 C CNN
F 2 "Connector_Molex:Molex_Mini-Fit_Jr_5569-08A2_2x04_P4.20mm_Horizontal" H 4025 7025 50  0001 C CNN
F 3 "~" H 4025 7025 50  0001 C CNN
	1    4025 7025
	-1   0    0    -1  
$EndComp
Text Notes 5225 7225 0    60   ~ 0
SH\nDA\nCL\nGND
$Comp
L Connector_Generic:Conn_02x04_Top_Bottom J?
U 1 1 61266681
P 5050 7025
AR Path="/5F745286/61266681" Ref="J?"  Part="1" 
AR Path="/5E57930B/61266681" Ref="J5"  Part="1" 
F 0 "J5" H 5100 7250 50  0000 C CNN
F 1 "Conn_02x04_Top_Bottom" H 5100 7251 50  0001 C CNN
F 2 "Connector_Molex:Molex_Mini-Fit_Jr_5569-08A2_2x04_P4.20mm_Horizontal" H 5050 7025 50  0001 C CNN
F 3 "~" H 5050 7025 50  0001 C CNN
	1    5050 7025
	-1   0    0    -1  
$EndComp
Text Notes 9100 7225 0    60   ~ 0
SH\nDA\nCL\nGND
$Comp
L Connector_Generic:Conn_02x04_Top_Bottom J?
U 1 1 612C2FC8
P 8925 7025
AR Path="/5F745286/612C2FC8" Ref="J?"  Part="1" 
AR Path="/5E57930B/612C2FC8" Ref="J9"  Part="1" 
F 0 "J9" H 8975 7250 50  0000 C CNN
F 1 "Conn_02x04_Top_Bottom" H 8975 7251 50  0001 C CNN
F 2 "Connector_Molex:Molex_Mini-Fit_Jr_5569-08A2_2x04_P4.20mm_Horizontal" H 8925 7025 50  0001 C CNN
F 3 "~" H 8925 7025 50  0001 C CNN
	1    8925 7025
	-1   0    0    -1  
$EndComp
Text Notes 7100 7225 0    60   ~ 0
SH\nDA\nCL\nGND
$Comp
L Connector_Generic:Conn_02x04_Top_Bottom J?
U 1 1 612D0086
P 6925 7025
AR Path="/5F745286/612D0086" Ref="J?"  Part="1" 
AR Path="/5E57930B/612D0086" Ref="J7"  Part="1" 
F 0 "J7" H 6975 7250 50  0000 C CNN
F 1 "Conn_02x04_Top_Bottom" H 6975 7251 50  0001 C CNN
F 2 "Connector_Molex:Molex_Mini-Fit_Jr_5569-08A2_2x04_P4.20mm_Horizontal" H 6925 7025 50  0001 C CNN
F 3 "~" H 6925 7025 50  0001 C CNN
	1    6925 7025
	-1   0    0    -1  
$EndComp
Text Notes 8075 7225 0    60   ~ 0
SH\nDA\nCL\nGND
$Comp
L Connector_Generic:Conn_02x04_Top_Bottom J?
U 1 1 612DCE50
P 7900 7025
AR Path="/5F745286/612DCE50" Ref="J?"  Part="1" 
AR Path="/5E57930B/612DCE50" Ref="J8"  Part="1" 
F 0 "J8" H 7950 7250 50  0000 C CNN
F 1 "Conn_02x04_Top_Bottom" H 7950 7251 50  0001 C CNN
F 2 "Connector_Molex:Molex_Mini-Fit_Jr_5569-08A2_2x04_P4.20mm_Horizontal" H 7900 7025 50  0001 C CNN
F 3 "~" H 7900 7025 50  0001 C CNN
	1    7900 7025
	-1   0    0    -1  
$EndComp
Wire Wire Line
	11050 7025 10050 7025
Wire Wire Line
	8950 1775 11050 1775
Wire Wire Line
	11050 1775 11050 7025
Text Notes 10050 7225 0    60   ~ 0
SH\nDA\nCL\nGND
$Comp
L Connector_Generic:Conn_02x04_Top_Bottom J?
U 1 1 60E1CB60
P 9850 7025
AR Path="/5F745286/60E1CB60" Ref="J?"  Part="1" 
AR Path="/5E57930B/60E1CB60" Ref="J10"  Part="1" 
F 0 "J10" H 9900 7250 50  0000 C CNN
F 1 "Conn_02x04_Top_Bottom" H 9900 7251 50  0001 C CNN
F 2 "Connector_Molex:Molex_Mini-Fit_Jr_5569-08A2_2x04_P4.20mm_Horizontal" H 9850 7025 50  0001 C CNN
F 3 "~" H 9850 7025 50  0001 C CNN
	1    9850 7025
	-1   0    0    -1  
$EndComp
Text Notes 6225 7225 0    60   ~ 0
SH\nDA\nCL\nGND
$Comp
L Connector_Generic:Conn_02x04_Top_Bottom J?
U 1 1 613BDD1B
P 6050 7025
AR Path="/5F745286/613BDD1B" Ref="J?"  Part="1" 
AR Path="/5E57930B/613BDD1B" Ref="J6"  Part="1" 
F 0 "J6" H 6100 7250 50  0000 C CNN
F 1 "Conn_02x04_Top_Bottom" H 6100 7251 50  0001 C CNN
F 2 "Connector_Molex:Molex_Mini-Fit_Jr_5569-08A2_2x04_P4.20mm_Horizontal" H 6050 7025 50  0001 C CNN
F 3 "~" H 6050 7025 50  0001 C CNN
	1    6050 7025
	-1   0    0    -1  
$EndComp
Wire Wire Line
	8625 6925 8600 6925
Wire Wire Line
	7575 6925 7600 6925
Wire Wire Line
	6475 6925 6625 6925
Wire Wire Line
	2400 7850 3525 7850
Wire Wire Line
	4750 6925 4750 6000
Wire Wire Line
	5750 6925 5625 6925
Wire Wire Line
	5625 6925 5625 5900
Wire Wire Line
	5425 4525 5425 7025
Wire Wire Line
	3625 5400 3625 6925
Wire Wire Line
	3625 6925 3725 6925
Wire Wire Line
	3725 7025 3525 7025
Wire Wire Line
	3525 7025 3525 7850
Connection ~ 3525 7850
Wire Wire Line
	3525 7850 4575 7850
Wire Wire Line
	4750 7025 4575 7025
Wire Wire Line
	4575 7025 4575 7850
Connection ~ 4575 7850
Wire Wire Line
	4575 7850 5600 7850
Wire Wire Line
	5750 7025 5600 7025
Wire Wire Line
	5600 7025 5600 7850
Connection ~ 5600 7850
Wire Wire Line
	5600 7850 6475 7850
Wire Wire Line
	6625 7025 6475 7025
Wire Wire Line
	6475 7025 6475 7850
Connection ~ 6475 7850
Wire Wire Line
	6475 7850 7475 7850
Wire Wire Line
	7600 7025 7475 7025
Wire Wire Line
	7475 7025 7475 7850
Connection ~ 7475 7850
Wire Wire Line
	7475 7850 8450 7850
Wire Wire Line
	8625 7025 8450 7025
Wire Wire Line
	8450 7025 8450 7850
Connection ~ 8450 7850
Wire Wire Line
	8450 7850 9450 7850
Wire Wire Line
	9550 7025 9450 7025
Wire Wire Line
	9450 7025 9450 7850
Text Notes 13900 5750 0    60   ~ 0
CONNECT CHARGER HERE
Wire Wire Line
	9450 5500 9450 6925
Wire Wire Line
	9450 6925 9550 6925
Wire Wire Line
	9550 7925 9550 7225
Wire Wire Line
	9500 9000 9500 7125
Wire Wire Line
	9500 7125 9550 7125
Wire Wire Line
	8500 8900 8500 7125
Wire Wire Line
	8500 7125 8625 7125
Wire Wire Line
	7525 8800 7525 7125
Wire Wire Line
	7525 7125 7600 7125
Wire Wire Line
	6550 8700 6550 7125
Wire Wire Line
	6550 7125 6625 7125
Wire Wire Line
	5675 8600 5675 7125
Wire Wire Line
	5675 7125 5750 7125
Wire Wire Line
	4650 8500 4650 7125
Wire Wire Line
	4650 7125 4750 7125
Wire Wire Line
	9550 7925 8625 7925
Wire Wire Line
	8625 7925 8625 7225
Wire Wire Line
	8625 7925 7600 7925
Wire Wire Line
	7600 7925 7600 7225
Connection ~ 8625 7925
Wire Wire Line
	7600 7925 6625 7925
Wire Wire Line
	6625 7925 6625 7225
Connection ~ 7600 7925
Wire Wire Line
	6625 7925 5750 7925
Wire Wire Line
	5750 7925 5750 7225
Connection ~ 6625 7925
Wire Wire Line
	5750 7925 4750 7925
Wire Wire Line
	4750 7925 4750 7225
Connection ~ 5750 7925
Wire Wire Line
	4750 7925 3725 7925
Wire Wire Line
	3725 7925 3725 7225
Connection ~ 4750 7925
Wire Wire Line
	3725 7925 2625 7925
Connection ~ 3725 7925
Text Notes 13975 8600 0    60   ~ 0
CONNECT PROFILER HERE
$Comp
L Connector_Generic_MountingPin:Conn_02x08_Top_Bottom_MountingPin J?
U 1 1 617A5086
P 13575 5600
AR Path="/5F745286/617A5086" Ref="J?"  Part="1" 
AR Path="/5E57930B/617A5086" Ref="J11"  Part="1" 
F 0 "J11" H 13625 6117 50  0000 C CNN
F 1 "Conn_02x08_Top_Bottom_MountingPin" H 13625 6026 50  0000 C CNN
F 2 "Connector_Molex:Molex_Mini-Fit_Jr_5569-16A2_2x08_P4.20mm_Horizontal" H 13575 5600 50  0001 C CNN
F 3 "~" H 13575 5600 50  0001 C CNN
	1    13575 5600
	-1   0    0    -1  
$EndComp
Wire Wire Line
	2750 7225 2625 7225
Wire Wire Line
	2625 7225 2625 7925
$Comp
L Connector_Generic_MountingPin:Conn_02x08_Top_Bottom_MountingPin J?
U 1 1 60E1CB61
P 13575 8700
AR Path="/5F745286/60E1CB61" Ref="J?"  Part="1" 
AR Path="/5E57930B/60E1CB61" Ref="J12"  Part="1" 
F 0 "J12" H 13625 9217 50  0000 C CNN
F 1 "Conn_02x08_Top_Bottom_MountingPin" H 13625 9126 50  0001 C CNN
F 2 "Connector_Molex:Molex_Mini-Fit_Jr_5569-16A2_2x08_P4.20mm_Horizontal" H 13575 8700 50  0001 C CNN
F 3 "~" H 13575 8700 50  0001 C CNN
	1    13575 8700
	-1   0    0    1   
$EndComp
Wire Wire Line
	13775 8400 13775 8500
Wire Wire Line
	13775 8500 13775 8600
Connection ~ 13775 8500
Wire Wire Line
	13775 8600 13775 8700
Connection ~ 13775 8600
Wire Wire Line
	13775 8700 13775 8800
Connection ~ 13775 8700
Wire Wire Line
	13775 8800 13775 8900
Connection ~ 13775 8800
Wire Wire Line
	13775 8900 13775 9000
Connection ~ 13775 8900
Wire Wire Line
	13775 5900 13775 6000
Wire Wire Line
	2400 5300 13275 5300
Wire Wire Line
	3625 5400 13275 5400
Wire Wire Line
	13775 5900 13775 5800
Connection ~ 13775 5900
Wire Wire Line
	13775 5800 13775 5700
Connection ~ 13775 5800
Wire Wire Line
	13775 5700 13775 5600
Connection ~ 13775 5700
Wire Wire Line
	13775 5600 13775 5500
Connection ~ 13775 5600
Wire Wire Line
	13775 5500 13775 5400
Connection ~ 13775 5500
Wire Wire Line
	13775 5400 13775 5300
Connection ~ 13775 5400
Wire Wire Line
	9500 9000 13275 9000
Wire Wire Line
	8500 8900 13275 8900
Wire Wire Line
	7525 8800 13275 8800
Wire Wire Line
	6550 8700 13275 8700
Wire Wire Line
	5675 8600 13275 8600
Wire Wire Line
	4650 8500 13275 8500
Wire Wire Line
	4750 6000 13275 6000
Wire Wire Line
	5625 5900 13275 5900
Wire Wire Line
	6475 5800 6475 6925
Wire Wire Line
	6475 5800 13275 5800
Wire Wire Line
	13275 5700 7575 5700
Wire Wire Line
	7575 5700 7575 6925
Wire Wire Line
	13275 5600 8600 5600
Wire Wire Line
	8600 5600 8600 6925
Wire Wire Line
	9450 5500 13275 5500
Wire Wire Line
	3625 8300 3625 7125
Wire Wire Line
	3625 7125 3725 7125
Wire Wire Line
	3625 8300 13275 8300
Wire Wire Line
	2525 8400 2525 7125
Wire Wire Line
	2525 7125 2750 7125
Wire Wire Line
	2525 8400 13275 8400
Text HLabel 15000 7850 2    60   Input ~ 0
BAT_GND
Wire Wire Line
	13775 8400 13775 8300
Connection ~ 13775 8400
Wire Wire Line
	9450 7850 13775 7850
Wire Wire Line
	13775 7850 13775 6200
Connection ~ 9450 7850
Connection ~ 13775 6000
Wire Wire Line
	13775 7850 13775 8100
Connection ~ 13775 7850
Connection ~ 13775 8300
Wire Wire Line
	13775 7850 15000 7850
Wire Wire Line
	13525 6200 13775 6200
Connection ~ 13775 6200
Wire Wire Line
	13775 6200 13775 6000
Wire Wire Line
	13525 8100 13775 8100
Connection ~ 13775 8100
Wire Wire Line
	13775 8100 13775 8300
$EndSCHEMATC
