(export (version D)
  (design
    (source C:\Users\Brian\Documents\CGSN\Profiler_Mooring\Profiler_lithiumBattery_Conversion\revA\PLB.sch)
    (date "8/9/2021 4:47:34 PM")
    (tool "Eeschema (5.1.10)-1")
    (sheet (number 1) (name /) (tstamps /)
      (title_block
        (title "PCB, Profiler Lithium Battery")
        (company "Woods Hole Oceanographic Inst")
        (rev A)
        (date 2021/07/08)
        (source PLB.sch)
        (comment (number 1) (value "AOPE - OOI"))
        (comment (number 2) (value "LOSOS Profiler Lab"))
        (comment (number 3) (value "266 Woods Hole Road"))
        (comment (number 4) (value "Woods Hole, MA 02543")))))
  (components
    (comp (ref J2)
      (value PROGRAM)
      (footprint Connector_PinHeader_2.54mm:PinHeader_1x06_P2.54mm_Horizontal)
      (fields
        (field (name MFR) "Amphenol ICC (FCI)")
        (field (name MPN) 68016-206HLF)
        (field (name SPN) -)
        (field (name SPR) -)
        (field (name SPURL) -))
      (libsource (lib Connector_Generic) (part Conn_01x06) (description "Generic connector, single row, 01x06, script generated (kicad-library-utils/schlib/autogen/connector/)"))
      (sheetpath (names /) (tstamps /))
      (tstamp 5B3A61E0))
    (comp (ref D1)
      (value LTST-C155)
      (footprint Footprint:LED_LTST-C155GEKT)
      (fields
        (field (name MFR) "Lite-On Inc.")
        (field (name MPN) LTST-C155KGJRKT)
        (field (name SPN) -)
        (field (name SPR) -)
        (field (name SPURL) -))
      (libsource (lib 109633-rescue) (part LTST-C155-dgi2) (description ""))
      (sheetpath (names /) (tstamps /))
      (tstamp 5B3CE686))
    (comp (ref R3)
      (value 220)
      (footprint Resistor_SMD:R_0603_1608Metric_Pad1.05x0.95mm_HandSolder)
      (fields
        (field (name MFR) Susumu)
        (field (name MPN) RR0816P-221-D)
        (field (name SPN) -)
        (field (name SPR) -)
        (field (name SPURL) -))
      (libsource (lib 109633-rescue) (part Rsmall-dgi2) (description ""))
      (sheetpath (names /) (tstamps /))
      (tstamp 5DFF744E))
    (comp (ref R4)
      (value 220)
      (footprint Resistor_SMD:R_0603_1608Metric_Pad1.05x0.95mm_HandSolder)
      (fields
        (field (name MFR) Susumu)
        (field (name MPN) RR0816P-221-D)
        (field (name SPN) -)
        (field (name SPR) -)
        (field (name SPURL) -))
      (libsource (lib 109633-rescue) (part Rsmall-dgi2) (description ""))
      (sheetpath (names /) (tstamps /))
      (tstamp 5B434687))
    (comp (ref C11)
      (value 0.01u)
      (footprint Capacitor_SMD:C_0603_1608Metric_Pad1.05x0.95mm_HandSolder)
      (fields
        (field (name MFR) "Samsung Electro-Mechanics")
        (field (name MPN) CL10B103KB8NCNC)
        (field (name SPN) -)
        (field (name SPR) -)
        (field (name SPURL) -))
      (libsource (lib Device) (part C_Small) (description "Unpolarized capacitor, small symbol"))
      (sheetpath (names /) (tstamps /))
      (tstamp 5C29B5DE))
    (comp (ref C10)
      (value 0.1u)
      (footprint Capacitor_SMD:C_0603_1608Metric_Pad1.05x0.95mm_HandSolder)
      (fields
        (field (name MFR) Kemet)
        (field (name MPN) C0603X104K5RAC7411)
        (field (name SPN) -)
        (field (name SPR) -)
        (field (name SPURL) -))
      (libsource (lib Device) (part C_Small) (description "Unpolarized capacitor, small symbol"))
      (sheetpath (names /) (tstamps /))
      (tstamp 5C299B3A))
    (comp (ref R9)
      (value 4.7K)
      (footprint Resistor_SMD:R_0603_1608Metric_Pad1.05x0.95mm_HandSolder)
      (fields
        (field (name MFR) Susumu)
        (field (name MPN) RR0816P-472-D)
        (field (name SPN) -)
        (field (name SPR) -)
        (field (name SPURL) -))
      (libsource (lib 109633-rescue) (part Rsmall-dgi2) (description ""))
      (sheetpath (names /) (tstamps /))
      (tstamp 5F1DB8EB))
    (comp (ref R10)
      (value 4.7K)
      (footprint Resistor_SMD:R_0603_1608Metric_Pad1.05x0.95mm_HandSolder)
      (fields
        (field (name MFR) Susumu)
        (field (name MPN) RR0816P-472-D)
        (field (name SPN) -)
        (field (name SPR) -)
        (field (name SPURL) -))
      (libsource (lib 109633-rescue) (part Rsmall-dgi2) (description ""))
      (sheetpath (names /) (tstamps /))
      (tstamp 5F1DB8FA))
    (comp (ref Y1)
      (value "3.686 MHz")
      (footprint Crystal:Crystal_SMD_HC49-SD)
      (datasheet ~)
      (fields
        (field (name MFR) "ECS Inc.")
        (field (name MPN) ECS-36-18-5PLX-AGN-TR))
      (libsource (lib Device) (part Crystal) (description "Two pin crystal"))
      (sheetpath (names /) (tstamps /))
      (tstamp 5E7F5E30))
    (comp (ref C4)
      (value 27p)
      (footprint Capacitor_SMD:C_0603_1608Metric_Pad1.05x0.95mm_HandSolder)
      (fields
        (field (name MFR) Kemet)
        (field (name MPN) C0603C270J1GACAUTO)
        (field (name SPN) -)
        (field (name SPR) -)
        (field (name SPURL) -))
      (libsource (lib Device) (part C_Small) (description "Unpolarized capacitor, small symbol"))
      (sheetpath (names /) (tstamps /))
      (tstamp 5E883D9B))
    (comp (ref C5)
      (value "27 pF")
      (footprint Capacitor_SMD:C_0603_1608Metric_Pad1.05x0.95mm_HandSolder)
      (fields
        (field (name MFR) Kemet)
        (field (name MPN) C0603C270J1GACAUTO)
        (field (name SPN) -)
        (field (name SPR) -)
        (field (name SPURL) -))
      (libsource (lib Device) (part C_Small) (description "Unpolarized capacitor, small symbol"))
      (sheetpath (names /) (tstamps /))
      (tstamp 5E8863ED))
    (comp (ref R5)
      (value 4.7K)
      (footprint Resistor_SMD:R_0603_1608Metric_Pad1.05x0.95mm_HandSolder)
      (fields
        (field (name MFR) Susumu)
        (field (name MPN) RR0816P-472-D)
        (field (name SPN) -)
        (field (name SPR) -)
        (field (name SPURL) -))
      (libsource (lib 109633-rescue) (part Rsmall-dgi2) (description ""))
      (sheetpath (names /) (tstamps /))
      (tstamp 60F3459D))
    (comp (ref R6)
      (value 4.7K)
      (footprint Resistor_SMD:R_0603_1608Metric_Pad1.05x0.95mm_HandSolder)
      (fields
        (field (name MFR) Susumu)
        (field (name MPN) RR0816P-472-D)
        (field (name SPN) -)
        (field (name SPR) -)
        (field (name SPURL) -))
      (libsource (lib 109633-rescue) (part Rsmall-dgi2) (description ""))
      (sheetpath (names /) (tstamps /))
      (tstamp 60F345A8))
    (comp (ref R7)
      (value 4.7K)
      (footprint Resistor_SMD:R_0603_1608Metric_Pad1.05x0.95mm_HandSolder)
      (fields
        (field (name MFR) Susumu)
        (field (name MPN) RR0816P-472-D)
        (field (name SPN) -)
        (field (name SPR) -)
        (field (name SPURL) -))
      (libsource (lib 109633-rescue) (part Rsmall-dgi2) (description ""))
      (sheetpath (names /) (tstamps /))
      (tstamp 60F345B3))
    (comp (ref R12)
      (value 4.7K)
      (footprint Resistor_SMD:R_0603_1608Metric_Pad1.05x0.95mm_HandSolder)
      (fields
        (field (name MFR) Susumu)
        (field (name MPN) RR0816P-472-D)
        (field (name SPN) -)
        (field (name SPR) -)
        (field (name SPURL) -))
      (libsource (lib 109633-rescue) (part Rsmall-dgi2) (description ""))
      (sheetpath (names /) (tstamps /))
      (tstamp 60F345BE))
    (comp (ref R28)
      (value 4.7K)
      (footprint Resistor_SMD:R_0603_1608Metric_Pad1.05x0.95mm_HandSolder)
      (fields
        (field (name MFR) Susumu)
        (field (name MPN) RR0816P-472-D)
        (field (name SPN) -)
        (field (name SPR) -)
        (field (name SPURL) -))
      (libsource (lib 109633-rescue) (part Rsmall-dgi2) (description ""))
      (sheetpath (names /) (tstamps /))
      (tstamp 60F345C9))
    (comp (ref R26)
      (value 4.7K)
      (footprint Resistor_SMD:R_0603_1608Metric_Pad1.05x0.95mm_HandSolder)
      (fields
        (field (name MFR) Susumu)
        (field (name MPN) RR0816P-472-D)
        (field (name SPN) -)
        (field (name SPR) -)
        (field (name SPURL) -))
      (libsource (lib 109633-rescue) (part Rsmall-dgi2) (description ""))
      (sheetpath (names /) (tstamps /))
      (tstamp 60F345D4))
    (comp (ref R30)
      (value 4.7K)
      (footprint Resistor_SMD:R_0603_1608Metric_Pad1.05x0.95mm_HandSolder)
      (fields
        (field (name MFR) Susumu)
        (field (name MPN) RR0816P-472-D)
        (field (name SPN) -)
        (field (name SPR) -)
        (field (name SPURL) -))
      (libsource (lib 109633-rescue) (part Rsmall-dgi2) (description ""))
      (sheetpath (names /) (tstamps /))
      (tstamp 60F345DF))
    (comp (ref R29)
      (value 4.7K)
      (footprint Resistor_SMD:R_0603_1608Metric_Pad1.05x0.95mm_HandSolder)
      (fields
        (field (name MFR) Susumu)
        (field (name MPN) RR0816P-472-D)
        (field (name SPN) -)
        (field (name SPR) -)
        (field (name SPURL) -))
      (libsource (lib 109633-rescue) (part Rsmall-dgi2) (description ""))
      (sheetpath (names /) (tstamps /))
      (tstamp 60F345EA))
    (comp (ref C13)
      (value 0.1u)
      (footprint Capacitor_SMD:C_0603_1608Metric_Pad1.05x0.95mm_HandSolder)
      (fields
        (field (name MFR) Kemet)
        (field (name MPN) C0603X104K5RAC7411)
        (field (name SPN) -)
        (field (name SPR) -)
        (field (name SPURL) -))
      (libsource (lib Device) (part C_Small) (description "Unpolarized capacitor, small symbol"))
      (sheetpath (names /) (tstamps /))
      (tstamp 60F345F5))
    (comp (ref C15)
      (value 1u)
      (footprint Capacitor_SMD:C_0603_1608Metric_Pad1.05x0.95mm_HandSolder)
      (fields
        (field (name MFR) "Samsung Electro-Mechanics")
        (field (name MPN) CL10B105KO8NFNC)
        (field (name SPN) -)
        (field (name SPR) -)
        (field (name SPURL) -))
      (libsource (lib Device) (part C_Small) (description "Unpolarized capacitor, small symbol"))
      (sheetpath (names /) (tstamps /))
      (tstamp 60F34600))
    (comp (ref R13)
      (value 4.7K)
      (footprint Resistor_SMD:R_0603_1608Metric_Pad1.05x0.95mm_HandSolder)
      (fields
        (field (name MFR) Susumu)
        (field (name MPN) RR0816P-472-D)
        (field (name SPN) -)
        (field (name SPR) -)
        (field (name SPURL) -))
      (libsource (lib 109633-rescue) (part Rsmall-dgi2) (description ""))
      (sheetpath (names /) (tstamps /))
      (tstamp 60F34616))
    (comp (ref R14)
      (value 4.7K)
      (footprint Resistor_SMD:R_0603_1608Metric_Pad1.05x0.95mm_HandSolder)
      (fields
        (field (name MFR) Susumu)
        (field (name MPN) RR0816P-472-D)
        (field (name SPN) -)
        (field (name SPR) -)
        (field (name SPURL) -))
      (libsource (lib 109633-rescue) (part Rsmall-dgi2) (description ""))
      (sheetpath (names /) (tstamps /))
      (tstamp 60F34621))
    (comp (ref R15)
      (value 4.7K)
      (footprint Resistor_SMD:R_0603_1608Metric_Pad1.05x0.95mm_HandSolder)
      (fields
        (field (name MFR) Susumu)
        (field (name MPN) RR0816P-472-D)
        (field (name SPN) -)
        (field (name SPR) -)
        (field (name SPURL) -))
      (libsource (lib 109633-rescue) (part Rsmall-dgi2) (description ""))
      (sheetpath (names /) (tstamps /))
      (tstamp 60F3462C))
    (comp (ref R18)
      (value 4.7K)
      (footprint Resistor_SMD:R_0603_1608Metric_Pad1.05x0.95mm_HandSolder)
      (fields
        (field (name MFR) Susumu)
        (field (name MPN) RR0816P-472-D)
        (field (name SPN) -)
        (field (name SPR) -)
        (field (name SPURL) -))
      (libsource (lib 109633-rescue) (part Rsmall-dgi2) (description ""))
      (sheetpath (names /) (tstamps /))
      (tstamp 60F34637))
    (comp (ref R19)
      (value 4.7K)
      (footprint Resistor_SMD:R_0603_1608Metric_Pad1.05x0.95mm_HandSolder)
      (fields
        (field (name MFR) Susumu)
        (field (name MPN) RR0816P-472-D)
        (field (name SPN) -)
        (field (name SPR) -)
        (field (name SPURL) -))
      (libsource (lib 109633-rescue) (part Rsmall-dgi2) (description ""))
      (sheetpath (names /) (tstamps /))
      (tstamp 60F34642))
    (comp (ref R22)
      (value 4.7K)
      (footprint Resistor_SMD:R_0603_1608Metric_Pad1.05x0.95mm_HandSolder)
      (fields
        (field (name MFR) Susumu)
        (field (name MPN) RR0816P-472-D)
        (field (name SPN) -)
        (field (name SPR) -)
        (field (name SPURL) -))
      (libsource (lib 109633-rescue) (part Rsmall-dgi2) (description ""))
      (sheetpath (names /) (tstamps /))
      (tstamp 60F3464D))
    (comp (ref R24)
      (value 4.7K)
      (footprint Resistor_SMD:R_0603_1608Metric_Pad1.05x0.95mm_HandSolder)
      (fields
        (field (name MFR) Susumu)
        (field (name MPN) RR0816P-472-D)
        (field (name SPN) -)
        (field (name SPR) -)
        (field (name SPURL) -))
      (libsource (lib 109633-rescue) (part Rsmall-dgi2) (description ""))
      (sheetpath (names /) (tstamps /))
      (tstamp 60F34658))
    (comp (ref R23)
      (value 4.7K)
      (footprint Resistor_SMD:R_0603_1608Metric_Pad1.05x0.95mm_HandSolder)
      (fields
        (field (name MFR) Susumu)
        (field (name MPN) RR0816P-472-D)
        (field (name SPN) -)
        (field (name SPR) -)
        (field (name SPURL) -))
      (libsource (lib 109633-rescue) (part Rsmall-dgi2) (description ""))
      (sheetpath (names /) (tstamps /))
      (tstamp 60F34663))
    (comp (ref R31)
      (value 220)
      (footprint Resistor_SMD:R_0603_1608Metric_Pad1.05x0.95mm_HandSolder)
      (fields
        (field (name MFR) Susumu)
        (field (name MPN) RR0816P-221-D)
        (field (name SPN) -)
        (field (name SPR) -)
        (field (name SPURL) -))
      (libsource (lib 109633-rescue) (part Rsmall-dgi2) (description ""))
      (sheetpath (names /) (tstamps /))
      (tstamp 60F3471B))
    (comp (ref C17)
      (value 10u)
      (footprint Capacitor_SMD:C_0805_2012Metric)
      (fields
        (field (name MFR) "Taiyo Yuden")
        (field (name MPN) JMK212AB7106KGHT)
        (field (name SPN) -)
        (field (name SPR) -)
        (field (name SPURL) -))
      (libsource (lib Device) (part C_Small) (description "Unpolarized capacitor, small symbol"))
      (sheetpath (names /) (tstamps /))
      (tstamp 60F34732))
    (comp (ref BT8)
      (value Conn_02x04_Top_Bottom)
      (footprint Connector_Molex:Molex_Mini-Fit_Jr_5569-08A2_2x04_P4.20mm_Horizontal)
      (datasheet ~)
      (fields
        (field (name MFR) Molex)
        (field (name MPN) 0039301082))
      (libsource (lib Connector_Generic) (part Conn_02x04_Top_Bottom) (description "Generic connector, double row, 02x04, top/bottom pin numbering scheme (row 1: 1...pins_per_row, row2: pins_per_row+1 ... num_pins), script generated (kicad-library-utils/schlib/autogen/connector/)"))
      (sheetpath (names /) (tstamps /))
      (tstamp 60F34783))
    (comp (ref BT2)
      (value Conn_02x04_Top_Bottom)
      (footprint Connector_Molex:Molex_Mini-Fit_Jr_5569-08A2_2x04_P4.20mm_Horizontal)
      (datasheet ~)
      (fields
        (field (name MFR) Molex)
        (field (name MPN) 0039301082))
      (libsource (lib Connector_Generic) (part Conn_02x04_Top_Bottom) (description "Generic connector, double row, 02x04, top/bottom pin numbering scheme (row 1: 1...pins_per_row, row2: pins_per_row+1 ... num_pins), script generated (kicad-library-utils/schlib/autogen/connector/)"))
      (sheetpath (names /) (tstamps /))
      (tstamp 60F34791))
    (comp (ref R11)
      (value 4.7K)
      (footprint Resistor_SMD:R_0603_1608Metric_Pad1.05x0.95mm_HandSolder)
      (fields
        (field (name MFR) Susumu)
        (field (name MPN) RR0816P-472-D)
        (field (name SPN) -)
        (field (name SPR) -)
        (field (name SPURL) -))
      (libsource (lib 109633-rescue) (part Rsmall-dgi2) (description ""))
      (sheetpath (names /) (tstamps /))
      (tstamp 60F7E09C))
    (comp (ref R8)
      (value 4.7K)
      (footprint Resistor_SMD:R_0603_1608Metric_Pad1.05x0.95mm_HandSolder)
      (fields
        (field (name MFR) Susumu)
        (field (name MPN) RR0816P-472-D)
        (field (name SPN) -)
        (field (name SPR) -)
        (field (name SPURL) -))
      (libsource (lib 109633-rescue) (part Rsmall-dgi2) (description ""))
      (sheetpath (names /) (tstamps /))
      (tstamp 60F7E0A7))
    (comp (ref R21)
      (value 4.7K)
      (footprint Resistor_SMD:R_0603_1608Metric_Pad1.05x0.95mm_HandSolder)
      (fields
        (field (name MFR) Susumu)
        (field (name MPN) RR0816P-472-D)
        (field (name SPN) -)
        (field (name SPR) -)
        (field (name SPURL) -))
      (libsource (lib 109633-rescue) (part Rsmall-dgi2) (description ""))
      (sheetpath (names /) (tstamps /))
      (tstamp 60F7E0B2))
    (comp (ref R20)
      (value 4.7K)
      (footprint Resistor_SMD:R_0603_1608Metric_Pad1.05x0.95mm_HandSolder)
      (fields
        (field (name MFR) Susumu)
        (field (name MPN) RR0816P-472-D)
        (field (name SPN) -)
        (field (name SPR) -)
        (field (name SPURL) -))
      (libsource (lib 109633-rescue) (part Rsmall-dgi2) (description ""))
      (sheetpath (names /) (tstamps /))
      (tstamp 60F7E0BD))
    (comp (ref R27)
      (value 4.7K)
      (footprint Resistor_SMD:R_0603_1608Metric_Pad1.05x0.95mm_HandSolder)
      (fields
        (field (name MFR) Susumu)
        (field (name MPN) RR0816P-472-D)
        (field (name SPN) -)
        (field (name SPR) -)
        (field (name SPURL) -))
      (libsource (lib 109633-rescue) (part Rsmall-dgi2) (description ""))
      (sheetpath (names /) (tstamps /))
      (tstamp 60F7E0C8))
    (comp (ref R25)
      (value 4.7K)
      (footprint Resistor_SMD:R_0603_1608Metric_Pad1.05x0.95mm_HandSolder)
      (fields
        (field (name MFR) Susumu)
        (field (name MPN) RR0816P-472-D)
        (field (name SPN) -)
        (field (name SPR) -)
        (field (name SPURL) -))
      (libsource (lib 109633-rescue) (part Rsmall-dgi2) (description ""))
      (sheetpath (names /) (tstamps /))
      (tstamp 60F7E0D3))
    (comp (ref U5)
      (value PCA9546AD)
      (footprint SOIC127P600X175-16N)
      (fields
        (field (name MFR) NXP)
        (field (name MPN) PCA9546AD,112))
      (libsource (lib 9546) (part PCA9546AD) (description ""))
      (sheetpath (names /) (tstamps /))
      (tstamp 60F7E147))
    (comp (ref R16)
      (value 4.7K)
      (footprint Resistor_SMD:R_0603_1608Metric_Pad1.05x0.95mm_HandSolder)
      (fields
        (field (name MFR) Susumu)
        (field (name MPN) RR0816P-472-D)
        (field (name SPN) -)
        (field (name SPR) -)
        (field (name SPURL) -))
      (libsource (lib 109633-rescue) (part Rsmall-dgi2) (description ""))
      (sheetpath (names /) (tstamps /))
      (tstamp 60F7E160))
    (comp (ref R17)
      (value 4.7K)
      (footprint Resistor_SMD:R_0603_1608Metric_Pad1.05x0.95mm_HandSolder)
      (fields
        (field (name MFR) Susumu)
        (field (name MPN) RR0816P-472-D)
        (field (name SPN) -)
        (field (name SPR) -)
        (field (name SPURL) -))
      (libsource (lib 109633-rescue) (part Rsmall-dgi2) (description ""))
      (sheetpath (names /) (tstamps /))
      (tstamp 60F7E16B))
    (comp (ref BT7)
      (value Conn_02x04_Top_Bottom)
      (footprint Connector_Molex:Molex_Mini-Fit_Jr_5569-08A2_2x04_P4.20mm_Horizontal)
      (datasheet ~)
      (fields
        (field (name MFR) Molex)
        (field (name MPN) 0039301082))
      (libsource (lib Connector_Generic) (part Conn_02x04_Top_Bottom) (description "Generic connector, double row, 02x04, top/bottom pin numbering scheme (row 1: 1...pins_per_row, row2: pins_per_row+1 ... num_pins), script generated (kicad-library-utils/schlib/autogen/connector/)"))
      (sheetpath (names /) (tstamps /))
      (tstamp 60F7E192))
    (comp (ref BT11)
      (value Conn_02x04_Top_Bottom)
      (footprint Connector_Molex:Molex_Mini-Fit_Jr_5569-08A2_2x04_P4.20mm_Horizontal)
      (datasheet ~)
      (fields
        (field (name MFR) Molex)
        (field (name MPN) 0039301082))
      (libsource (lib Connector_Generic) (part Conn_02x04_Top_Bottom) (description "Generic connector, double row, 02x04, top/bottom pin numbering scheme (row 1: 1...pins_per_row, row2: pins_per_row+1 ... num_pins), script generated (kicad-library-utils/schlib/autogen/connector/)"))
      (sheetpath (names /) (tstamps /))
      (tstamp 60F7E199))
    (comp (ref BT12)
      (value Conn_02x04_Top_Bottom)
      (footprint Connector_Molex:Molex_Mini-Fit_Jr_5569-08A2_2x04_P4.20mm_Horizontal)
      (datasheet ~)
      (fields
        (field (name MFR) Molex)
        (field (name MPN) 0039301082))
      (libsource (lib Connector_Generic) (part Conn_02x04_Top_Bottom) (description "Generic connector, double row, 02x04, top/bottom pin numbering scheme (row 1: 1...pins_per_row, row2: pins_per_row+1 ... num_pins), script generated (kicad-library-utils/schlib/autogen/connector/)"))
      (sheetpath (names /) (tstamps /))
      (tstamp 60F7E1A1))
    (comp (ref BT10)
      (value Conn_02x04_Top_Bottom)
      (footprint Connector_Molex:Molex_Mini-Fit_Jr_5569-08A2_2x04_P4.20mm_Horizontal)
      (datasheet ~)
      (fields
        (field (name MFR) Molex)
        (field (name MPN) 0039301082))
      (libsource (lib Connector_Generic) (part Conn_02x04_Top_Bottom) (description "Generic connector, double row, 02x04, top/bottom pin numbering scheme (row 1: 1...pins_per_row, row2: pins_per_row+1 ... num_pins), script generated (kicad-library-utils/schlib/autogen/connector/)"))
      (sheetpath (names /) (tstamps /))
      (tstamp 60F7E1B9))
    (comp (ref C8)
      (value 0.1u)
      (footprint Capacitor_SMD:C_0603_1608Metric_Pad1.05x0.95mm_HandSolder)
      (fields
        (field (name Kemet) C0603X104K5RAC7411)
        (field (name MFR) Kemet)
        (field (name MPN) C0603X104K5RAC7411)
        (field (name SPN) -)
        (field (name SPR) -)
        (field (name SPURL) -))
      (libsource (lib Device) (part C_Small) (description "Unpolarized capacitor, small symbol"))
      (sheetpath (names /) (tstamps /))
      (tstamp 61054046))
    (comp (ref C6)
      (value 0.1u)
      (footprint Capacitor_SMD:C_0603_1608Metric_Pad1.05x0.95mm_HandSolder)
      (fields
        (field (name MFR) Kemet)
        (field (name MPN) C0603X104K5RAC7411)
        (field (name SPN) -)
        (field (name SPR) -)
        (field (name SPURL) -))
      (libsource (lib Device) (part C_Small) (description "Unpolarized capacitor, small symbol"))
      (sheetpath (names /) (tstamps /))
      (tstamp 61054051))
    (comp (ref C7)
      (value 0.1u)
      (footprint Capacitor_SMD:C_0603_1608Metric_Pad1.05x0.95mm_HandSolder)
      (fields
        (field (name MFR) Kemet)
        (field (name MPN) C0603X104K5RAC7411)
        (field (name SPN) -)
        (field (name SPR) -)
        (field (name SPURL) -))
      (libsource (lib Device) (part C_Small) (description "Unpolarized capacitor, small symbol"))
      (sheetpath (names /) (tstamps /))
      (tstamp 6105405C))
    (comp (ref U3)
      (value MAX3323E)
      (footprint Footprint:SOP65P640X110-16N)
      (fields
        (field (name MFR) "Maxim Integrated")
        (field (name MPN) MAX3323EEUE+)
        (field (name SPN) -)
        (field (name SPR) -)
        (field (name SPURL) -))
      (libsource (lib 109633-rescue) (part MAX3323E-dgi2) (description ""))
      (sheetpath (names /) (tstamps /))
      (tstamp 610540A5))
    (comp (ref R1)
      (value 100K)
      (footprint Resistor_SMD:R_0805_2012Metric)
      (fields
        (field (name MFR) Susumu)
        (field (name MPN) RR1220P-104-D)
        (field (name SPN) -)
        (field (name SPR) -)
        (field (name SPURL) -))
      (libsource (lib 109633-rescue) (part Rsmall-dgi2) (description ""))
      (sheetpath (names /) (tstamps /))
      (tstamp 610540B3))
    (comp (ref R2)
      (value 100K)
      (footprint Resistor_SMD:R_0805_2012Metric)
      (fields
        (field (name MFR) Susumu)
        (field (name MPN) RR1220P-104-D)
        (field (name SPN) -)
        (field (name SPR) -)
        (field (name SPURL) -))
      (libsource (lib 109633-rescue) (part Rsmall-dgi2) (description ""))
      (sheetpath (names /) (tstamps /))
      (tstamp 610540BE))
    (comp (ref C9)
      (value 0.1u)
      (footprint Capacitor_SMD:C_0603_1608Metric_Pad1.05x0.95mm_HandSolder)
      (fields
        (field (name MFR) Kemet)
        (field (name MPN) C0603X104K5RAC7411)
        (field (name SPN) -)
        (field (name SPR) -)
        (field (name SPURL) -))
      (libsource (lib Device) (part C_Small) (description "Unpolarized capacitor, small symbol"))
      (sheetpath (names /) (tstamps /))
      (tstamp 610540C9))
    (comp (ref C1)
      (value 0.1u)
      (footprint Capacitor_SMD:C_0603_1608Metric_Pad1.05x0.95mm_HandSolder)
      (fields
        (field (name MFR) Kemet)
        (field (name MPN) C0603X104K5RAC7411)
        (field (name SPN) -)
        (field (name SPR) -)
        (field (name SPURL) -))
      (libsource (lib Device) (part C_Small) (description "Unpolarized capacitor, small symbol"))
      (sheetpath (names /) (tstamps /))
      (tstamp 610540D4))
    (comp (ref J19)
      (value "LEAK DET")
      (footprint Connector_Molex:Molex_Micro-Fit_3.0_43045-0400_2x02_P3.00mm_Horizontal)
      (datasheet ~)
      (fields
        (field (name MFR) Molex)
        (field (name MPN) 0430450400))
      (libsource (lib Connector_Generic) (part Conn_01x04) (description "Generic connector, single row, 01x04, script generated (kicad-library-utils/schlib/autogen/connector/)"))
      (sheetpath (names /) (tstamps /))
      (tstamp 6103D383))
    (comp (ref BT9)
      (value Conn_02x04_Top_Bottom)
      (footprint Connector_Molex:Molex_Mini-Fit_Jr_5569-08A2_2x04_P4.20mm_Horizontal)
      (datasheet ~)
      (fields
        (field (name MFR) Molex)
        (field (name MPN) 0039301082))
      (libsource (lib Connector_Generic) (part Conn_02x04_Top_Bottom) (description "Generic connector, double row, 02x04, top/bottom pin numbering scheme (row 1: 1...pins_per_row, row2: pins_per_row+1 ... num_pins), script generated (kicad-library-utils/schlib/autogen/connector/)"))
      (sheetpath (names /) (tstamps /))
      (tstamp 61B066BC))
    (comp (ref J16)
      (value RTE)
      (footprint Connector_Molex:Molex_Mini-Fit_Jr_5569-02A2_2x01_P4.20mm_Horizontal)
      (datasheet ~)
      (fields
        (field (name MFR) Molex)
        (field (name MPN) 0469990515))
      (libsource (lib Connector_Generic) (part Conn_01x02) (description "Generic connector, single row, 01x02, script generated (kicad-library-utils/schlib/autogen/connector/)"))
      (sheetpath (names /) (tstamps /))
      (tstamp 60F76AD0))
    (comp (ref U4)
      (value PCA9548A)
      (footprint Footprint:SOP65P780X200-24N)
      (fields
        (field (name MFR) "NXP USA Inc.")
        (field (name MPN) PCA9548APW,118)
        (field (name SPN) -)
        (field (name SPR) -)
        (field (name SPURL) -))
      (libsource (lib 109633-rescue) (part PCA9548A-dgi2) (description ""))
      (sheetpath (names /) (tstamps /))
      (tstamp 60F3460B))
    (comp (ref BT3)
      (value Conn_02x04_Top_Bottom)
      (footprint Connector_Molex:Molex_Mini-Fit_Jr_5569-08A2_2x04_P4.20mm_Horizontal)
      (datasheet ~)
      (fields
        (field (name MFR) Molex)
        (field (name MPN) 0039301082))
      (libsource (lib Connector_Generic) (part Conn_02x04_Top_Bottom) (description "Generic connector, double row, 02x04, top/bottom pin numbering scheme (row 1: 1...pins_per_row, row2: pins_per_row+1 ... num_pins), script generated (kicad-library-utils/schlib/autogen/connector/)"))
      (sheetpath (names /) (tstamps /))
      (tstamp 60F3479F))
    (comp (ref BT5)
      (value Conn_02x04_Top_Bottom)
      (footprint Connector_Molex:Molex_Mini-Fit_Jr_5569-08A2_2x04_P4.20mm_Horizontal)
      (datasheet ~)
      (fields
        (field (name MFR) Molex)
        (field (name MPN) 0039301082))
      (libsource (lib Connector_Generic) (part Conn_02x04_Top_Bottom) (description "Generic connector, double row, 02x04, top/bottom pin numbering scheme (row 1: 1...pins_per_row, row2: pins_per_row+1 ... num_pins), script generated (kicad-library-utils/schlib/autogen/connector/)"))
      (sheetpath (names /) (tstamps /))
      (tstamp 60F347B0))
    (comp (ref U7B1)
      (value BMP280)
      (footprint Footprint:BMP280)
      (datasheet https://ae-bst.resource.bosch.com/media/_tech/media/datasheets/BST-BMP280-DS001.pdf)
      (fields
        (field (name Category) "Sensors, Transducers")
        (field (name DK_Datasheet_Link) https://ae-bst.resource.bosch.com/media/_tech/media/datasheets/BST-BMP280-DS001.pdf)
        (field (name DK_Detail_Page) /product-detail/en/bosch-sensortec/BMP280/828-1064-1-ND/6136315)
        (field (name Description) "SENSOR PRESSURE ABS")
        (field (name Digi-Key_PN) 828-1064-1-ND)
        (field (name Family) "Pressure Sensors, Transducers")
        (field (name MPN) BMP280)
        (field (name Manufacturer) "Bosch Sensortec")
        (field (name Status) Active))
      (libsource (lib dk_Pressure-Sensors-Transducers) (part BMP280) (description "SENSOR PRESSURE ABS"))
      (sheetpath (names /) (tstamps /))
      (tstamp 6105CD57))
    (comp (ref C20)
      (value 0.1u)
      (footprint Capacitor_SMD:C_0603_1608Metric_Pad1.05x0.95mm_HandSolder)
      (fields
        (field (name MFR) Kemet)
        (field (name MPN) C0603X104K5RAC7411)
        (field (name SPN) -)
        (field (name SPR) -)
        (field (name SPURL) -))
      (libsource (lib Device) (part C_Small) (description "Unpolarized capacitor, small symbol"))
      (sheetpath (names /) (tstamps /))
      (tstamp 6138ADCF))
    (comp (ref JP2)
      (value JUMPER-SMT_3_NO)
      (footprint Jumper:SolderJumper-3_P1.3mm_Open_RoundedPad1.0x1.5mm_NumberLabels)
      (fields
        (field (name PROD_ID) XXX-00000))
      (libsource (lib SparkFun-Jumpers) (part JUMPER-SMT_3_NO) (description "Normally open jumper This jumper has three pads in close proximity to each other. Apply solder to close the connection(s)."))
      (sheetpath (names /) (tstamps /))
      (tstamp 61937FA2))
    (comp (ref U6)
      (value NCS3S1205SC)
      (footprint Footprint:NCS3S1205SC_MUR)
      (libsource (lib NCS3S1205SC) (part NCS3S1205SC) (description ""))
      (sheetpath (names /) (tstamps /))
      (tstamp 610760C4))
    (comp (ref L1)
      (value 100uH)
      (footprint Footprint:IND_5022_TDK)
      (fields
        (field (name MFR) "TDK Corporation")
        (field (name MPN) LTF5022T-101MR45-D))
      (libsource (lib MLP2520S) (part MLP2520S100MT0S1) (description ""))
      (sheetpath (names /) (tstamps /))
      (tstamp 6170558F))
    (comp (ref JP1)
      (value JUMPER-SMT_2_NO)
      (footprint Jumper:SolderJumper-2_P1.3mm_Open_RoundedPad1.0x1.5mm)
      (fields
        (field (name PROD_ID) XXX-00000))
      (libsource (lib SparkFun-Jumpers) (part JUMPER-SMT_2_NO) (description "Normally open jumper This jumper has two pads in close proximity to each other. Apply solder to close the connection. Round pads are easier to solder for beginners, but are a lot larger. SparkFun Product that uses the round pads:<ul><li><a href=\"https://www.sparkfun.com/products/12781\">SparkFun EL Sequencer</a></li></ul>"))
      (sheetpath (names /) (tstamps /))
      (tstamp 610B034E))
    (comp (ref BT6)
      (value Conn_02x04_Top_Bottom)
      (footprint Connector_Molex:Molex_Mini-Fit_Jr_5569-08A2_2x04_P4.20mm_Horizontal)
      (datasheet ~)
      (fields
        (field (name MFR) Molex)
        (field (name MPN) 0039301082))
      (libsource (lib Connector_Generic) (part Conn_02x04_Top_Bottom) (description "Generic connector, double row, 02x04, top/bottom pin numbering scheme (row 1: 1...pins_per_row, row2: pins_per_row+1 ... num_pins), script generated (kicad-library-utils/schlib/autogen/connector/)"))
      (sheetpath (names /) (tstamps /))
      (tstamp 60F3478A))
    (comp (ref U2)
      (value PIC18F27Q10)
      (footprint Package_SO:SSOP-28_5.3x10.2mm_P0.65mm)
      (fields
        (field (name MFR) "Microchip Technology")
        (field (name MPN) PIC18F27Q10-I/SS)
        (field (name SPN) -)
        (field (name SPR) -)
        (field (name SPURL) -))
      (libsource (lib 109633-rescue) (part "PIC18(L)F2520-I_SO-dgi2") (description ""))
      (sheetpath (names /) (tstamps /))
      (tstamp 5DFF744B))
    (comp (ref C19)
      (value 4.7UF)
      (footprint 1206)
      (fields
        (field (name MFR) "TDK Corporation")
        (field (name MPN) C3216X5R1H475K160AB))
      (libsource (lib SparkFun-Capacitors) (part 2.2UF-1206-50V-10%) (description "2.2uF ceramic capacitors A capacitor is a passive two-terminal electrical component used to store electrical energy temporarily in an electric field."))
      (sheetpath (names /) (tstamps /))
      (tstamp 619B1CAD))
    (comp (ref J3)
      (value Charge_Ctrl)
      (footprint Connector_Molex:Molex_Micro-Fit_3.0_43650-0500_1x05_P3.00mm_Horizontal)
      (datasheet ~)
      (libsource (lib Connector_Generic) (part Conn_01x05) (description "Generic connector, single row, 01x05, script generated (kicad-library-utils/schlib/autogen/connector/)"))
      (sheetpath (names /) (tstamps /))
      (tstamp 615153BB))
    (comp (ref BT4)
      (value Conn_02x04_Top_Bottom)
      (footprint Connector_Molex:Molex_Mini-Fit_Jr_5569-08A2_2x04_P4.20mm_Horizontal)
      (datasheet ~)
      (fields
        (field (name MFR) Molex)
        (field (name MPN) 0039301082))
      (libsource (lib Connector_Generic) (part Conn_02x04_Top_Bottom) (description "Generic connector, double row, 02x04, top/bottom pin numbering scheme (row 1: 1...pins_per_row, row2: pins_per_row+1 ... num_pins), script generated (kicad-library-utils/schlib/autogen/connector/)"))
      (sheetpath (names /) (tstamps /))
      (tstamp 60F34798))
    (comp (ref J1)
      (value "Profiler Interconnect")
      (footprint Connector_Molex:Molex_Mini-Fit_Jr_5569-12A2_2x06_P4.20mm_Horizontal)
      (datasheet ~)
      (fields
        (field (name MFR) Molex)
        (field (name MPN) 0353181220))
      (libsource (lib Connector_Generic) (part Conn_01x12) (description "Generic connector, single row, 01x12, script generated (kicad-library-utils/schlib/autogen/connector/)"))
      (sheetpath (names /) (tstamps /))
      (tstamp 61106EF5))
    (comp (ref J4)
      (value 460150209)
      (footprint Footprint:460150209)
      (libsource (lib Connector_Generic) (part Conn_01x02) (description "Generic connector, single row, 01x02, script generated (kicad-library-utils/schlib/autogen/connector/)"))
      (sheetpath (names /) (tstamps /))
      (tstamp 614DBEC7))
    (comp (ref J6)
      (value 460150209)
      (footprint Footprint:460150209)
      (libsource (lib Connector_Generic) (part Conn_01x02) (description "Generic connector, single row, 01x02, script generated (kicad-library-utils/schlib/autogen/connector/)"))
      (sheetpath (names /) (tstamps /))
      (tstamp 61EE5E18))
    (comp (ref J8)
      (value 460150209)
      (footprint Footprint:460150209)
      (libsource (lib Connector_Generic) (part Conn_01x02) (description "Generic connector, single row, 01x02, script generated (kicad-library-utils/schlib/autogen/connector/)"))
      (sheetpath (names /) (tstamps /))
      (tstamp 61EE647D))
    (comp (ref J10)
      (value 460150209)
      (footprint Footprint:460150209)
      (libsource (lib Connector_Generic) (part Conn_01x02) (description "Generic connector, single row, 01x02, script generated (kicad-library-utils/schlib/autogen/connector/)"))
      (sheetpath (names /) (tstamps /))
      (tstamp 61EE6A60))
    (comp (ref J11)
      (value 460150209)
      (footprint Footprint:460150209)
      (libsource (lib Connector_Generic) (part Conn_01x02) (description "Generic connector, single row, 01x02, script generated (kicad-library-utils/schlib/autogen/connector/)"))
      (sheetpath (names /) (tstamps /))
      (tstamp 61EE768D))
    (comp (ref J13)
      (value 460150209)
      (footprint Footprint:460150209)
      (libsource (lib Connector_Generic) (part Conn_01x02) (description "Generic connector, single row, 01x02, script generated (kicad-library-utils/schlib/autogen/connector/)"))
      (sheetpath (names /) (tstamps /))
      (tstamp 61EE7C25))
    (comp (ref J14)
      (value 460150209)
      (footprint Footprint:460150209)
      (libsource (lib Connector_Generic) (part Conn_01x02) (description "Generic connector, single row, 01x02, script generated (kicad-library-utils/schlib/autogen/connector/)"))
      (sheetpath (names /) (tstamps /))
      (tstamp 61EE83B1))
    (comp (ref J12)
      (value 460150209)
      (footprint Footprint:460150209)
      (libsource (lib Connector_Generic) (part Conn_01x02) (description "Generic connector, single row, 01x02, script generated (kicad-library-utils/schlib/autogen/connector/)"))
      (sheetpath (names /) (tstamps /))
      (tstamp 61EE8B60))
    (comp (ref J9)
      (value 460150209)
      (footprint Footprint:460150209)
      (libsource (lib Connector_Generic) (part Conn_01x02) (description "Generic connector, single row, 01x02, script generated (kicad-library-utils/schlib/autogen/connector/)"))
      (sheetpath (names /) (tstamps /))
      (tstamp 61EE9206))
    (comp (ref J7)
      (value 460150209)
      (footprint Footprint:460150209)
      (libsource (lib Connector_Generic) (part Conn_01x02) (description "Generic connector, single row, 01x02, script generated (kicad-library-utils/schlib/autogen/connector/)"))
      (sheetpath (names /) (tstamps /))
      (tstamp 61EE9681))
    (comp (ref J5)
      (value 460150209)
      (footprint Footprint:460150209)
      (libsource (lib Connector_Generic) (part Conn_01x02) (description "Generic connector, single row, 01x02, script generated (kicad-library-utils/schlib/autogen/connector/)"))
      (sheetpath (names /) (tstamps /))
      (tstamp 61EE9CE6))
    (comp (ref J15)
      (value 460150209)
      (footprint Footprint:460150209)
      (libsource (lib Connector_Generic) (part Conn_01x02) (description "Generic connector, single row, 01x02, script generated (kicad-library-utils/schlib/autogen/connector/)"))
      (sheetpath (names /) (tstamps /))
      (tstamp 61EEA346))
    (comp (ref BT1)
      (value Conn_02x04_Top_Bottom)
      (footprint Connector_Molex:Molex_Mini-Fit_Jr_5569-08A2_2x04_P4.20mm_Horizontal)
      (datasheet ~)
      (fields
        (field (name MFR) Molex)
        (field (name MPN) 0039301082))
      (libsource (lib Connector_Generic) (part Conn_02x04_Top_Bottom) (description "Generic connector, double row, 02x04, top/bottom pin numbering scheme (row 1: 1...pins_per_row, row2: pins_per_row+1 ... num_pins), script generated (kicad-library-utils/schlib/autogen/connector/)"))
      (sheetpath (names /) (tstamps /))
      (tstamp 60F347A9))
    (comp (ref RESET1)
      (value MOMENTARY-SWITCH-SPST-2-SMD-4.6X2.8MM)
      (footprint "Footprint:KSC401J 50SH LFS")
      (datasheet https://www.ckswitches.com/media/1970/ksc4.pdf)
      (fields
        (field (name Field4) SWCH-13065)
        (field (name MFR) C&K)
        (field (name MPN) "KSC401J 50SH LFS"))
      (libsource (lib SparkFun-Switches) (part MOMENTARY-SWITCH-SPST-2-SMD-4.6X2.8MM) (description "Momentary Switch (Pushbutton) - SPST - Two Circuits Normally-open (NO) SPST momentary switches (buttons, pushbuttons). Schematic symbol includes two switch circuits. <h4>Variants</h4><ul><li><b>SMD-4.6MMX2.8MM</b> -  4.60mm x 2.80mm Tactile Momentary Button Switch  - Used on <a href=\"https://www.sparkfun.com/products/13664\">SparkFun SAMD21 Mini Breakout</a></li><li><b>SMD-5.2MM</b> - <a href=\"https://www.sparkfun.com/products/8720\">Mini Pushbutton Switch - SMD</a> - Used on <a href=\"https://www.sparkfun.com/products/11114\">Arduino Pro Mini</a></li></ul>"))
      (sheetpath (names /) (tstamps /))
      (tstamp 62542CD1))
    (comp (ref JP5)
      (value JUMPER-SMT_3_NO)
      (footprint Jumper:SolderJumper-3_P1.3mm_Open_RoundedPad1.0x1.5mm_NumberLabels)
      (fields
        (field (name PROD_ID) XXX-00000))
      (libsource (lib SparkFun-Jumpers) (part JUMPER-SMT_3_NO) (description "Normally open jumper This jumper has three pads in close proximity to each other. Apply solder to close the connection(s)."))
      (sheetpath (names /) (tstamps /))
      (tstamp 6353B331))
    (comp (ref JP4)
      (value JUMPER-SMT_3_NO)
      (footprint Jumper:SolderJumper-3_P1.3mm_Open_RoundedPad1.0x1.5mm_NumberLabels)
      (fields
        (field (name PROD_ID) XXX-00000))
      (libsource (lib SparkFun-Jumpers) (part JUMPER-SMT_3_NO) (description "Normally open jumper This jumper has three pads in close proximity to each other. Apply solder to close the connection(s)."))
      (sheetpath (names /) (tstamps /))
      (tstamp 6353C2E4))
    (comp (ref JP3)
      (value JUMPER-SMT_3_NO)
      (footprint Jumper:SolderJumper-3_P1.3mm_Open_RoundedPad1.0x1.5mm_NumberLabels)
      (fields
        (field (name PROD_ID) XXX-00000))
      (libsource (lib SparkFun-Jumpers) (part JUMPER-SMT_3_NO) (description "Normally open jumper This jumper has three pads in close proximity to each other. Apply solder to close the connection(s)."))
      (sheetpath (names /) (tstamps /))
      (tstamp 6353CAA9))
    (comp (ref JP8)
      (value JUMPER-SMT_3_NO)
      (footprint Jumper:SolderJumper-3_P1.3mm_Open_RoundedPad1.0x1.5mm_NumberLabels)
      (fields
        (field (name PROD_ID) XXX-00000))
      (libsource (lib SparkFun-Jumpers) (part JUMPER-SMT_3_NO) (description "Normally open jumper This jumper has three pads in close proximity to each other. Apply solder to close the connection(s)."))
      (sheetpath (names /) (tstamps /))
      (tstamp 6380BD47))
    (comp (ref JP7)
      (value JUMPER-SMT_3_NO)
      (footprint Jumper:SolderJumper-3_P1.3mm_Open_RoundedPad1.0x1.5mm_NumberLabels)
      (fields
        (field (name PROD_ID) XXX-00000))
      (libsource (lib SparkFun-Jumpers) (part JUMPER-SMT_3_NO) (description "Normally open jumper This jumper has three pads in close proximity to each other. Apply solder to close the connection(s)."))
      (sheetpath (names /) (tstamps /))
      (tstamp 6380CA26))
    (comp (ref JP6)
      (value JUMPER-SMT_3_NO)
      (footprint Jumper:SolderJumper-3_P1.3mm_Open_RoundedPad1.0x1.5mm_NumberLabels)
      (fields
        (field (name PROD_ID) XXX-00000))
      (libsource (lib SparkFun-Jumpers) (part JUMPER-SMT_3_NO) (description "Normally open jumper This jumper has three pads in close proximity to each other. Apply solder to close the connection(s)."))
      (sheetpath (names /) (tstamps /))
      (tstamp 6380CF27))
    (comp (ref R32)
      (value 10K)
      (footprint Resistor_SMD:R_0603_1608Metric_Pad1.05x0.95mm_HandSolder)
      (fields
        (field (name MFR) Susumu)
        (field (name MPN) RR0816P-103-D)
        (field (name SPN) -)
        (field (name SPR) -)
        (field (name SPURL) -))
      (libsource (lib 109633-rescue) (part Rsmall-dgi2) (description ""))
      (sheetpath (names /) (tstamps /))
      (tstamp 61A3E11E))
    (comp (ref J17)
      (value 43650-300)
      (footprint Connector_Molex:Molex_Micro-Fit_3.0_43650-0300_1x03_P3.00mm_Horizontal)
      (datasheet ~)
      (libsource (lib Connector_Generic) (part Conn_01x03) (description "Generic connector, single row, 01x03, script generated (kicad-library-utils/schlib/autogen/connector/)"))
      (sheetpath (names /) (tstamps /))
      (tstamp 61FE1E0E))
    (comp (ref J18)
      (value 43650-300)
      (footprint Connector_Molex:Molex_Micro-Fit_3.0_43650-0300_1x03_P3.00mm_Horizontal)
      (datasheet ~)
      (libsource (lib Connector_Generic) (part Conn_01x03) (description "Generic connector, single row, 01x03, script generated (kicad-library-utils/schlib/autogen/connector/)"))
      (sheetpath (names /) (tstamps /))
      (tstamp 620297E3))
    (comp (ref J20)
      (value 43650-300)
      (footprint Connector_Molex:Molex_Micro-Fit_3.0_43650-0300_1x03_P3.00mm_Horizontal)
      (datasheet ~)
      (libsource (lib Connector_Generic) (part Conn_01x03) (description "Generic connector, single row, 01x03, script generated (kicad-library-utils/schlib/autogen/connector/)"))
      (sheetpath (names /) (tstamps /))
      (tstamp 62029BB0))
    (comp (ref J22)
      (value 43650-0400)
      (footprint Connector_Molex:Molex_Micro-Fit_3.0_43650-0400_1x04_P3.00mm_Horizontal)
      (datasheet ~)
      (libsource (lib Connector_Generic) (part Conn_01x04) (description "Generic connector, single row, 01x04, script generated (kicad-library-utils/schlib/autogen/connector/)"))
      (sheetpath (names /) (tstamps /))
      (tstamp 626818B9))
    (comp (ref J23)
      (value 43650-0400)
      (footprint Connector_Molex:Molex_Micro-Fit_3.0_43650-0400_1x04_P3.00mm_Horizontal)
      (datasheet ~)
      (libsource (lib Connector_Generic) (part Conn_01x04) (description "Generic connector, single row, 01x04, script generated (kicad-library-utils/schlib/autogen/connector/)"))
      (sheetpath (names /) (tstamps /))
      (tstamp 6271B445))
    (comp (ref J21)
      (value 43650-0400)
      (footprint Connector_Molex:Molex_Micro-Fit_3.0_43650-0400_1x04_P3.00mm_Horizontal)
      (datasheet ~)
      (libsource (lib Connector_Generic) (part Conn_01x04) (description "Generic connector, single row, 01x04, script generated (kicad-library-utils/schlib/autogen/connector/)"))
      (sheetpath (names /) (tstamps /))
      (tstamp 6246B41A))
    (comp (ref U7A1)
      (value 10142048-02)
      (footprint Footprint:10142048-02)
      (fields
        (field (name MANUFACTURER) "TE Connectivity")
        (field (name MAXIMUM_PACKAGE_HEIGHT) "1.0 mm")
        (field (name PARTREV) 6)
        (field (name STANDARD) "IPC 7351B"))
      (libsource (lib 10142048) (part 10142048-02) (description ""))
      (sheetpath (names /) (tstamps /))
      (tstamp 62CC573B))
    (comp (ref R33)
      (value 10K)
      (footprint Resistor_SMD:R_0603_1608Metric_Pad1.05x0.95mm_HandSolder)
      (fields
        (field (name MFR) Susumu)
        (field (name MPN) RR0816P-103-D)
        (field (name SPN) -)
        (field (name SPR) -)
        (field (name SPURL) -))
      (libsource (lib 109633-rescue) (part Rsmall-dgi2) (description ""))
      (sheetpath (names /) (tstamps /))
      (tstamp 62FC974F))
    (comp (ref R34)
      (value 10K)
      (footprint Resistor_SMD:R_0603_1608Metric_Pad1.05x0.95mm_HandSolder)
      (fields
        (field (name MFR) Susumu)
        (field (name MPN) RR0816P-103-D)
        (field (name SPN) -)
        (field (name SPR) -)
        (field (name SPURL) -))
      (libsource (lib 109633-rescue) (part Rsmall-dgi2) (description ""))
      (sheetpath (names /) (tstamps /))
      (tstamp 62FCAF52))
    (comp (ref U7C1)
      (value SCD41-D-R1)
      (footprint Footprint:SCD41-D-R1)
      (libsource (lib SensirionCO2_SensorsSCD4x) (part SCD41-D-R1) (description ""))
      (sheetpath (names /) (tstamps /))
      (tstamp 611221DC)))
  (libparts
    (libpart (lib 10142048) (part 10142048-02)
      (fields
        (field (name Reference) U)
        (field (name Value) 10142048-02)
        (field (name Footprint) SON80P250X250X100-7N_10142048-02)
        (field (name PARTREV) 6)
        (field (name MAXIMUM_PACKAGE_HEIGHT) "1.0 mm")
        (field (name STANDARD) "IPC 7351B")
        (field (name MANUFACTURER) "TE Connectivity"))
      (pins
        (pin (num 1) (name SDA) (type BiDi))
        (pin (num 2) (name GND) (type power_in))
        (pin (num 3) (name IC_ADD) (type input))
        (pin (num 4) (name RST) (type input))
        (pin (num 5) (name VDD) (type power_in))
        (pin (num 6) (name SCL) (type input))
        (pin (num 7) (name EXP) (type passive))))
    (libpart (lib 109633-rescue) (part LTST-C155-dgi2)
      (fields
        (field (name Reference) U)
        (field (name Value) LTST-C155-dgi2))
      (pins
        (pin (num 1) (name AG) (type passive))
        (pin (num 2) (name AR) (type passive))
        (pin (num 3) (name KR) (type passive))
        (pin (num 4) (name KG) (type passive))))
    (libpart (lib 109633-rescue) (part MAX3323E-dgi2)
      (fields
        (field (name Reference) U)
        (field (name Value) MAX3323E-dgi2))
      (pins
        (pin (num 1) (name C1+) (type passive))
        (pin (num 2) (name V+) (type passive))
        (pin (num 3) (name C1-) (type passive))
        (pin (num 4) (name C2+) (type passive))
        (pin (num 5) (name C2-) (type passive))
        (pin (num 6) (name V-) (type passive))
        (pin (num 7) (name T-OUT) (type output))
        (pin (num 8) (name R-IN) (type input))
        (pin (num 9) (name R-OUT) (type output))
        (pin (num 10) (name T-IN) (type input))
        (pin (num 11) (name TXENABLE) (type input))
        (pin (num 12) (name TERM) (type input))
        (pin (num 13) (name VL) (type input))
        (pin (num 14) (name SHDN) (type input))
        (pin (num 15) (name GND) (type power_in))
        (pin (num 16) (name VCC) (type power_in))))
    (libpart (lib 109633-rescue) (part PCA9548A-dgi2)
      (footprints
        (fp SO*)
        (fp SOIC*)
        (fp TSSOP*))
      (fields
        (field (name Reference) U)
        (field (name Value) PCA9548A-dgi2))
      (pins
        (pin (num 1) (name A0) (type input))
        (pin (num 2) (name A1) (type input))
        (pin (num 3) (name RESET') (type input))
        (pin (num 4) (name SDA0) (type BiDi))
        (pin (num 5) (name SCL0) (type BiDi))
        (pin (num 6) (name SDA1) (type BiDi))
        (pin (num 7) (name SCL1) (type BiDi))
        (pin (num 8) (name SDA2) (type BiDi))
        (pin (num 9) (name SCL2) (type BiDi))
        (pin (num 10) (name SDA3) (type BiDi))
        (pin (num 11) (name SCL3) (type BiDi))
        (pin (num 12) (name GND) (type power_in))
        (pin (num 13) (name SDA4) (type BiDi))
        (pin (num 14) (name SCL4) (type BiDi))
        (pin (num 15) (name SDA5) (type BiDi))
        (pin (num 16) (name SCL5) (type BiDi))
        (pin (num 17) (name SDA6) (type BiDi))
        (pin (num 18) (name SCL6) (type BiDi))
        (pin (num 19) (name SDA7) (type BiDi))
        (pin (num 20) (name SCL7) (type BiDi))
        (pin (num 21) (name A2) (type input))
        (pin (num 22) (name SCL) (type BiDi))
        (pin (num 23) (name SDA) (type BiDi))
        (pin (num 24) (name VCC) (type power_in))))
    (libpart (lib 109633-rescue) (part "PIC18(L)F2520-I_SO-dgi2")
      (footprints
        (fp SO*))
      (fields
        (field (name Reference) U)
        (field (name Value) "PIC18(L)F2520-I_SO-dgi2")
        (field (name Footprint) SO28))
      (pins
        (pin (num 1) (name Vpp/~MCLR~/RE3) (type input))
        (pin (num 2) (name RA0/AN0) (type BiDi))
        (pin (num 3) (name RA1/AN1) (type BiDi))
        (pin (num 4) (name RA2/AN2/Vref-) (type BiDi))
        (pin (num 5) (name RA3/AN3/Vref+) (type BiDi))
        (pin (num 6) (name RA4/T0CKI) (type BiDi))
        (pin (num 7) (name RA5/AN4/HLVDIN) (type BiDi))
        (pin (num 8) (name VSS) (type power_in))
        (pin (num 9) (name RA7/OSC1/CLKI) (type BiDi))
        (pin (num 10) (name RA6/OSC2/CLKO) (type output))
        (pin (num 11) (name T1OSO/T13CKI/RC0) (type BiDi))
        (pin (num 12) (name CCP2/T1OSI/RC1) (type BiDi))
        (pin (num 13) (name CCP1/RC2) (type BiDi))
        (pin (num 14) (name SCK/SCL/RC3) (type BiDi))
        (pin (num 15) (name SDI/SDA/RC4) (type BiDi))
        (pin (num 16) (name SDO/RC5) (type BiDi))
        (pin (num 17) (name TX/CK/RC6) (type BiDi))
        (pin (num 18) (name RX/DT/RC7) (type BiDi))
        (pin (num 19) (name VSS) (type power_in))
        (pin (num 20) (name VDD) (type power_in))
        (pin (num 21) (name RB0/AN12/INT0) (type BiDi))
        (pin (num 22) (name RB1/AN10/INT1) (type BiDi))
        (pin (num 23) (name RB2/AN8/INT2) (type BiDi))
        (pin (num 24) (name RB3/AN9/CCP2) (type BiDi))
        (pin (num 25) (name RB4/AN11/KBI0) (type BiDi))
        (pin (num 26) (name RB5/KBI1/PGM) (type BiDi))
        (pin (num 27) (name RB6/KBI2/PGC) (type BiDi))
        (pin (num 28) (name RB7/KBI3/PGD) (type BiDi))))
    (libpart (lib 109633-rescue) (part Rsmall-dgi2)
      (footprints
        (fp R*))
      (fields
        (field (name Reference) R)
        (field (name Value) Rsmall-dgi2))
      (pins
        (pin (num 1) (name A) (type passive))
        (pin (num 2) (name K) (type passive))))
    (libpart (lib 9546) (part PCA9546AD)
      (fields
        (field (name Reference) U)
        (field (name Value) PCA9546AD)
        (field (name Footprint) SOIC127P600X175-16N))
      (pins
        (pin (num 1) (name A0) (type BiDi))
        (pin (num 2) (name A1) (type BiDi))
        (pin (num 3) (name /RESET) (type BiDi))
        (pin (num 4) (name SDA0) (type BiDi))
        (pin (num 5) (name SCL0) (type BiDi))
        (pin (num 6) (name SDA1) (type BiDi))
        (pin (num 7) (name SCL1) (type BiDi))
        (pin (num 8) (name GND) (type power_in))
        (pin (num 9) (name SD2) (type BiDi))
        (pin (num 10) (name SC2) (type BiDi))
        (pin (num 11) (name SD3) (type BiDi))
        (pin (num 12) (name SC3) (type BiDi))
        (pin (num 13) (name A2) (type BiDi))
        (pin (num 14) (name SCL) (type input))
        (pin (num 15) (name SDA) (type BiDi))
        (pin (num 16) (name VCC) (type power_in))))
    (libpart (lib Connector_Generic) (part Conn_01x02)
      (description "Generic connector, single row, 01x02, script generated (kicad-library-utils/schlib/autogen/connector/)")
      (docs ~)
      (footprints
        (fp Connector*:*_1x??_*))
      (fields
        (field (name Reference) J)
        (field (name Value) Conn_01x02))
      (pins
        (pin (num 1) (name Pin_1) (type passive))
        (pin (num 2) (name Pin_2) (type passive))))
    (libpart (lib Connector_Generic) (part Conn_01x03)
      (description "Generic connector, single row, 01x03, script generated (kicad-library-utils/schlib/autogen/connector/)")
      (docs ~)
      (footprints
        (fp Connector*:*_1x??_*))
      (fields
        (field (name Reference) J)
        (field (name Value) Conn_01x03))
      (pins
        (pin (num 1) (name Pin_1) (type passive))
        (pin (num 2) (name Pin_2) (type passive))
        (pin (num 3) (name Pin_3) (type passive))))
    (libpart (lib Connector_Generic) (part Conn_01x04)
      (description "Generic connector, single row, 01x04, script generated (kicad-library-utils/schlib/autogen/connector/)")
      (docs ~)
      (footprints
        (fp Connector*:*_1x??_*))
      (fields
        (field (name Reference) J)
        (field (name Value) Conn_01x04))
      (pins
        (pin (num 1) (name Pin_1) (type passive))
        (pin (num 2) (name Pin_2) (type passive))
        (pin (num 3) (name Pin_3) (type passive))
        (pin (num 4) (name Pin_4) (type passive))))
    (libpart (lib Connector_Generic) (part Conn_01x05)
      (description "Generic connector, single row, 01x05, script generated (kicad-library-utils/schlib/autogen/connector/)")
      (docs ~)
      (footprints
        (fp Connector*:*_1x??_*))
      (fields
        (field (name Reference) J)
        (field (name Value) Conn_01x05))
      (pins
        (pin (num 1) (name Pin_1) (type passive))
        (pin (num 2) (name Pin_2) (type passive))
        (pin (num 3) (name Pin_3) (type passive))
        (pin (num 4) (name Pin_4) (type passive))
        (pin (num 5) (name Pin_5) (type passive))))
    (libpart (lib Connector_Generic) (part Conn_01x06)
      (description "Generic connector, single row, 01x06, script generated (kicad-library-utils/schlib/autogen/connector/)")
      (docs ~)
      (footprints
        (fp Connector*:*_1x??_*))
      (fields
        (field (name Reference) J)
        (field (name Value) Conn_01x06))
      (pins
        (pin (num 1) (name Pin_1) (type passive))
        (pin (num 2) (name Pin_2) (type passive))
        (pin (num 3) (name Pin_3) (type passive))
        (pin (num 4) (name Pin_4) (type passive))
        (pin (num 5) (name Pin_5) (type passive))
        (pin (num 6) (name Pin_6) (type passive))))
    (libpart (lib Connector_Generic) (part Conn_01x12)
      (description "Generic connector, single row, 01x12, script generated (kicad-library-utils/schlib/autogen/connector/)")
      (docs ~)
      (footprints
        (fp Connector*:*_1x??_*))
      (fields
        (field (name Reference) J)
        (field (name Value) Conn_01x12))
      (pins
        (pin (num 1) (name Pin_1) (type passive))
        (pin (num 2) (name Pin_2) (type passive))
        (pin (num 3) (name Pin_3) (type passive))
        (pin (num 4) (name Pin_4) (type passive))
        (pin (num 5) (name Pin_5) (type passive))
        (pin (num 6) (name Pin_6) (type passive))
        (pin (num 7) (name Pin_7) (type passive))
        (pin (num 8) (name Pin_8) (type passive))
        (pin (num 9) (name Pin_9) (type passive))
        (pin (num 10) (name Pin_10) (type passive))
        (pin (num 11) (name Pin_11) (type passive))
        (pin (num 12) (name Pin_12) (type passive))))
    (libpart (lib Connector_Generic) (part Conn_02x04_Top_Bottom)
      (description "Generic connector, double row, 02x04, top/bottom pin numbering scheme (row 1: 1...pins_per_row, row2: pins_per_row+1 ... num_pins), script generated (kicad-library-utils/schlib/autogen/connector/)")
      (docs ~)
      (footprints
        (fp Connector*:*_2x??_*))
      (fields
        (field (name Reference) J)
        (field (name Value) Conn_02x04_Top_Bottom))
      (pins
        (pin (num 1) (name Pin_1) (type passive))
        (pin (num 2) (name Pin_2) (type passive))
        (pin (num 3) (name Pin_3) (type passive))
        (pin (num 4) (name Pin_4) (type passive))
        (pin (num 5) (name Pin_5) (type passive))
        (pin (num 6) (name Pin_6) (type passive))
        (pin (num 7) (name Pin_7) (type passive))
        (pin (num 8) (name Pin_8) (type passive))))
    (libpart (lib Device) (part C_Small)
      (description "Unpolarized capacitor, small symbol")
      (docs ~)
      (footprints
        (fp C_*))
      (fields
        (field (name Reference) C)
        (field (name Value) C_Small))
      (pins
        (pin (num 1) (name ~) (type passive))
        (pin (num 2) (name ~) (type passive))))
    (libpart (lib Device) (part Crystal)
      (description "Two pin crystal")
      (docs ~)
      (footprints
        (fp Crystal*))
      (fields
        (field (name Reference) Y)
        (field (name Value) Crystal))
      (pins
        (pin (num 1) (name 1) (type passive))
        (pin (num 2) (name 2) (type passive))))
    (libpart (lib MLP2520S) (part MLP2520S100MT0S1)
      (footprints
        (fp IND_2520_TDK)
        (fp IND_2520_TDK-M)
        (fp IND_2520_TDK-L))
      (fields
        (field (name Reference) L)
        (field (name Value) MLP2520S100MT0S1)
        (field (name Footprint) IND_2520_TDK))
      (pins
        (pin (num 1) (name 1) (type unspc))
        (pin (num 2) (name 2) (type unspc))))
    (libpart (lib NCS3S1205SC) (part NCS3S1205SC)
      (footprints
        (fp NCS3S1205SC_MUR))
      (fields
        (field (name Reference) U)
        (field (name Value) NCS3S1205SC)
        (field (name Footprint) NCS3S1205SC_MUR))
      (pins
        (pin (num 1) (name -VIN) (type power_in))
        (pin (num 2) (name +VIN) (type power_in))
        (pin (num 3) (name CONTROL) (type unspc))
        (pin (num 6) (name +VOUT) (type output))
        (pin (num 7) (name 0V) (type BiDi))
        (pin (num 8) (name N/C) (type NotConnected))))
    (libpart (lib SensirionCO2_SensorsSCD4x) (part SCD41-D-R1)
      (footprints
        (fp SCD41-D-R1_SEN))
      (fields
        (field (name Reference) U)
        (field (name Value) SCD41-D-R1)
        (field (name Footprint) SCD41-D-R1_SEN))
      (pins
        (pin (num 1) (name DNC) (type NotConnected))
        (pin (num 2) (name DNC) (type NotConnected))
        (pin (num 3) (name DNC) (type NotConnected))
        (pin (num 4) (name DNC) (type NotConnected))
        (pin (num 5) (name DNC) (type NotConnected))
        (pin (num 6) (name GND) (type power_in))
        (pin (num 7) (name VDD) (type power_in))
        (pin (num 8) (name DNC) (type NotConnected))
        (pin (num 9) (name SCL) (type input))
        (pin (num 10) (name SDA) (type BiDi))
        (pin (num 11) (name DNC) (type NotConnected))
        (pin (num 12) (name DNC) (type NotConnected))
        (pin (num 13) (name DNC) (type NotConnected))
        (pin (num 14) (name DNC) (type NotConnected))
        (pin (num 15) (name DNC) (type NotConnected))
        (pin (num 16) (name DNC) (type NotConnected))
        (pin (num 17) (name DNC) (type NotConnected))
        (pin (num 18) (name DNC) (type NotConnected))
        (pin (num 19) (name VDDH) (type power_in))
        (pin (num 20) (name GND) (type power_in))
        (pin (num 21) (name GND) (type power_in))))
    (libpart (lib SparkFun-Capacitors) (part 2.2UF-1206-50V-10%)
      (description "2.2uF ceramic capacitors A capacitor is a passive two-terminal electrical component used to store electrical energy temporarily in an electric field.")
      (footprints
        (fp *1206*))
      (fields
        (field (name Reference) C)
        (field (name Value) 2.2UF-1206-50V-10%)
        (field (name Footprint) 1206)
        (field (name Field4) CAP-10009))
      (pins
        (pin (num 1) (name 1) (type passive))
        (pin (num 2) (name 2) (type passive))))
    (libpart (lib SparkFun-Jumpers) (part JUMPER-SMT_2_NO)
      (description "Normally open jumper This jumper has two pads in close proximity to each other. Apply solder to close the connection. Round pads are easier to solder for beginners, but are a lot larger. SparkFun Product that uses the round pads:<ul><li><a href=\"https://www.sparkfun.com/products/12781\">SparkFun EL Sequencer</a></li></ul>")
      (footprints
        (fp *SMT-JUMPER_2_NO_NO-SILK*)
        (fp *SMT-JUMPER_2_NO_NO-SILK_ROUND*)
        (fp *SMT-JUMPER_2_NO_SILK*)
        (fp *SMT-JUMPER_2_NO_SILK_ROUND*))
      (fields
        (field (name Reference) JP)
        (field (name Value) JUMPER-SMT_2_NO)
        (field (name Footprint) SMT-JUMPER_2_NO)
        (field (name PROD_ID) XXX-00000))
      (pins
        (pin (num 1) (name 1) (type passive))
        (pin (num 2) (name 2) (type passive))))
    (libpart (lib SparkFun-Jumpers) (part JUMPER-SMT_3_NO)
      (description "Normally open jumper This jumper has three pads in close proximity to each other. Apply solder to close the connection(s).")
      (footprints
        (fp *SMT-JUMPER_3_NO_NO-SILK*)
        (fp *SMT-JUMPER_3_NO_SILK*))
      (fields
        (field (name Reference) JP)
        (field (name Value) JUMPER-SMT_3_NO)
        (field (name Footprint) SMT-JUMPER_3_NO)
        (field (name PROD_ID) XXX-00000))
      (pins
        (pin (num 1) (name 1) (type passive))
        (pin (num 2) (name 2) (type passive))
        (pin (num 3) (name 3) (type passive))))
    (libpart (lib SparkFun-Switches) (part MOMENTARY-SWITCH-SPST-2-SMD-4.6X2.8MM)
      (description "Momentary Switch (Pushbutton) - SPST - Two Circuits Normally-open (NO) SPST momentary switches (buttons, pushbuttons). Schematic symbol includes two switch circuits. <h4>Variants</h4><ul><li><b>SMD-4.6MMX2.8MM</b> -  4.60mm x 2.80mm Tactile Momentary Button Switch  - Used on <a href=\"https://www.sparkfun.com/products/13664\">SparkFun SAMD21 Mini Breakout</a></li><li><b>SMD-5.2MM</b> - <a href=\"https://www.sparkfun.com/products/8720\">Mini Pushbutton Switch - SMD</a> - Used on <a href=\"https://www.sparkfun.com/products/11114\">Arduino Pro Mini</a></li></ul>")
      (footprints
        (fp *TACTILE_SWITCH_SMD_4.6X2.8MM*)
        (fp *TACTILE_SWITCH_SMD_5.2MM*))
      (fields
        (field (name Reference) S)
        (field (name Value) MOMENTARY-SWITCH-SPST-2-SMD-4.6X2.8MM)
        (field (name Footprint) TACTILE_SWITCH_SMD_4.6X2.8MM)
        (field (name Field4) SWCH-13065))
      (pins
        (pin (num 1) (name 1) (type passive))
        (pin (num 2) (name 2) (type passive))
        (pin (num 3) (name 3) (type passive))
        (pin (num 4) (name 4) (type passive))))
    (libpart (lib dk_Pressure-Sensors-Transducers) (part BMP280)
      (description "SENSOR PRESSURE ABS")
      (docs https://ae-bst.resource.bosch.com/media/_tech/media/datasheets/BST-BMP280-DS001.pdf)
      (fields
        (field (name Reference) U)
        (field (name Value) BMP280)
        (field (name Footprint) digikey-footprints:LGA-8_2x2.5mm_BMP280)
        (field (name Datasheet) https://ae-bst.resource.bosch.com/media/_tech/media/datasheets/BST-BMP280-DS001.pdf)
        (field (name Digi-Key_PN) 828-1064-1-ND)
        (field (name MPN) BMP280)
        (field (name Category) "Sensors, Transducers")
        (field (name Family) "Pressure Sensors, Transducers")
        (field (name DK_Datasheet_Link) https://ae-bst.resource.bosch.com/media/_tech/media/datasheets/BST-BMP280-DS001.pdf)
        (field (name DK_Detail_Page) /product-detail/en/bosch-sensortec/BMP280/828-1064-1-ND/6136315)
        (field (name Description) "SENSOR PRESSURE ABS")
        (field (name Manufacturer) "Bosch Sensortec")
        (field (name Status) Active))
      (pins
        (pin (num 1) (name GND) (type power_in))
        (pin (num 2) (name CSB) (type input))
        (pin (num 3) (name SDI) (type BiDi))
        (pin (num 4) (name SCK) (type input))
        (pin (num 5) (name SDO) (type BiDi))
        (pin (num 6) (name VDDIO) (type power_in))
        (pin (num 7) (name GND) (type power_in))
        (pin (num 8) (name VDD) (type power_in)))))
  (libraries
    (library (logical 10142048)
      (uri C:/Users/Brian/Documents/KiCAD/Symbol/10142048-02.lib))
    (library (logical 109633-rescue)
      (uri C:\Users\Brian\Documents\CGSN\Profiler_Mooring\Profiler_lithiumBattery_Conversion\revA/109633-rescue.lib))
    (library (logical 9546)
      (uri C:/Users/Brian/AppData/Roaming/SPB_Data/digikey-kicad-library/digikey-symbols/PCA9546AD.lib))
    (library (logical Connector_Generic)
      (uri "C:\\Program Files\\KiCad\\share\\kicad\\library/Connector_Generic.lib"))
    (library (logical Device)
      (uri "C:\\Program Files\\KiCad\\share\\kicad\\library/Device.lib"))
    (library (logical MLP2520S)
      (uri C:/Users/Brian/Documents/KiCAD/Symbol/MLP2520S100MT0S1.lib))
    (library (logical NCS3S1205SC)
      (uri C:/Users/Brian/Documents/KiCAD/Symbol/NCS3S1205SC.lib))
    (library (logical SensirionCO2_SensorsSCD4x)
      (uri C:/Users/Brian/Documents/KiCAD/Symbol/2021-08-06_01-15-51.lib))
    (library (logical SparkFun-Capacitors)
      (uri C:\Users\Brian\AppData\Roaming\SPB_Data\SparkFun-KiCad-Libraries/Libraries/SparkFun-Capacitors.lib))
    (library (logical SparkFun-Jumpers)
      (uri C:\Users\Brian\AppData\Roaming\SPB_Data\SparkFun-KiCad-Libraries/Libraries/SparkFun-Jumpers.lib))
    (library (logical SparkFun-Switches)
      (uri C:\Users\Brian\AppData\Roaming\SPB_Data\SparkFun-KiCad-Libraries/Libraries/SparkFun-Switches.lib))
    (library (logical dk_Pressure-Sensors-Transducers)
      (uri C:\Users\Brian\AppData\Roaming\SPB_Data\digikey-kicad-library/digikey-symbols/dk_Pressure-Sensors-Transducers.lib)))
  (nets
    (net (code 1) (name /GND)
      (node (ref JP5) (pin 1))
      (node (ref J17) (pin 3))
      (node (ref J18) (pin 3))
      (node (ref J20) (pin 3))
      (node (ref J3) (pin 5))
      (node (ref JP4) (pin 1))
      (node (ref JP3) (pin 1))
      (node (ref JP8) (pin 1))
      (node (ref JP6) (pin 1))
      (node (ref BT4) (pin 2))
      (node (ref BT10) (pin 2))
      (node (ref C1) (pin 2))
      (node (ref BT8) (pin 2))
      (node (ref BT2) (pin 2))
      (node (ref BT7) (pin 2))
      (node (ref BT11) (pin 2))
      (node (ref U5) (pin 8))
      (node (ref J21) (pin 4))
      (node (ref J22) (pin 4))
      (node (ref J23) (pin 4))
      (node (ref J1) (pin 8))
      (node (ref U7A1) (pin 7))
      (node (ref JP7) (pin 1))
      (node (ref U7C1) (pin 6))
      (node (ref U7A1) (pin 2))
      (node (ref U7C1) (pin 20))
      (node (ref U7C1) (pin 21))
      (node (ref U7B1) (pin 7))
      (node (ref C19) (pin 1))
      (node (ref U2) (pin 19))
      (node (ref U2) (pin 8))
      (node (ref U7B1) (pin 5))
      (node (ref U7B1) (pin 1))
      (node (ref BT3) (pin 2))
      (node (ref BT6) (pin 2))
      (node (ref BT9) (pin 2))
      (node (ref U4) (pin 12))
      (node (ref U6) (pin 7))
      (node (ref C20) (pin 2))
      (node (ref J2) (pin 3))
      (node (ref RESET1) (pin 4))
      (node (ref BT1) (pin 2))
      (node (ref RESET1) (pin 3))
      (node (ref BT5) (pin 2))
      (node (ref C4) (pin 2))
      (node (ref C5) (pin 2))
      (node (ref C6) (pin 2))
      (node (ref C7) (pin 2))
      (node (ref U3) (pin 12))
      (node (ref U3) (pin 14))
      (node (ref U3) (pin 15))
      (node (ref BT12) (pin 2))
      (node (ref C10) (pin 2))
      (node (ref C13) (pin 2))
      (node (ref C15) (pin 2))
      (node (ref C11) (pin 2))
      (node (ref C17) (pin 2)))
    (net (code 2) (name /SHIELD)
      (node (ref BT3) (pin 1))
      (node (ref BT1) (pin 1))
      (node (ref BT5) (pin 1))
      (node (ref BT9) (pin 1))
      (node (ref BT12) (pin 1))
      (node (ref BT4) (pin 1))
      (node (ref BT10) (pin 1))
      (node (ref BT8) (pin 1))
      (node (ref BT2) (pin 1))
      (node (ref BT7) (pin 1))
      (node (ref BT11) (pin 1))
      (node (ref BT6) (pin 1)))
    (net (code 3) (name /STC_BATT+)
      (node (ref BT8) (pin 5))
      (node (ref BT4) (pin 5))
      (node (ref BT3) (pin 5))
      (node (ref U6) (pin 2))
      (node (ref U6) (pin 3))
      (node (ref BT9) (pin 5))
      (node (ref JP1) (pin 1))
      (node (ref BT12) (pin 5))
      (node (ref BT10) (pin 5))
      (node (ref BT1) (pin 5))
      (node (ref BT2) (pin 5))
      (node (ref BT11) (pin 5))
      (node (ref BT7) (pin 5))
      (node (ref J1) (pin 11))
      (node (ref J1) (pin 12)))
    (net (code 4) (name /#12_CHG+)
      (node (ref J12) (pin 1))
      (node (ref BT12) (pin 7)))
    (net (code 5) (name /#3_CHG-)
      (node (ref J13) (pin 2))
      (node (ref BT3) (pin 8)))
    (net (code 6) (name /#3_CHG+)
      (node (ref J13) (pin 1))
      (node (ref BT3) (pin 7)))
    (net (code 7) (name /#5_CHG-)
      (node (ref J10) (pin 2))
      (node (ref BT5) (pin 8)))
    (net (code 8) (name /LEAK-2)
      (node (ref J19) (pin 3))
      (node (ref J1) (pin 3)))
    (net (code 9) (name /LEAK-1_RTN)
      (node (ref J1) (pin 1))
      (node (ref J19) (pin 2)))
    (net (code 10) (name /LEAK-1)
      (node (ref J1) (pin 2))
      (node (ref J19) (pin 1)))
    (net (code 11) (name /LEAK-2_RTN)
      (node (ref J1) (pin 4))
      (node (ref J19) (pin 4)))
    (net (code 12) (name /RTE_BATT+)
      (node (ref JP1) (pin 2))
      (node (ref J16) (pin 2))
      (node (ref BT5) (pin 5))
      (node (ref BT6) (pin 5)))
    (net (code 13) (name /BATT_RXD)
      (node (ref U3) (pin 7))
      (node (ref J3) (pin 3))
      (node (ref J1) (pin 6)))
    (net (code 14) (name /#12_CLK)
      (node (ref U5) (pin 12))
      (node (ref BT12) (pin 4))
      (node (ref R21) (pin 2)))
    (net (code 15) (name /#12_SDA)
      (node (ref BT12) (pin 3))
      (node (ref R20) (pin 2))
      (node (ref U5) (pin 11)))
    (net (code 16) (name /#9_CLK)
      (node (ref U5) (pin 5))
      (node (ref BT9) (pin 4))
      (node (ref R11) (pin 2)))
    (net (code 17) (name /#9_SDA)
      (node (ref R8) (pin 2))
      (node (ref BT9) (pin 3))
      (node (ref U5) (pin 4)))
    (net (code 18) (name /#9_CHG-)
      (node (ref J5) (pin 2))
      (node (ref BT9) (pin 8)))
    (net (code 19) (name /#9_CHG+)
      (node (ref BT9) (pin 7))
      (node (ref J5) (pin 1)))
    (net (code 20) (name /MCLR\)
      (node (ref RESET1) (pin 1))
      (node (ref U2) (pin 1))
      (node (ref J2) (pin 1))
      (node (ref RESET1) (pin 2))
      (node (ref R32) (pin 2)))
    (net (code 21) (name /ISO_5V_OUT)
      (node (ref J3) (pin 1))
      (node (ref JP2) (pin 1))
      (node (ref L1) (pin 1))
      (node (ref C19) (pin 2)))
    (net (code 22) (name /#1_CLK)
      (node (ref BT1) (pin 4)))
    (net (code 23) (name /#1_SDA)
      (node (ref BT1) (pin 3)))
    (net (code 24) (name /#1_CHG-)
      (node (ref J15) (pin 2))
      (node (ref BT1) (pin 8)))
    (net (code 25) (name /#1_CHG+)
      (node (ref BT1) (pin 7))
      (node (ref J15) (pin 1)))
    (net (code 26) (name /#3_CLK)
      (node (ref BT3) (pin 4)))
    (net (code 27) (name /#6_CLK)
      (node (ref BT6) (pin 4)))
    (net (code 28) (name /#8_CHG+)
      (node (ref J6) (pin 1))
      (node (ref BT8) (pin 7)))
    (net (code 29) (name /#8_CHG-)
      (node (ref J6) (pin 2))
      (node (ref BT8) (pin 8)))
    (net (code 30) (name /#6_SDA)
      (node (ref BT6) (pin 3)))
    (net (code 31) (name /BATT_TXD)
      (node (ref J3) (pin 4))
      (node (ref U3) (pin 8))
      (node (ref J1) (pin 7)))
    (net (code 32) (name /#8_CLK)
      (node (ref BT8) (pin 4)))
    (net (code 33) (name /#4_CLK)
      (node (ref BT4) (pin 4)))
    (net (code 34) (name /#4_CHG-)
      (node (ref J11) (pin 2))
      (node (ref BT4) (pin 8)))
    (net (code 35) (name /#4_CHG+)
      (node (ref J11) (pin 1))
      (node (ref BT4) (pin 7)))
    (net (code 36) (name /#4_SDA)
      (node (ref BT4) (pin 3)))
    (net (code 37) (name "Net-(R34-Pad2)")
      (node (ref R34) (pin 2))
      (node (ref U7A1) (pin 3)))
    (net (code 38) (name "Net-(J20-Pad2)")
      (node (ref U2) (pin 2))
      (node (ref J20) (pin 2)))
    (net (code 39) (name "Net-(J18-Pad2)")
      (node (ref U2) (pin 3))
      (node (ref J18) (pin 2)))
    (net (code 40) (name "Net-(J17-Pad2)")
      (node (ref J17) (pin 2))
      (node (ref U2) (pin 4)))
    (net (code 41) (name "Net-(U7C1-Pad18)")
      (node (ref U7C1) (pin 18)))
    (net (code 42) (name "Net-(U7C1-Pad17)")
      (node (ref U7C1) (pin 17)))
    (net (code 43) (name "Net-(U7C1-Pad16)")
      (node (ref U7C1) (pin 16)))
    (net (code 44) (name "Net-(U7C1-Pad15)")
      (node (ref U7C1) (pin 15)))
    (net (code 45) (name "Net-(U7C1-Pad14)")
      (node (ref U7C1) (pin 14)))
    (net (code 46) (name "Net-(U7C1-Pad13)")
      (node (ref U7C1) (pin 13)))
    (net (code 47) (name "Net-(U7C1-Pad12)")
      (node (ref U7C1) (pin 12)))
    (net (code 48) (name "Net-(U7C1-Pad11)")
      (node (ref U7C1) (pin 11)))
    (net (code 49) (name "Net-(U7C1-Pad8)")
      (node (ref U7C1) (pin 8)))
    (net (code 50) (name "Net-(R33-Pad2)")
      (node (ref U7A1) (pin 4))
      (node (ref R33) (pin 2)))
    (net (code 51) (name "Net-(U7C1-Pad5)")
      (node (ref U7C1) (pin 5)))
    (net (code 52) (name "Net-(U7C1-Pad4)")
      (node (ref U7C1) (pin 4)))
    (net (code 53) (name "Net-(U7C1-Pad3)")
      (node (ref U7C1) (pin 3)))
    (net (code 54) (name "Net-(U7C1-Pad2)")
      (node (ref U7C1) (pin 2)))
    (net (code 55) (name "Net-(U7C1-Pad1)")
      (node (ref U7C1) (pin 1)))
    (net (code 56) (name "Net-(JP4-Pad2)")
      (node (ref U5) (pin 2))
      (node (ref JP4) (pin 2)))
    (net (code 57) (name "Net-(JP3-Pad2)")
      (node (ref U5) (pin 13))
      (node (ref JP3) (pin 2)))
    (net (code 58) (name "Net-(JP6-Pad2)")
      (node (ref U4) (pin 21))
      (node (ref JP6) (pin 2)))
    (net (code 59) (name "Net-(JP7-Pad2)")
      (node (ref JP7) (pin 2))
      (node (ref U4) (pin 2)))
    (net (code 60) (name "Net-(JP5-Pad2)")
      (node (ref JP5) (pin 2))
      (node (ref U5) (pin 1)))
    (net (code 61) (name "Net-(JP8-Pad2)")
      (node (ref U4) (pin 1))
      (node (ref JP8) (pin 2)))
    (net (code 62) (name "Net-(C6-Pad1)")
      (node (ref C6) (pin 1))
      (node (ref U3) (pin 6)))
    (net (code 63) (name "Net-(C1-Pad1)")
      (node (ref C1) (pin 1))
      (node (ref U3) (pin 2)))
    (net (code 64) (name /#11_CLK)
      (node (ref R27) (pin 2))
      (node (ref BT11) (pin 4))
      (node (ref U5) (pin 10)))
    (net (code 65) (name /#11_SDA)
      (node (ref BT11) (pin 3))
      (node (ref U5) (pin 9))
      (node (ref R25) (pin 2)))
    (net (code 66) (name /#7_CHG-)
      (node (ref BT7) (pin 8))
      (node (ref J4) (pin 2)))
    (net (code 67) (name /#7_CHG+)
      (node (ref J4) (pin 1))
      (node (ref BT7) (pin 7)))
    (net (code 68) (name /#7_CLK)
      (node (ref BT7) (pin 4)))
    (net (code 69) (name /#7_SDA)
      (node (ref BT7) (pin 3)))
    (net (code 70) (name /#2_CHG-)
      (node (ref J14) (pin 2))
      (node (ref BT2) (pin 8)))
    (net (code 71) (name /#2_CHG+)
      (node (ref J14) (pin 1))
      (node (ref BT2) (pin 7)))
    (net (code 72) (name /#2_CLK)
      (node (ref BT2) (pin 4)))
    (net (code 73) (name /#2_SDA)
      (node (ref BT2) (pin 3)))
    (net (code 74) (name /#8_SDA)
      (node (ref BT8) (pin 3)))
    (net (code 75) (name /#11_CHG+)
      (node (ref J9) (pin 1))
      (node (ref BT11) (pin 7)))
    (net (code 76) (name "Net-(C8-Pad2)")
      (node (ref C8) (pin 2))
      (node (ref U3) (pin 3)))
    (net (code 77) (name "Net-(C8-Pad1)")
      (node (ref U3) (pin 1))
      (node (ref C8) (pin 1)))
    (net (code 78) (name /TTL_RXD)
      (node (ref U2) (pin 18))
      (node (ref U3) (pin 9))
      (node (ref R2) (pin 2)))
    (net (code 79) (name /TTL_TXD)
      (node (ref R1) (pin 2))
      (node (ref U2) (pin 17))
      (node (ref U3) (pin 10)))
    (net (code 80) (name "Net-(C9-Pad1)")
      (node (ref U3) (pin 4))
      (node (ref C9) (pin 1)))
    (net (code 81) (name "Net-(C9-Pad2)")
      (node (ref C9) (pin 2))
      (node (ref U3) (pin 5)))
    (net (code 82) (name /#10_CHG-)
      (node (ref BT10) (pin 8))
      (node (ref J7) (pin 2)))
    (net (code 83) (name /#10_CHG+)
      (node (ref BT10) (pin 7))
      (node (ref J7) (pin 1)))
    (net (code 84) (name /#10_CLK)
      (node (ref R17) (pin 2))
      (node (ref U5) (pin 7))
      (node (ref BT10) (pin 4)))
    (net (code 85) (name /#10_SDA)
      (node (ref BT10) (pin 3))
      (node (ref R16) (pin 2))
      (node (ref U5) (pin 6)))
    (net (code 86) (name /#12_CHG-)
      (node (ref BT12) (pin 8))
      (node (ref J12) (pin 2)))
    (net (code 87) (name /BATT-)
      (node (ref BT9) (pin 6))
      (node (ref BT10) (pin 6))
      (node (ref BT6) (pin 6))
      (node (ref J1) (pin 10))
      (node (ref J16) (pin 1))
      (node (ref J1) (pin 9))
      (node (ref BT12) (pin 6))
      (node (ref BT2) (pin 6))
      (node (ref BT8) (pin 6))
      (node (ref BT1) (pin 6))
      (node (ref BT4) (pin 6))
      (node (ref BT7) (pin 6))
      (node (ref BT5) (pin 6))
      (node (ref U6) (pin 1))
      (node (ref BT11) (pin 6))
      (node (ref BT3) (pin 6)))
    (net (code 88) (name /#11_CHG-)
      (node (ref J9) (pin 2))
      (node (ref BT11) (pin 8)))
    (net (code 89) (name "Net-(C4-Pad1)")
      (node (ref U2) (pin 10))
      (node (ref Y1) (pin 1))
      (node (ref C4) (pin 1)))
    (net (code 90) (name "Net-(C5-Pad1)")
      (node (ref Y1) (pin 2))
      (node (ref C5) (pin 1))
      (node (ref U2) (pin 9)))
    (net (code 91) (name "Net-(U2-Pad12)")
      (node (ref U2) (pin 12)))
    (net (code 92) (name "Net-(U2-Pad7)")
      (node (ref U2) (pin 7)))
    (net (code 93) (name "Net-(U2-Pad6)")
      (node (ref U2) (pin 6)))
    (net (code 94) (name "Net-(J2-Pad6)")
      (node (ref J2) (pin 6)))
    (net (code 95) (name /PGC)
      (node (ref J2) (pin 4))
      (node (ref U2) (pin 27)))
    (net (code 96) (name "Net-(D1-Pad2)")
      (node (ref D1) (pin 2))
      (node (ref R4) (pin 1)))
    (net (code 97) (name "Net-(D1-Pad1)")
      (node (ref R3) (pin 1))
      (node (ref D1) (pin 1)))
    (net (code 98) (name /PGD)
      (node (ref U2) (pin 28))
      (node (ref J2) (pin 5)))
    (net (code 99) (name "Net-(D1-Pad3)")
      (node (ref U2) (pin 26))
      (node (ref D1) (pin 3)))
    (net (code 100) (name "Net-(R18-Pad2)")
      (node (ref R18) (pin 2))
      (node (ref U4) (pin 15)))
    (net (code 101) (name "Net-(R15-Pad2)")
      (node (ref U4) (pin 16))
      (node (ref R15) (pin 2)))
    (net (code 102) (name "Net-(R13-Pad2)")
      (node (ref U4) (pin 14))
      (node (ref R13) (pin 2)))
    (net (code 103) (name "Net-(R29-Pad2)")
      (node (ref R29) (pin 2))
      (node (ref U4) (pin 8)))
    (net (code 104) (name "Net-(R26-Pad2)")
      (node (ref R26) (pin 2))
      (node (ref U4) (pin 10)))
    (net (code 105) (name "Net-(U2-Pad16)")
      (node (ref U2) (pin 16)))
    (net (code 106) (name "Net-(U2-Pad13)")
      (node (ref U2) (pin 13)))
    (net (code 107) (name "Net-(U2-Pad11)")
      (node (ref U2) (pin 11)))
    (net (code 108) (name "Net-(R28-Pad2)")
      (node (ref R28) (pin 2))
      (node (ref U4) (pin 11)))
    (net (code 109) (name "Net-(R19-Pad2)")
      (node (ref U4) (pin 19))
      (node (ref R19) (pin 2)))
    (net (code 110) (name "Net-(R22-Pad2)")
      (node (ref R22) (pin 2))
      (node (ref U4) (pin 20)))
    (net (code 111) (name /SDA)
      (node (ref J21) (pin 3))
      (node (ref U7B1) (pin 3))
      (node (ref U7A1) (pin 1))
      (node (ref U5) (pin 15))
      (node (ref J22) (pin 3))
      (node (ref J23) (pin 3))
      (node (ref U2) (pin 15))
      (node (ref R9) (pin 2))
      (node (ref U4) (pin 23))
      (node (ref U7C1) (pin 10)))
    (net (code 112) (name /SCL)
      (node (ref U2) (pin 14))
      (node (ref U5) (pin 14))
      (node (ref J23) (pin 2))
      (node (ref U4) (pin 22))
      (node (ref J22) (pin 2))
      (node (ref U7A1) (pin 6))
      (node (ref J21) (pin 2))
      (node (ref U7B1) (pin 4))
      (node (ref U7C1) (pin 9))
      (node (ref R10) (pin 2)))
    (net (code 113) (name "Net-(R30-Pad1)")
      (node (ref R30) (pin 1))
      (node (ref U4) (pin 9)))
    (net (code 114) (name "Net-(R24-Pad2)")
      (node (ref U4) (pin 18))
      (node (ref R24) (pin 2)))
    (net (code 115) (name "Net-(R23-Pad2)")
      (node (ref U4) (pin 17))
      (node (ref R23) (pin 2)))
    (net (code 116) (name /#6_CHG-)
      (node (ref BT6) (pin 8))
      (node (ref J8) (pin 2)))
    (net (code 117) (name /#6_CHG+)
      (node (ref BT6) (pin 7))
      (node (ref J8) (pin 1)))
    (net (code 118) (name "Net-(U2-Pad5)")
      (node (ref U2) (pin 5)))
    (net (code 119) (name "Net-(D1-Pad4)")
      (node (ref D1) (pin 4))
      (node (ref U2) (pin 25)))
    (net (code 120) (name "Net-(U2-Pad24)")
      (node (ref U2) (pin 24)))
    (net (code 121) (name "Net-(U2-Pad23)")
      (node (ref U2) (pin 23)))
    (net (code 122) (name "Net-(U2-Pad22)")
      (node (ref U2) (pin 22)))
    (net (code 123) (name "Net-(U2-Pad21)")
      (node (ref U2) (pin 21)))
    (net (code 124) (name "Net-(L1-Pad2)")
      (node (ref L1) (pin 2))
      (node (ref U6) (pin 6)))
    (net (code 125) (name "Net-(R14-Pad2)")
      (node (ref R14) (pin 2))
      (node (ref U4) (pin 13)))
    (net (code 126) (name "Net-(R7-Pad2)")
      (node (ref U4) (pin 7))
      (node (ref R7) (pin 2)))
    (net (code 127) (name "Net-(R12-Pad2)")
      (node (ref U4) (pin 6))
      (node (ref R12) (pin 2)))
    (net (code 128) (name "Net-(R5-Pad2)")
      (node (ref R5) (pin 2))
      (node (ref U4) (pin 5)))
    (net (code 129) (name "Net-(R6-Pad2)")
      (node (ref R6) (pin 2))
      (node (ref U4) (pin 4)))
    (net (code 130) (name /5V)
      (node (ref R1) (pin 1))
      (node (ref J2) (pin 2))
      (node (ref C11) (pin 1))
      (node (ref R2) (pin 1))
      (node (ref J18) (pin 1))
      (node (ref C10) (pin 1))
      (node (ref J23) (pin 1))
      (node (ref U3) (pin 11))
      (node (ref U3) (pin 13))
      (node (ref U3) (pin 16))
      (node (ref U2) (pin 20))
      (node (ref J22) (pin 1))
      (node (ref J3) (pin 2))
      (node (ref R3) (pin 2))
      (node (ref C7) (pin 1))
      (node (ref R32) (pin 1))
      (node (ref R10) (pin 1))
      (node (ref R9) (pin 1))
      (node (ref R4) (pin 2))
      (node (ref JP2) (pin 2))
      (node (ref R31) (pin 1))
      (node (ref J21) (pin 1))
      (node (ref J20) (pin 1))
      (node (ref J17) (pin 1)))
    (net (code 131) (name "Net-(U6-Pad8)")
      (node (ref U6) (pin 8)))
    (net (code 132) (name /ALL_CH_5V)
      (node (ref R16) (pin 1))
      (node (ref U5) (pin 16))
      (node (ref U7A1) (pin 5))
      (node (ref U5) (pin 3))
      (node (ref R11) (pin 1))
      (node (ref R17) (pin 1))
      (node (ref JP4) (pin 3))
      (node (ref U7B1) (pin 6))
      (node (ref U7B1) (pin 8))
      (node (ref C20) (pin 1))
      (node (ref R27) (pin 1))
      (node (ref R20) (pin 1))
      (node (ref R21) (pin 1))
      (node (ref R8) (pin 1))
      (node (ref R25) (pin 1))
      (node (ref U4) (pin 3))
      (node (ref U4) (pin 24))
      (node (ref U7B1) (pin 2))
      (node (ref U7C1) (pin 7))
      (node (ref C17) (pin 1))
      (node (ref R31) (pin 2))
      (node (ref R23) (pin 1))
      (node (ref R15) (pin 1))
      (node (ref R18) (pin 1))
      (node (ref R14) (pin 1))
      (node (ref R30) (pin 2))
      (node (ref R29) (pin 1))
      (node (ref R22) (pin 1))
      (node (ref C13) (pin 1))
      (node (ref C15) (pin 1))
      (node (ref R13) (pin 1))
      (node (ref R19) (pin 1))
      (node (ref R24) (pin 1))
      (node (ref R5) (pin 1))
      (node (ref R26) (pin 1))
      (node (ref R28) (pin 1))
      (node (ref R12) (pin 1))
      (node (ref R7) (pin 1))
      (node (ref R6) (pin 1))
      (node (ref JP8) (pin 3))
      (node (ref JP7) (pin 3))
      (node (ref JP6) (pin 3))
      (node (ref JP3) (pin 3))
      (node (ref JP5) (pin 3))
      (node (ref U7C1) (pin 19))
      (node (ref R34) (pin 1))
      (node (ref R33) (pin 1)))
    (net (code 133) (name /STC_5V)
      (node (ref J1) (pin 5))
      (node (ref JP2) (pin 3)))
    (net (code 134) (name /#3_SDA)
      (node (ref BT3) (pin 3)))
    (net (code 135) (name /#5_CHG+)
      (node (ref J10) (pin 1))
      (node (ref BT5) (pin 7)))
    (net (code 136) (name /#5_CLK)
      (node (ref BT5) (pin 4)))
    (net (code 137) (name /#5_SDA)
      (node (ref BT5) (pin 3)))))