# 1 "C:/Users/Brian/Documents/Projects/OOI/LithiumBatteryInterface/Firmware/pic18f27q10_profiler_bat.X/sensirion_i2c.c"
# 1 "<built-in>" 1
# 1 "<built-in>" 3
# 288 "<built-in>" 3
# 1 "<command line>" 1
# 1 "<built-in>" 2
# 1 "C:/Program Files/Microchip/MPLABX/v5.50/packs/Microchip/PIC18F-Q_DFP/1.11.185/xc8\\pic\\include\\language_support.h" 1 3
# 2 "<built-in>" 2
# 1 "C:/Users/Brian/Documents/Projects/OOI/LithiumBatteryInterface/Firmware/pic18f27q10_profiler_bat.X/sensirion_i2c.c" 2
# 32 "C:/Users/Brian/Documents/Projects/OOI/LithiumBatteryInterface/Firmware/pic18f27q10_profiler_bat.X/sensirion_i2c.c"
# 1 "C:/Users/Brian/Documents/Projects/OOI/LithiumBatteryInterface/Firmware/pic18f27q10_profiler_bat.X/sensirion_i2c.h" 1
# 35 "C:/Users/Brian/Documents/Projects/OOI/LithiumBatteryInterface/Firmware/pic18f27q10_profiler_bat.X/sensirion_i2c.h"
# 1 "C:/Users/Brian/Documents/Projects/OOI/LithiumBatteryInterface/Firmware/pic18f27q10_profiler_bat.X/sensirion_config.h" 1
# 39 "C:/Users/Brian/Documents/Projects/OOI/LithiumBatteryInterface/Firmware/pic18f27q10_profiler_bat.X/sensirion_config.h"
# 1 "C:\\Program Files\\Microchip\\xc8\\v2.32\\pic\\include\\c99\\stdlib.h" 1 3



# 1 "C:\\Program Files\\Microchip\\xc8\\v2.32\\pic\\include\\c99\\musl_xc8.h" 1 3
# 4 "C:\\Program Files\\Microchip\\xc8\\v2.32\\pic\\include\\c99\\stdlib.h" 2 3






# 1 "C:\\Program Files\\Microchip\\xc8\\v2.32\\pic\\include\\c99\\features.h" 1 3
# 10 "C:\\Program Files\\Microchip\\xc8\\v2.32\\pic\\include\\c99\\stdlib.h" 2 3
# 21 "C:\\Program Files\\Microchip\\xc8\\v2.32\\pic\\include\\c99\\stdlib.h" 3
# 1 "C:\\Program Files\\Microchip\\xc8\\v2.32\\pic\\include\\c99\\bits/alltypes.h" 1 3
# 18 "C:\\Program Files\\Microchip\\xc8\\v2.32\\pic\\include\\c99\\bits/alltypes.h" 3
typedef long int wchar_t;
# 122 "C:\\Program Files\\Microchip\\xc8\\v2.32\\pic\\include\\c99\\bits/alltypes.h" 3
typedef unsigned size_t;
# 168 "C:\\Program Files\\Microchip\\xc8\\v2.32\\pic\\include\\c99\\bits/alltypes.h" 3
typedef __int24 int24_t;
# 204 "C:\\Program Files\\Microchip\\xc8\\v2.32\\pic\\include\\c99\\bits/alltypes.h" 3
typedef __uint24 uint24_t;
# 21 "C:\\Program Files\\Microchip\\xc8\\v2.32\\pic\\include\\c99\\stdlib.h" 2 3


int atoi (const char *);
long atol (const char *);
long long atoll (const char *);
double atof (const char *);

float strtof (const char *restrict, char **restrict);
double strtod (const char *restrict, char **restrict);
long double strtold (const char *restrict, char **restrict);



long strtol (const char *restrict, char **restrict, int);
unsigned long strtoul (const char *restrict, char **restrict, int);
long long strtoll (const char *restrict, char **restrict, int);
unsigned long long strtoull (const char *restrict, char **restrict, int);

int rand (void);
void srand (unsigned);

          void abort (void);
int atexit (void (*) (void));
          void exit (int);
          void _Exit (int);

void *bsearch (const void *, const void *, size_t, size_t, int (*)(const void *, const void *));

__attribute__((nonreentrant)) void qsort (void *, size_t, size_t, int (*)(const void *, const void *));

int abs (int);
long labs (long);
long long llabs (long long);

typedef struct { int quot, rem; } div_t;
typedef struct { long quot, rem; } ldiv_t;
typedef struct { long long quot, rem; } lldiv_t;

div_t div (int, int);
ldiv_t ldiv (long, long);
lldiv_t lldiv (long long, long long);

typedef struct { unsigned int quot, rem; } udiv_t;
typedef struct { unsigned long quot, rem; } uldiv_t;
udiv_t udiv (unsigned int, unsigned int);
uldiv_t uldiv (unsigned long, unsigned long);





size_t __ctype_get_mb_cur_max(void);
# 40 "C:/Users/Brian/Documents/Projects/OOI/LithiumBatteryInterface/Firmware/pic18f27q10_profiler_bat.X/sensirion_config.h" 2
# 51 "C:/Users/Brian/Documents/Projects/OOI/LithiumBatteryInterface/Firmware/pic18f27q10_profiler_bat.X/sensirion_config.h"
# 1 "C:\\Program Files\\Microchip\\xc8\\v2.32\\pic\\include\\c99\\stdint.h" 1 3
# 22 "C:\\Program Files\\Microchip\\xc8\\v2.32\\pic\\include\\c99\\stdint.h" 3
# 1 "C:\\Program Files\\Microchip\\xc8\\v2.32\\pic\\include\\c99\\bits/alltypes.h" 1 3
# 127 "C:\\Program Files\\Microchip\\xc8\\v2.32\\pic\\include\\c99\\bits/alltypes.h" 3
typedef unsigned long uintptr_t;
# 142 "C:\\Program Files\\Microchip\\xc8\\v2.32\\pic\\include\\c99\\bits/alltypes.h" 3
typedef long intptr_t;
# 158 "C:\\Program Files\\Microchip\\xc8\\v2.32\\pic\\include\\c99\\bits/alltypes.h" 3
typedef signed char int8_t;




typedef short int16_t;
# 173 "C:\\Program Files\\Microchip\\xc8\\v2.32\\pic\\include\\c99\\bits/alltypes.h" 3
typedef long int32_t;





typedef long long int64_t;
# 188 "C:\\Program Files\\Microchip\\xc8\\v2.32\\pic\\include\\c99\\bits/alltypes.h" 3
typedef long long intmax_t;





typedef unsigned char uint8_t;




typedef unsigned short uint16_t;
# 209 "C:\\Program Files\\Microchip\\xc8\\v2.32\\pic\\include\\c99\\bits/alltypes.h" 3
typedef unsigned long uint32_t;





typedef unsigned long long uint64_t;
# 229 "C:\\Program Files\\Microchip\\xc8\\v2.32\\pic\\include\\c99\\bits/alltypes.h" 3
typedef unsigned long long uintmax_t;
# 22 "C:\\Program Files\\Microchip\\xc8\\v2.32\\pic\\include\\c99\\stdint.h" 2 3


typedef int8_t int_fast8_t;

typedef int64_t int_fast64_t;


typedef int8_t int_least8_t;
typedef int16_t int_least16_t;

typedef int24_t int_least24_t;
typedef int24_t int_fast24_t;

typedef int32_t int_least32_t;

typedef int64_t int_least64_t;


typedef uint8_t uint_fast8_t;

typedef uint64_t uint_fast64_t;


typedef uint8_t uint_least8_t;
typedef uint16_t uint_least16_t;

typedef uint24_t uint_least24_t;
typedef uint24_t uint_fast24_t;

typedef uint32_t uint_least32_t;

typedef uint64_t uint_least64_t;
# 144 "C:\\Program Files\\Microchip\\xc8\\v2.32\\pic\\include\\c99\\stdint.h" 3
# 1 "C:\\Program Files\\Microchip\\xc8\\v2.32\\pic\\include\\c99\\bits/stdint.h" 1 3
typedef int16_t int_fast16_t;
typedef int32_t int_fast32_t;
typedef uint16_t uint_fast16_t;
typedef uint32_t uint_fast32_t;
# 144 "C:\\Program Files\\Microchip\\xc8\\v2.32\\pic\\include\\c99\\stdint.h" 2 3
# 52 "C:/Users/Brian/Documents/Projects/OOI/LithiumBatteryInterface/Firmware/pic18f27q10_profiler_bat.X/sensirion_config.h" 2
# 75 "C:/Users/Brian/Documents/Projects/OOI/LithiumBatteryInterface/Firmware/pic18f27q10_profiler_bat.X/sensirion_config.h"
# 1 "C:\\Program Files\\Microchip\\xc8\\v2.32\\pic\\include\\c99\\stdbool.h" 1 3
# 76 "C:/Users/Brian/Documents/Projects/OOI/LithiumBatteryInterface/Firmware/pic18f27q10_profiler_bat.X/sensirion_config.h" 2
# 36 "C:/Users/Brian/Documents/Projects/OOI/LithiumBatteryInterface/Firmware/pic18f27q10_profiler_bat.X/sensirion_i2c.h" 2
# 55 "C:/Users/Brian/Documents/Projects/OOI/LithiumBatteryInterface/Firmware/pic18f27q10_profiler_bat.X/sensirion_i2c.h"
uint8_t sensirion_i2c_generate_crc(const uint8_t* data, uint16_t count);

int8_t sensirion_i2c_check_crc(const uint8_t* data, uint16_t count,
                               uint8_t checksum);
# 68 "C:/Users/Brian/Documents/Projects/OOI/LithiumBatteryInterface/Firmware/pic18f27q10_profiler_bat.X/sensirion_i2c.h"
int16_t sensirion_i2c_general_call_reset(void);
# 83 "C:/Users/Brian/Documents/Projects/OOI/LithiumBatteryInterface/Firmware/pic18f27q10_profiler_bat.X/sensirion_i2c.h"
uint16_t sensirion_i2c_fill_cmd_send_buf(uint8_t* buf, uint16_t cmd,
                                         const uint16_t* args,
                                         uint8_t num_args);
# 97 "C:/Users/Brian/Documents/Projects/OOI/LithiumBatteryInterface/Firmware/pic18f27q10_profiler_bat.X/sensirion_i2c.h"
int16_t sensirion_i2c_read_words(uint8_t address, uint16_t* data_words,
                                 uint16_t num_words);
# 116 "C:/Users/Brian/Documents/Projects/OOI/LithiumBatteryInterface/Firmware/pic18f27q10_profiler_bat.X/sensirion_i2c.h"
int16_t sensirion_i2c_read_words_as_bytes(uint8_t address, uint8_t* data,
                                          uint16_t num_words);
# 126 "C:/Users/Brian/Documents/Projects/OOI/LithiumBatteryInterface/Firmware/pic18f27q10_profiler_bat.X/sensirion_i2c.h"
int16_t sensirion_i2c_write_cmd(uint8_t address, uint16_t command);
# 138 "C:/Users/Brian/Documents/Projects/OOI/LithiumBatteryInterface/Firmware/pic18f27q10_profiler_bat.X/sensirion_i2c.h"
int16_t sensirion_i2c_write_cmd_with_args(uint8_t address, uint16_t command,
                                          const uint16_t* data_words,
                                          uint16_t num_words);
# 153 "C:/Users/Brian/Documents/Projects/OOI/LithiumBatteryInterface/Firmware/pic18f27q10_profiler_bat.X/sensirion_i2c.h"
int16_t sensirion_i2c_delayed_read_cmd(uint8_t address, uint16_t cmd,
                                       uint32_t delay_us, uint16_t* data_words,
                                       uint16_t num_words);
# 166 "C:/Users/Brian/Documents/Projects/OOI/LithiumBatteryInterface/Firmware/pic18f27q10_profiler_bat.X/sensirion_i2c.h"
int16_t sensirion_i2c_read_cmd(uint8_t address, uint16_t cmd,
                               uint16_t* data_words, uint16_t num_words);
# 181 "C:/Users/Brian/Documents/Projects/OOI/LithiumBatteryInterface/Firmware/pic18f27q10_profiler_bat.X/sensirion_i2c.h"
uint16_t sensirion_i2c_add_command_to_buffer(uint8_t* buffer, uint16_t offset,
                                             uint16_t command);
# 196 "C:/Users/Brian/Documents/Projects/OOI/LithiumBatteryInterface/Firmware/pic18f27q10_profiler_bat.X/sensirion_i2c.h"
uint16_t sensirion_i2c_add_uint32_t_to_buffer(uint8_t* buffer, uint16_t offset,
                                              uint32_t data);
# 211 "C:/Users/Brian/Documents/Projects/OOI/LithiumBatteryInterface/Firmware/pic18f27q10_profiler_bat.X/sensirion_i2c.h"
uint16_t sensirion_i2c_add_int32_t_to_buffer(uint8_t* buffer, uint16_t offset,
                                             int32_t data);
# 226 "C:/Users/Brian/Documents/Projects/OOI/LithiumBatteryInterface/Firmware/pic18f27q10_profiler_bat.X/sensirion_i2c.h"
uint16_t sensirion_i2c_add_uint16_t_to_buffer(uint8_t* buffer, uint16_t offset,
                                              uint16_t data);
# 241 "C:/Users/Brian/Documents/Projects/OOI/LithiumBatteryInterface/Firmware/pic18f27q10_profiler_bat.X/sensirion_i2c.h"
uint16_t sensirion_i2c_add_int16_t_to_buffer(uint8_t* buffer, uint16_t offset,
                                             int16_t data);
# 256 "C:/Users/Brian/Documents/Projects/OOI/LithiumBatteryInterface/Firmware/pic18f27q10_profiler_bat.X/sensirion_i2c.h"
uint16_t sensirion_i2c_add_float_to_buffer(uint8_t* buffer, uint16_t offset,
                                           float data);
# 276 "C:/Users/Brian/Documents/Projects/OOI/LithiumBatteryInterface/Firmware/pic18f27q10_profiler_bat.X/sensirion_i2c.h"
uint16_t sensirion_i2c_add_bytes_to_buffer(uint8_t* buffer, uint16_t offset,
                                           uint8_t* data, uint16_t data_length);
# 291 "C:/Users/Brian/Documents/Projects/OOI/LithiumBatteryInterface/Firmware/pic18f27q10_profiler_bat.X/sensirion_i2c.h"
int16_t sensirion_i2c_write_data(uint8_t address, const uint8_t* data,
                                 uint16_t data_length);
# 308 "C:/Users/Brian/Documents/Projects/OOI/LithiumBatteryInterface/Firmware/pic18f27q10_profiler_bat.X/sensirion_i2c.h"
int16_t sensirion_i2c_read_data_inplace(uint8_t address, uint8_t* buffer,
                                        uint16_t expected_data_length);
# 33 "C:/Users/Brian/Documents/Projects/OOI/LithiumBatteryInterface/Firmware/pic18f27q10_profiler_bat.X/sensirion_i2c.c" 2
# 1 "C:/Users/Brian/Documents/Projects/OOI/LithiumBatteryInterface/Firmware/pic18f27q10_profiler_bat.X/sensirion_common.h" 1
# 62 "C:/Users/Brian/Documents/Projects/OOI/LithiumBatteryInterface/Firmware/pic18f27q10_profiler_bat.X/sensirion_common.h"
int16_t sensirion_common_bytes_to_int16_t(const uint8_t* bytes);
# 73 "C:/Users/Brian/Documents/Projects/OOI/LithiumBatteryInterface/Firmware/pic18f27q10_profiler_bat.X/sensirion_common.h"
int32_t sensirion_common_bytes_to_int32_t(const uint8_t* bytes);
# 85 "C:/Users/Brian/Documents/Projects/OOI/LithiumBatteryInterface/Firmware/pic18f27q10_profiler_bat.X/sensirion_common.h"
uint16_t sensirion_common_bytes_to_uint16_t(const uint8_t* bytes);
# 97 "C:/Users/Brian/Documents/Projects/OOI/LithiumBatteryInterface/Firmware/pic18f27q10_profiler_bat.X/sensirion_common.h"
uint32_t sensirion_common_bytes_to_uint32_t(const uint8_t* bytes);
# 108 "C:/Users/Brian/Documents/Projects/OOI/LithiumBatteryInterface/Firmware/pic18f27q10_profiler_bat.X/sensirion_common.h"
float sensirion_common_bytes_to_float(const uint8_t* bytes);
# 120 "C:/Users/Brian/Documents/Projects/OOI/LithiumBatteryInterface/Firmware/pic18f27q10_profiler_bat.X/sensirion_common.h"
void sensirion_common_uint32_t_to_bytes(const uint32_t value, uint8_t* bytes);
# 132 "C:/Users/Brian/Documents/Projects/OOI/LithiumBatteryInterface/Firmware/pic18f27q10_profiler_bat.X/sensirion_common.h"
void sensirion_common_uint16_t_to_bytes(const uint16_t value, uint8_t* bytes);
# 143 "C:/Users/Brian/Documents/Projects/OOI/LithiumBatteryInterface/Firmware/pic18f27q10_profiler_bat.X/sensirion_common.h"
void sensirion_common_int32_t_to_bytes(const int32_t value, uint8_t* bytes);
# 154 "C:/Users/Brian/Documents/Projects/OOI/LithiumBatteryInterface/Firmware/pic18f27q10_profiler_bat.X/sensirion_common.h"
void sensirion_common_int16_t_to_bytes(const int16_t value, uint8_t* bytes);
# 165 "C:/Users/Brian/Documents/Projects/OOI/LithiumBatteryInterface/Firmware/pic18f27q10_profiler_bat.X/sensirion_common.h"
void sensirion_common_float_to_bytes(const float value, uint8_t* bytes);
# 174 "C:/Users/Brian/Documents/Projects/OOI/LithiumBatteryInterface/Firmware/pic18f27q10_profiler_bat.X/sensirion_common.h"
void sensirion_common_copy_bytes(const uint8_t* source, uint8_t* destination,
                                 uint16_t data_length);
# 34 "C:/Users/Brian/Documents/Projects/OOI/LithiumBatteryInterface/Firmware/pic18f27q10_profiler_bat.X/sensirion_i2c.c" 2

# 1 "C:/Users/Brian/Documents/Projects/OOI/LithiumBatteryInterface/Firmware/pic18f27q10_profiler_bat.X/sensirion_i2c_hal.h" 1
# 51 "C:/Users/Brian/Documents/Projects/OOI/LithiumBatteryInterface/Firmware/pic18f27q10_profiler_bat.X/sensirion_i2c_hal.h"
int16_t sensirion_i2c_hal_select_bus(uint8_t bus_idx);
# 62 "C:/Users/Brian/Documents/Projects/OOI/LithiumBatteryInterface/Firmware/pic18f27q10_profiler_bat.X/sensirion_i2c_hal.h"
void sensirion_i2c_hal_free(void);
# 74 "C:/Users/Brian/Documents/Projects/OOI/LithiumBatteryInterface/Firmware/pic18f27q10_profiler_bat.X/sensirion_i2c_hal.h"
int8_t sensirion_i2c_hal_read(uint8_t address, uint8_t* data, uint16_t count);
# 87 "C:/Users/Brian/Documents/Projects/OOI/LithiumBatteryInterface/Firmware/pic18f27q10_profiler_bat.X/sensirion_i2c_hal.h"
int8_t sensirion_i2c_hal_write(uint8_t address, const uint8_t* data,
                               uint16_t count);
# 106 "C:/Users/Brian/Documents/Projects/OOI/LithiumBatteryInterface/Firmware/pic18f27q10_profiler_bat.X/sensirion_i2c_hal.h"
void sensirion_i2c_hal_sleep_usec(uint32_t useconds);
# 36 "C:/Users/Brian/Documents/Projects/OOI/LithiumBatteryInterface/Firmware/pic18f27q10_profiler_bat.X/sensirion_i2c.c" 2

uint8_t sensirion_i2c_generate_crc(const uint8_t* data, uint16_t count) {
    uint16_t current_byte;
    uint8_t crc = 0xFF;
    uint8_t crc_bit;


    for (current_byte = 0; current_byte < count; ++current_byte) {
        crc ^= (data[current_byte]);
        for (crc_bit = 8; crc_bit > 0; --crc_bit) {
            if (crc & 0x80)
                crc = (crc << 1) ^ 0x31;
            else
                crc = (crc << 1);
        }
    }
    return crc;
}

int8_t sensirion_i2c_check_crc(const uint8_t* data, uint16_t count,
                               uint8_t checksum) {
    if (sensirion_i2c_generate_crc(data, count) != checksum)
        return 1;
    return 0;
}

int16_t sensirion_i2c_general_call_reset(void) {
    const uint8_t data = 0x06;
    return sensirion_i2c_hal_write(0, &data, (uint16_t)sizeof(data));
}

uint16_t sensirion_i2c_fill_cmd_send_buf(uint8_t* buf, uint16_t cmd,
                                         const uint16_t* args,
                                         uint8_t num_args) {
    uint8_t i;
    uint16_t idx = 0;

    buf[idx++] = (uint8_t)((cmd & 0xFF00) >> 8);
    buf[idx++] = (uint8_t)((cmd & 0x00FF) >> 0);

    for (i = 0; i < num_args; ++i) {
        buf[idx++] = (uint8_t)((args[i] & 0xFF00) >> 8);
        buf[idx++] = (uint8_t)((args[i] & 0x00FF) >> 0);

        uint8_t crc = sensirion_i2c_generate_crc((uint8_t*)&buf[idx - 2],
                                                 2);
        buf[idx++] = crc;
    }
    return idx;
}

int16_t sensirion_i2c_read_words_as_bytes(uint8_t address, uint8_t* data,
                                          uint16_t num_words) {
    int16_t ret;
    uint16_t i, j;
    uint16_t size = num_words * (2 + 1);
    uint16_t word_buf[32];
    uint8_t* const buf8 = (uint8_t*)word_buf;

    ret = sensirion_i2c_hal_read(address, buf8, size);
    if (ret != 0)
        return ret;


    for (i = 0, j = 0; i < size; i += 2 + 1) {

        ret = sensirion_i2c_check_crc(&buf8[i], 2,
                                      buf8[i + 2]);
        if (ret != 0)
            return ret;

        data[j++] = buf8[i];
        data[j++] = buf8[i + 1];
    }

    return 0;
}

int16_t sensirion_i2c_read_words(uint8_t address, uint16_t* data_words,
                                 uint16_t num_words) {
    int16_t ret;
    uint8_t i;

    ret = sensirion_i2c_read_words_as_bytes(address, (uint8_t*)data_words,
                                            num_words);
    if (ret != 0)
        return ret;

    for (i = 0; i < num_words; ++i) {
        const uint8_t* word_bytes = (uint8_t*)&data_words[i];
        data_words[i] = ((uint16_t)word_bytes[0] << 8) | word_bytes[1];
    }

    return 0;
}

int16_t sensirion_i2c_write_cmd(uint8_t address, uint16_t command) {
    uint8_t buf[2];

    sensirion_i2c_fill_cmd_send_buf(buf, command, ((void*)0), 0);
    return sensirion_i2c_hal_write(address, buf, 2);
}

int16_t sensirion_i2c_write_cmd_with_args(uint8_t address, uint16_t command,
                                          const uint16_t* data_words,
                                          uint16_t num_words) {
    uint8_t buf[32];
    uint16_t buf_size;

    buf_size =
        sensirion_i2c_fill_cmd_send_buf(buf, command, data_words, num_words);
    return sensirion_i2c_hal_write(address, buf, buf_size);
}

int16_t sensirion_i2c_delayed_read_cmd(uint8_t address, uint16_t cmd,
                                       uint32_t delay_us, uint16_t* data_words,
                                       uint16_t num_words) {
    int16_t ret;
    uint8_t buf[2];

    sensirion_i2c_fill_cmd_send_buf(buf, cmd, ((void*)0), 0);
    ret = sensirion_i2c_hal_write(address, buf, 2);
    if (ret != 0)
        return ret;

    if (delay_us)
        sensirion_i2c_hal_sleep_usec(delay_us);

    return sensirion_i2c_read_words(address, data_words, num_words);
}

int16_t sensirion_i2c_read_cmd(uint8_t address, uint16_t cmd,
                               uint16_t* data_words, uint16_t num_words) {
    return sensirion_i2c_delayed_read_cmd(address, cmd, 0, data_words,
                                          num_words);
}

uint16_t sensirion_i2c_add_command_to_buffer(uint8_t* buffer, uint16_t offset,
                                             uint16_t command) {
    buffer[offset++] = (uint8_t)((command & 0xFF00) >> 8);
    buffer[offset++] = (uint8_t)((command & 0x00FF) >> 0);
    return offset;
}

uint16_t sensirion_i2c_add_uint32_t_to_buffer(uint8_t* buffer, uint16_t offset,
                                              uint32_t data) {
    buffer[offset++] = (uint8_t)((data & 0xFF000000) >> 24);
    buffer[offset++] = (uint8_t)((data & 0x00FF0000) >> 16);
    buffer[offset] = sensirion_i2c_generate_crc(
        &buffer[offset - 2], 2);
    offset++;
    buffer[offset++] = (uint8_t)((data & 0x0000FF00) >> 8);
    buffer[offset++] = (uint8_t)((data & 0x000000FF) >> 0);
    buffer[offset] = sensirion_i2c_generate_crc(
        &buffer[offset - 2], 2);
    offset++;

    return offset;
}

uint16_t sensirion_i2c_add_int32_t_to_buffer(uint8_t* buffer, uint16_t offset,
                                             int32_t data) {
    return sensirion_i2c_add_uint32_t_to_buffer(buffer, offset, (uint32_t)data);
}

uint16_t sensirion_i2c_add_uint16_t_to_buffer(uint8_t* buffer, uint16_t offset,
                                              uint16_t data) {
    buffer[offset++] = (uint8_t)((data & 0xFF00) >> 8);
    buffer[offset++] = (uint8_t)((data & 0x00FF) >> 0);
    buffer[offset] = sensirion_i2c_generate_crc(
        &buffer[offset - 2], 2);
    offset++;

    return offset;
}

uint16_t sensirion_i2c_add_int16_t_to_buffer(uint8_t* buffer, uint16_t offset,
                                             int16_t data) {
    return sensirion_i2c_add_uint16_t_to_buffer(buffer, offset, (uint16_t)data);
}

uint16_t sensirion_i2c_add_float_to_buffer(uint8_t* buffer, uint16_t offset,
                                           float data) {
    union {
        uint32_t uint32_data;
        float float_data;
    } convert;

    convert.float_data = data;

    buffer[offset++] = (uint8_t)((convert.uint32_data & 0xFF000000) >> 24);
    buffer[offset++] = (uint8_t)((convert.uint32_data & 0x00FF0000) >> 16);
    buffer[offset] = sensirion_i2c_generate_crc(
        &buffer[offset - 2], 2);
    offset++;
    buffer[offset++] = (uint8_t)((convert.uint32_data & 0x0000FF00) >> 8);
    buffer[offset++] = (uint8_t)((convert.uint32_data & 0x000000FF) >> 0);
    buffer[offset] = sensirion_i2c_generate_crc(
        &buffer[offset - 2], 2);
    offset++;

    return offset;
}

uint16_t sensirion_i2c_add_bytes_to_buffer(uint8_t* buffer, uint16_t offset,
                                           uint8_t* data,
                                           uint16_t data_length) {
    uint16_t i;

    if (data_length % 2 != 0) {
        return 4;
    }

    for (i = 0; i < data_length; i += 2) {
        buffer[offset++] = data[i];
        buffer[offset++] = data[i + 1];

        buffer[offset] = sensirion_i2c_generate_crc(
            &buffer[offset - 2], 2);
        offset++;
    }

    return offset;
}

int16_t sensirion_i2c_write_data(uint8_t address, const uint8_t* data,
                                 uint16_t data_length) {
    return sensirion_i2c_hal_write(address, data, data_length);
}

int16_t sensirion_i2c_read_data_inplace(uint8_t address, uint8_t* buffer,
                                        uint16_t expected_data_length) {
    int16_t error;
    uint16_t i, j;
    uint16_t size = (expected_data_length / 2) *
                    (2 + 1);

    if (expected_data_length % 2 != 0) {
        return 4;
    }

    error = sensirion_i2c_hal_read(address, buffer, size);
    if (error) {
        return error;
    }

    for (i = 0, j = 0; i < size; i += 2 + 1) {

        error = sensirion_i2c_check_crc(&buffer[i], 2,
                                        buffer[i + 2]);
        if (error) {
            return error;
        }
        buffer[j++] = buffer[i];
        buffer[j++] = buffer[i + 1];
    }

    return 0;
}
