EESchema Schematic File Version 4
EELAYER 30 0
EELAYER END
$Descr B 17000 11000
encoding utf-8
Sheet 4 4
Title "109633 PCB, SMBus Mux, Profiler"
Date "2020-05-28"
Rev "C"
Comp ""
Comment1 ""
Comment2 ""
Comment3 ""
Comment4 ""
$EndDescr
$Comp
L 109633-rescue:LMR16006-dgi2 U5
U 1 1 583F3E0F
P 7450 1400
F 0 "U5" H 7200 1700 40  0000 C CNN
F 1 "LMR16006YQ3DDCRQ1" H 7500 1625 40  0000 C CNN
F 2 "Package_TO_SOT_SMD:SOT-23-6" H 7450 1500 35  0001 C CIN
F 3 "" H 7450 1400 60  0001 C CNN
F 4 "Texas Instruments" H 2925 0   50  0001 C CNN "MFR"
F 5 "LMR16006YQ3DDCRQ1" H 2925 0   50  0001 C CNN "MPN"
F 6 "-" H 2925 0   50  0001 C CNN "SPR"
F 7 "-" H 2925 0   50  0001 C CNN "SPN"
F 8 "-" H 2925 0   50  0001 C CNN "SPURL"
	1    7450 1400
	1    0    0    -1  
$EndComp
$Comp
L Device:D_Schottky_Small D3
U 1 1 583F9AFF
P 8400 1850
F 0 "D3" V 8350 1950 50  0000 L CNN
F 1 "ZLLS500TA" V 8450 1950 50  0000 L CNN
F 2 "Footprint:DIODFN100X60X43-2N" V 8400 1850 50  0001 C CNN
F 3 "" V 8400 1850 50  0001 C CNN
F 4 "Diodes Incorporated" H 2975 -100 50  0001 C CNN "MFR"
F 5 "ZLLS500TA" H 2975 -100 50  0001 C CNN "MPN"
F 6 "-" H 2975 -100 50  0001 C CNN "SPR"
F 7 "-" H 2975 -100 50  0001 C CNN "SPN"
F 8 "-" H 2975 -100 50  0001 C CNN "SPURL"
	1    8400 1850
	0    1    1    0   
$EndComp
$Comp
L power:+3V3 #PWR04
U 1 1 58423E67
P 9325 3850
F 0 "#PWR04" H 9325 3700 50  0001 C CNN
F 1 "+3V3" H 9325 3990 50  0000 C CNN
F 2 "" H 9325 3850 50  0000 C CNN
F 3 "" H 9325 3850 50  0000 C CNN
	1    9325 3850
	1    0    0    -1  
$EndComp
$Comp
L power:PWR_FLAG #FLG05
U 1 1 58424376
P 9400 7000
F 0 "#FLG05" H 9400 7095 50  0001 C CNN
F 1 "PWR_FLAG" H 9400 7180 50  0000 C CNN
F 2 "" H 9400 7000 50  0000 C CNN
F 3 "" H 9400 7000 50  0000 C CNN
	1    9400 7000
	1    0    0    -1  
$EndComp
$Comp
L power:PWR_FLAG #FLG04
U 1 1 58424D12
P 8800 3900
F 0 "#FLG04" H 8800 3995 50  0001 C CNN
F 1 "PWR_FLAG" H 8800 4080 50  0000 C CNN
F 2 "" H 8800 3900 50  0000 C CNN
F 3 "" H 8800 3900 50  0000 C CNN
	1    8800 3900
	1    0    0    -1  
$EndComp
$Comp
L Device:C_Small C30
U 1 1 5C2B7A43
P 11900 4250
F 0 "C30" H 11910 4320 50  0000 L CNN
F 1 "0.1u" H 11910 4170 50  0000 L CNN
F 2 "Capacitor_SMD:C_0603_1608Metric_Pad1.05x0.95mm_HandSolder" H 11900 4250 50  0001 C CNN
F 3 "" H 11900 4250 50  0001 C CNN
F 4 "Kemet" H 2100 2825 50  0001 C CNN "MFR"
F 5 "C0603X104K5RAC7411" H 2100 2825 50  0001 C CNN "MPN"
F 6 "-" H 2100 2825 50  0001 C CNN "SPR"
F 7 "-" H 2100 2825 50  0001 C CNN "SPN"
F 8 "-" H 2100 2825 50  0001 C CNN "SPURL"
	1    11900 4250
	1    0    0    -1  
$EndComp
$Comp
L Device:C_Small C28
U 1 1 5C2B7C22
P 10700 4925
F 0 "C28" H 10710 4995 50  0000 L CNN
F 1 "0.1u" H 10710 4845 50  0000 L CNN
F 2 "Capacitor_SMD:C_0603_1608Metric_Pad1.05x0.95mm_HandSolder" H 10700 4925 50  0001 C CNN
F 3 "" H 10700 4925 50  0001 C CNN
F 4 "C0603X104K5RAC7411" H 900 3500 50  0001 C CNN "Kemet"
F 5 "C0603X104K5RAC7411" H 900 3500 50  0001 C CNN "MPN"
F 6 "-" H 900 3500 50  0001 C CNN "SPR"
F 7 "-" H 900 3500 50  0001 C CNN "SPN"
F 8 "-" H 900 3500 50  0001 C CNN "SPURL"
F 9 "Kemet" H 10700 4925 50  0001 C CNN "MFR"
	1    10700 4925
	1    0    0    -1  
$EndComp
$Comp
L Device:C_Small C22
U 1 1 5C2B821F
P 8325 6400
F 0 "C22" H 8335 6470 50  0000 L CNN
F 1 "0.1u" H 8335 6320 50  0000 L CNN
F 2 "Capacitor_SMD:C_0603_1608Metric_Pad1.05x0.95mm_HandSolder" H 8325 6400 50  0001 C CNN
F 3 "" H 8325 6400 50  0001 C CNN
F 4 "Kemet" H -1475 4975 50  0001 C CNN "MFR"
F 5 "C0603X104K5RAC7411" H -1475 4975 50  0001 C CNN "MPN"
F 6 "-" H -1475 4975 50  0001 C CNN "SPR"
F 7 "-" H -1475 4975 50  0001 C CNN "SPN"
F 8 "-" H -1475 4975 50  0001 C CNN "SPURL"
	1    8325 6400
	1    0    0    -1  
$EndComp
$Comp
L Device:C_Small C23
U 1 1 5C2B8866
P 8675 4875
F 0 "C23" H 8685 4945 50  0000 L CNN
F 1 "0.1u" H 8685 4795 50  0000 L CNN
F 2 "Capacitor_SMD:C_0603_1608Metric_Pad1.05x0.95mm_HandSolder" H 8675 4875 50  0001 C CNN
F 3 "" H 8675 4875 50  0001 C CNN
F 4 "Kemet" H -1125 3450 50  0001 C CNN "MFR"
F 5 "C0603X104K5RAC7411" H -1125 3450 50  0001 C CNN "MPN"
F 6 "-" H -1125 3450 50  0001 C CNN "SPR"
F 7 "-" H -1125 3450 50  0001 C CNN "SPN"
F 8 "-" H -1125 3450 50  0001 C CNN "SPURL"
	1    8675 4875
	-1   0    0    -1  
$EndComp
$Comp
L Device:C_Small C24
U 1 1 5C2B8DDB
P 9150 1850
F 0 "C24" H 9200 2050 50  0000 L CNN
F 1 "0.1u" H 9200 1950 50  0000 L CNN
F 2 "Capacitor_SMD:C_0603_1608Metric_Pad1.05x0.95mm_HandSolder" H 9150 1850 50  0001 C CNN
F 3 "" H 9150 1850 50  0001 C CNN
F 4 "Kemet" H -650 425 50  0001 C CNN "MFR"
F 5 "C0603X104K5RAC7411" H -650 425 50  0001 C CNN "MPN"
F 6 "-" H -650 425 50  0001 C CNN "SPR"
F 7 "-" H -650 425 50  0001 C CNN "SPN"
F 8 "-" H -650 425 50  0001 C CNN "SPURL"
	1    9150 1850
	1    0    0    -1  
$EndComp
$Comp
L Device:C_Small C25
U 1 1 5C2B9086
P 9450 1850
F 0 "C25" H 9250 2050 50  0000 L CNN
F 1 "1u" H 9300 1950 50  0000 L CNN
F 2 "Capacitor_SMD:C_0603_1608Metric_Pad1.05x0.95mm_HandSolder" H 9488 1700 30  0001 C CNN
F 3 "" H 9450 1850 60  0001 C CNN
F 4 "Samsung Electro-Mechanics" H -1625 450 50  0001 C CNN "MFR"
F 5 "CL10B105KO8NFNC" H -1625 450 50  0001 C CNN "MPN"
F 6 "-" H -1625 450 50  0001 C CNN "SPR"
F 7 "-" H -1625 450 50  0001 C CNN "SPN"
F 8 "-" H -1625 450 50  0001 C CNN "SPURL"
	1    9450 1850
	-1   0    0    -1  
$EndComp
$Comp
L Device:C_Small C26
U 1 1 5C2B9552
P 9750 1850
F 0 "C26" H 9800 2050 50  0000 L CNN
F 1 "1u" H 9800 1950 50  0000 L CNN
F 2 "Capacitor_SMD:C_0603_1608Metric_Pad1.05x0.95mm_HandSolder" H 9788 1700 30  0001 C CNN
F 3 "" H 9750 1850 60  0001 C CNN
F 4 "Samsung Electro-Mechanics" H -1325 450 50  0001 C CNN "MFR"
F 5 "CL10B105KO8NFNC" H -1325 450 50  0001 C CNN "MPN"
F 6 "-" H -1325 450 50  0001 C CNN "SPR"
F 7 "-" H -1325 450 50  0001 C CNN "SPN"
F 8 "-" H -1325 450 50  0001 C CNN "SPURL"
	1    9750 1850
	1    0    0    -1  
$EndComp
$Comp
L Device:C_Small C18
U 1 1 5C2AC8AE
P 5850 1650
F 0 "C18" H 5925 1500 50  0000 L CNN
F 1 "2.2u" H 5925 1700 50  0000 L CNN
F 2 "Capacitor_SMD:C_1206_3216Metric" H 5850 1650 50  0001 C CNN
F 3 "" H 5850 1650 50  0001 C CNN
F 4 "Samsung" H 2975 0   50  0001 C CNN "MFR"
F 5 "CL31B225KBHNNNE" H 2975 0   50  0001 C CNN "MPN"
F 6 "-" H 2975 0   50  0001 C CNN "SPR"
F 7 "-" H 2975 0   50  0001 C CNN "SPN"
F 8 "-" H 2975 0   50  0001 C CNN "SPURL"
	1    5850 1650
	1    0    0    1   
$EndComp
Text Notes 3975 1525 0    60   ~ 0
Input 4-60V
Text HLabel 4475 1350 0    60   Input ~ 0
REG_IN
Text HLabel 4525 5800 0    60   Input ~ 0
BRAIN_UP
Text HLabel 4525 5900 0    60   Input ~ 0
BRAIN_DN
Text HLabel 13400 1500 2    60   Input ~ 0
REG_OUT_3V3
Text HLabel 13400 5800 2    60   Input ~ 0
UART_TX
Text HLabel 13400 5900 2    60   Input ~ 0
UART_RX
$Comp
L Device:C_Small C27
U 1 1 5C394B1E
P 10050 1850
F 0 "C27" H 10100 2050 50  0000 L CNN
F 1 "10u" H 10100 1950 50  0000 L CNN
F 2 "Capacitor_SMD:C_0805_2012Metric" H 10088 1700 30  0001 C CNN
F 3 "" H 10050 1850 60  0001 C CNN
F 4 "Taiyo Yuden" H -1025 450 50  0001 C CNN "MFR"
F 5 "JMK212AB7106KGHT" H -1025 450 50  0001 C CNN "MPN"
F 6 "-" H -1025 450 50  0001 C CNN "SPR"
F 7 "-" H -1025 450 50  0001 C CNN "SPN"
F 8 "-" H -1025 450 50  0001 C CNN "SPURL"
	1    10050 1850
	1    0    0    -1  
$EndComp
$Comp
L 109633-rescue:MAX3323E-dgi2 U6
U 1 1 5E00EF21
P 9800 5400
F 0 "U6" H 9400 6450 70  0000 C CNN
F 1 "MAX3323E-dgi2" H 9550 6300 70  0000 C CNN
F 2 "Footprint:SOP65P640X110-16N" H 9800 5400 60  0001 C CNN
F 3 "" H 9800 5400 60  0001 C CNN
F 4 "Maxim Integrated" H 275 -1325 50  0001 C CNN "MFR"
F 5 "MAX3323EEUE+" H 275 -1325 50  0001 C CNN "MPN"
F 6 "-" H 275 -1325 50  0001 C CNN "SPR"
F 7 "-" H 275 -1325 50  0001 C CNN "SPN"
F 8 "-" H 275 -1325 50  0001 C CNN "SPURL"
	1    9800 5400
	-1   0    0    -1  
$EndComp
Text HLabel 13400 6100 2    60   Input ~ 0
TX_ENABLE
Text Notes 3750 5575 0    60   ~ 0
HERE IS THE OUTSIDE WORLD
Text Notes 12975 5675 0    60   ~ 0
MICROCONTROLLER CONNECTED HERE
$Comp
L 109633-rescue:Rsmall-dgi2 R44
U 1 1 5DFD447A
P 11200 5100
F 0 "R44" V 11100 5000 40  0000 C CNN
F 1 "100K" V 11200 5000 30  0000 C CNN
F 2 "Resistor_SMD:R_0805_2012Metric" H 11200 5100 60  0001 C CNN
F 3 "" H 11200 5100 60  0001 C CNN
F 4 "Susumu" H 7325 3550 50  0001 C CNN "MFR"
F 5 "RR1220P-104-D" H 7325 3550 50  0001 C CNN "MPN"
F 6 "-" H 7325 3550 50  0001 C CNN "SPR"
F 7 "-" H 7325 3550 50  0001 C CNN "SPN"
F 8 "-" H 7325 3550 50  0001 C CNN "SPURL"
	1    11200 5100
	0    1    1    0   
$EndComp
$Comp
L 109633-rescue:Rsmall-dgi2 R45
U 1 1 5DFD4B2F
P 11350 5100
F 0 "R45" V 11250 5000 40  0000 C CNN
F 1 "100K" V 11350 5000 30  0000 C CNN
F 2 "Resistor_SMD:R_0805_2012Metric" H 11350 5100 60  0001 C CNN
F 3 "" H 11350 5100 60  0001 C CNN
F 4 "Susumu" H 7475 3550 50  0001 C CNN "MFR"
F 5 "RR1220P-104-D" H 7475 3550 50  0001 C CNN "MPN"
F 6 "-" H 7475 3550 50  0001 C CNN "SPR"
F 7 "-" H 7475 3550 50  0001 C CNN "SPN"
F 8 "-" H 7475 3550 50  0001 C CNN "SPURL"
	1    11350 5100
	0    -1   1    0   
$EndComp
$Comp
L Device:C_Small C29
U 1 1 5DFD97E7
P 10700 5400
F 0 "C29" H 10710 5470 50  0000 L CNN
F 1 "0.1u" H 10710 5320 50  0000 L CNN
F 2 "Capacitor_SMD:C_0603_1608Metric_Pad1.05x0.95mm_HandSolder" H 10700 5400 50  0001 C CNN
F 3 "" H 10700 5400 50  0001 C CNN
F 4 "Kemet" H 900 3975 50  0001 C CNN "MFR"
F 5 "C0603X104K5RAC7411" H 900 3975 50  0001 C CNN "MPN"
F 6 "-" H 900 3975 50  0001 C CNN "SPR"
F 7 "-" H 900 3975 50  0001 C CNN "SPN"
F 8 "-" H 900 3975 50  0001 C CNN "SPURL"
	1    10700 5400
	1    0    0    -1  
$EndComp
$Comp
L Device:C_Small C21
U 1 1 5C2B7FB0
P 8325 5250
F 0 "C21" H 8050 5350 50  0000 L CNN
F 1 "0.1u" H 8050 5275 50  0000 L CNN
F 2 "Capacitor_SMD:C_0603_1608Metric_Pad1.05x0.95mm_HandSolder" H 8325 5250 50  0001 C CNN
F 3 "" H 8325 5250 50  0001 C CNN
F 4 "Kemet" H -1475 3825 50  0001 C CNN "MFR"
F 5 "C0603X104K5RAC7411" H -1475 3825 50  0001 C CNN "MPN"
F 6 "-" H -1475 3825 50  0001 C CNN "SPR"
F 7 "-" H -1475 3825 50  0001 C CNN "SPN"
F 8 "-" H -1475 3825 50  0001 C CNN "SPURL"
	1    8325 5250
	1    0    0    -1  
$EndComp
$Comp
L 109633-rescue:Rsmall-dgi2 R43
U 1 1 5DFE5F6B
P 8150 5600
F 0 "R43" H 8175 5475 40  0000 C CNN
F 1 "100K" H 8150 5525 30  0000 C CNN
F 2 "Resistor_SMD:R_0805_2012Metric" H 8150 5600 60  0001 C CNN
F 3 "" H 8150 5600 60  0001 C CNN
F 4 "Susumu" H 4275 4050 50  0001 C CNN "MFR"
F 5 "RR1220P-104-D" H 4275 4050 50  0001 C CNN "MPN"
F 6 "-" H 4275 4050 50  0001 C CNN "SPR"
F 7 "-" H 4275 4050 50  0001 C CNN "SPN"
F 8 "-" H 4275 4050 50  0001 C CNN "SPURL"
	1    8150 5600
	-1   0    0    1   
$EndComp
$Comp
L 109633-rescue:Rsmall-dgi2 R42
U 1 1 5DFE7139
P 8025 6625
F 0 "R42" V 8075 6525 40  0000 C CNN
F 1 "1M" V 7975 6525 30  0000 C CNN
F 2 "Resistor_SMD:R_0805_2012Metric" H 8025 6625 60  0001 C CNN
F 3 "" H 8025 6625 60  0001 C CNN
F 4 "Susumu" H 4425 550 50  0001 C CNN "MFR"
F 5 "RR1220P-105-D" H 4425 550 50  0001 C CNN "MPN"
F 6 "-" H 4425 550 50  0001 C CNN "SPR"
F 7 "-" H 4425 550 50  0001 C CNN "SPN"
F 8 "-" H 4425 550 50  0001 C CNN "SPURL"
	1    8025 6625
	0    -1   -1   0   
$EndComp
$Comp
L Device:C_Small C19
U 1 1 5DFE7D02
P 7850 6625
F 0 "C19" H 7860 6695 50  0000 L CNN
F 1 "0.1u" H 7860 6545 50  0000 L CNN
F 2 "Capacitor_SMD:C_0603_1608Metric_Pad1.05x0.95mm_HandSolder" H 7850 6625 50  0001 C CNN
F 3 "" H 7850 6625 50  0001 C CNN
F 4 "Kemet" H -1950 5200 50  0001 C CNN "MFR"
F 5 "C0603X104K5RAC7411" H -1950 5200 50  0001 C CNN "MPN"
F 6 "-" H -1950 5200 50  0001 C CNN "SPR"
F 7 "-" H -1950 5200 50  0001 C CNN "SPN"
F 8 "-" H -1950 5200 50  0001 C CNN "SPURL"
	1    7850 6625
	-1   0    0    -1  
$EndComp
$Comp
L 109633-rescue:MMBT3904-dgi2 Q2
U 1 1 5DFEE1C7
P 7400 5300
F 0 "Q2" H 7350 5525 40  0000 R CNN
F 1 "MMBT3904" H 7350 5450 40  0000 R CNN
F 2 "Package_TO_SOT_SMD:SOT-23W" H 7400 5300 60  0001 C CNN
F 3 "" H 7400 5300 60  0001 C CNN
F 4 "Diodes Incorporated" H 725 -1500 50  0001 C CNN "MFR"
F 5 "MMBT3904-7-F" H 725 -1500 50  0001 C CNN "MPN"
F 6 "-" H 725 -1500 50  0001 C CNN "SPR"
F 7 "-" H 725 -1500 50  0001 C CNN "SPN"
F 8 "-" H 725 -1500 50  0001 C CNN "SPURL"
	1    7400 5300
	1    0    0    -1  
$EndComp
$Comp
L 109633-rescue:MMBT5401-dgi2 Q3
U 1 1 5DFF0658
P 7750 4425
F 0 "Q3" H 8150 4375 50  0000 R CNN
F 1 "MMBT5401" H 8325 4475 50  0000 R CNN
F 2 "Package_TO_SOT_SMD:SOT-23W" H 7750 4425 60  0001 C CNN
F 3 "" H 7750 4425 60  0000 C CNN
F 4 "MMBT5401-7-F" H 7750 4425 60  0001 C CNN "MPN"
F 5 "Diodes Incorporated" H 7750 4425 60  0001 C CNN "MFR"
F 6 "-" H 6425 -2800 50  0001 C CNN "SPR"
F 7 "-" H 6425 -2800 50  0001 C CNN "SPN"
F 8 "-" H 6425 -2800 50  0001 C CNN "SPURL"
	1    7750 4425
	1    0    0    1   
$EndComp
Wire Wire Line
	10600 4700 10700 4700
Wire Wire Line
	10700 4700 10700 4825
Wire Wire Line
	10700 5025 10700 5100
Wire Wire Line
	10700 5100 10600 5100
Wire Wire Line
	8675 3950 8675 4775
Wire Wire Line
	7500 3950 7850 3950
Wire Wire Line
	8675 7000 8675 6150
Wire Wire Line
	8250 5600 8325 5600
Wire Wire Line
	8325 5600 8325 6300
Wire Wire Line
	8325 7000 8325 6500
Wire Wire Line
	8325 5100 9000 5100
Wire Wire Line
	10600 5900 11350 5900
Wire Wire Line
	10600 5800 11200 5800
Wire Wire Line
	7900 1350 8000 1350
Wire Wire Line
	8000 1350 8000 1200
Wire Wire Line
	8000 1200 8400 1200
Wire Wire Line
	8400 1200 8400 1225
Wire Wire Line
	8900 1500 9000 1500
Wire Wire Line
	9000 1500 9000 1650
Wire Wire Line
	9000 1650 7900 1650
Wire Wire Line
	9150 1500 9150 1750
Wire Wire Line
	5850 1350 5850 1550
Wire Wire Line
	7000 1500 6950 1500
Wire Wire Line
	5850 2200 7450 2200
Wire Wire Line
	7450 2200 7450 1800
Wire Wire Line
	5850 1750 5850 2200
Wire Wire Line
	9150 2200 9150 1950
Wire Wire Line
	8400 1500 8400 1750
Wire Wire Line
	8400 1950 8400 2200
Wire Wire Line
	4525 5800 5650 5800
Wire Wire Line
	4525 5900 5850 5900
Wire Wire Line
	11900 1500 11900 3950
Wire Wire Line
	11900 7000 11900 4350
Wire Wire Line
	9325 3950 9325 3850
Wire Wire Line
	8800 3950 8800 3900
Wire Wire Line
	9750 1750 9750 1500
Wire Wire Line
	9450 1750 9450 1500
Wire Wire Line
	9450 1950 9450 2200
Wire Wire Line
	9750 2200 9750 1950
Wire Wire Line
	4475 1350 5425 1350
Connection ~ 9000 1500
Connection ~ 9150 1500
Connection ~ 5850 1350
Connection ~ 6750 1350
Connection ~ 7450 2200
Connection ~ 9150 2200
Connection ~ 8325 7000
Connection ~ 8400 2200
Connection ~ 11900 7000
Connection ~ 9325 3950
Connection ~ 9400 7000
Connection ~ 11900 3950
Connection ~ 11900 1500
Connection ~ 9750 1500
Connection ~ 9450 1500
Connection ~ 9450 2200
Wire Wire Line
	10050 1750 10050 1500
Connection ~ 10050 1500
Wire Wire Line
	10050 2200 10050 1950
Connection ~ 9750 2200
Wire Wire Line
	11200 5200 11200 5800
Connection ~ 11200 5800
Wire Wire Line
	11350 5200 11350 5900
Connection ~ 11350 5900
Wire Wire Line
	11350 5000 11350 3950
Connection ~ 11350 3950
Wire Wire Line
	11200 5000 11200 3950
Connection ~ 11200 3950
Wire Wire Line
	10600 6100 13400 6100
Wire Wire Line
	10700 5200 10700 5300
Wire Wire Line
	10700 5500 10700 5600
Wire Wire Line
	10700 5200 10600 5200
Wire Wire Line
	10700 5600 10600 5600
Wire Wire Line
	9000 4700 8950 4700
Wire Wire Line
	8950 3950 8950 4700
Connection ~ 8950 3950
Wire Wire Line
	8950 4900 9000 4900
Connection ~ 8950 4700
Wire Wire Line
	8675 5300 9000 5300
Connection ~ 8675 7000
Wire Wire Line
	8325 5100 8325 5150
Wire Wire Line
	8325 5350 8325 5500
Wire Wire Line
	8325 5500 8675 5500
Connection ~ 8675 5500
Wire Wire Line
	9000 6150 8675 6150
Connection ~ 8675 6150
Connection ~ 8800 3950
Connection ~ 8675 5300
Connection ~ 8325 5600
Wire Wire Line
	8050 5600 8025 5600
Wire Wire Line
	8025 5600 8025 5800
Connection ~ 8025 5800
Wire Wire Line
	7850 6050 8025 6050
Wire Wire Line
	8025 6050 8025 6525
Wire Wire Line
	8025 6725 8025 7000
Connection ~ 8025 7000
Wire Wire Line
	7850 4625 7850 6050
Connection ~ 8025 6050
Wire Wire Line
	7850 6725 7850 7000
Connection ~ 7850 7000
Wire Wire Line
	7200 5300 7100 5300
Wire Wire Line
	7850 3950 7850 4225
Connection ~ 8675 3950
Wire Wire Line
	7550 4425 7500 4425
Connection ~ 7850 6050
Wire Wire Line
	7500 5500 7500 5550
Wire Wire Line
	7500 5750 7500 5900
Connection ~ 7500 5900
$Comp
L 109633-rescue:Rsmall-dgi2 R39
U 1 1 5DFF489A
P 7500 4200
F 0 "R39" V 7550 4100 40  0000 C CNN
F 1 "1M" V 7450 4100 30  0000 C CNN
F 2 "Resistor_SMD:R_0805_2012Metric" H 7500 4200 60  0001 C CNN
F 3 "" H 7500 4200 60  0001 C CNN
F 4 "Susumu" H 3900 -1875 50  0001 C CNN "MFR"
F 5 "RR1220P-105-D" H 3900 -1875 50  0001 C CNN "MPN"
F 6 "-" H 3900 -1875 50  0001 C CNN "SPR"
F 7 "-" H 3900 -1875 50  0001 C CNN "SPN"
F 8 "-" H 3900 -1875 50  0001 C CNN "SPURL"
	1    7500 4200
	0    1    -1   0   
$EndComp
Wire Wire Line
	7500 4100 7500 3950
Connection ~ 7850 3950
Connection ~ 7500 4425
Wire Wire Line
	7500 4300 7500 4425
Wire Wire Line
	7500 4875 7500 5100
$Comp
L 109633-rescue:Rsmall-dgi2 R40
U 1 1 5DFF981F
P 7500 4775
F 0 "R40" V 7550 4675 40  0000 C CNN
F 1 "1M" V 7450 4675 30  0000 C CNN
F 2 "Resistor_SMD:R_0805_2012Metric" H 7500 4775 60  0001 C CNN
F 3 "" H 7500 4775 60  0001 C CNN
F 4 "Susumu" H 3900 -1300 50  0001 C CNN "MFR"
F 5 "RR1220P-105-D" H 3900 -1300 50  0001 C CNN "MPN"
F 6 "-" H 3900 -1300 50  0001 C CNN "SPR"
F 7 "-" H 3900 -1300 50  0001 C CNN "SPN"
F 8 "-" H 3900 -1300 50  0001 C CNN "SPURL"
	1    7500 4775
	0    1    -1   0   
$EndComp
$Comp
L 109633-rescue:Rsmall-dgi2 R41
U 1 1 5DFFA025
P 7500 5650
F 0 "R41" V 7550 5550 40  0000 C CNN
F 1 "1M" V 7450 5550 30  0000 C CNN
F 2 "Resistor_SMD:R_0805_2012Metric" H 7500 5650 60  0001 C CNN
F 3 "" H 7500 5650 60  0001 C CNN
F 4 "Susumu" H 3900 -425 50  0001 C CNN "MFR"
F 5 "RR1220P-105-D" H 3900 -425 50  0001 C CNN "MPN"
F 6 "-" H 3900 -425 50  0001 C CNN "SPR"
F 7 "-" H 3900 -425 50  0001 C CNN "SPN"
F 8 "-" H 3900 -425 50  0001 C CNN "SPURL"
	1    7500 5650
	0    1    -1   0   
$EndComp
$Comp
L 109633-rescue:Rsmall-dgi2 R38
U 1 1 5DFFADC5
P 6750 6300
F 0 "R38" V 6800 6200 40  0000 C CNN
F 1 "1M" V 6700 6200 30  0000 C CNN
F 2 "Resistor_SMD:R_0805_2012Metric" H 6750 6300 60  0001 C CNN
F 3 "" H 6750 6300 60  0001 C CNN
F 4 "Susumu" H 3150 225 50  0001 C CNN "MFR"
F 5 "RR1220P-105-D" H 3150 225 50  0001 C CNN "MPN"
F 6 "-" H 3150 225 50  0001 C CNN "SPR"
F 7 "-" H 3150 225 50  0001 C CNN "SPN"
F 8 "-" H 3150 225 50  0001 C CNN "SPURL"
	1    6750 6300
	0    -1   -1   0   
$EndComp
Wire Wire Line
	6750 6200 6750 5900
Connection ~ 6750 5900
Wire Wire Line
	9000 1500 9150 1500
Wire Wire Line
	9150 1500 9450 1500
Wire Wire Line
	5850 1350 6750 1350
Wire Wire Line
	6750 1350 7000 1350
Wire Wire Line
	7450 2200 8400 2200
Wire Wire Line
	9150 2200 9450 2200
Wire Wire Line
	8325 7000 8675 7000
Wire Wire Line
	8400 1500 8500 1500
Wire Wire Line
	8400 2200 9150 2200
Wire Wire Line
	11900 7000 13375 7000
Wire Wire Line
	9325 3950 11200 3950
Wire Wire Line
	9400 7000 11900 7000
Wire Wire Line
	11900 3950 11900 4150
Wire Wire Line
	11900 1500 13400 1500
Wire Wire Line
	9750 1500 10050 1500
Wire Wire Line
	9450 1500 9750 1500
Wire Wire Line
	9450 2200 9750 2200
Wire Wire Line
	10050 1500 11900 1500
Wire Wire Line
	9750 2200 10050 2200
Wire Wire Line
	11200 5800 13400 5800
Wire Wire Line
	11350 5900 13400 5900
Wire Wire Line
	11350 3950 11900 3950
Wire Wire Line
	11200 3950 11350 3950
Wire Wire Line
	8950 3950 9325 3950
Wire Wire Line
	8950 4700 8950 4900
Wire Wire Line
	8675 7000 9400 7000
Wire Wire Line
	8675 5500 8675 5300
Wire Wire Line
	8675 6150 8675 5500
Wire Wire Line
	8800 3950 8950 3950
Wire Wire Line
	8675 5300 8675 4975
Wire Wire Line
	8325 5600 9000 5600
Wire Wire Line
	8025 5800 9000 5800
Wire Wire Line
	8025 7000 8325 7000
Wire Wire Line
	8025 6050 9000 6050
Wire Wire Line
	7850 7000 8025 7000
Wire Wire Line
	8675 3950 8800 3950
Wire Wire Line
	7850 6050 7850 6125
Wire Wire Line
	7500 5900 9000 5900
Wire Wire Line
	7850 3950 8675 3950
Wire Wire Line
	7500 4425 7500 4675
Wire Wire Line
	6750 5900 7500 5900
Wire Wire Line
	5850 2200 4500 2200
Connection ~ 5850 2200
Wire Wire Line
	7100 5300 7100 7000
Connection ~ 7100 7000
Wire Wire Line
	7100 7000 7850 7000
Wire Wire Line
	6750 7000 7100 7000
Wire Wire Line
	6750 6400 6750 7000
Text Notes 9150 6400 0    60   ~ 0
SHDN MIN_H_THRESHOLD IS  2/3 x VCC
$Comp
L Diode:2BZX84Cxx D2
U 1 1 5EEE8290
P 5750 6300
F 0 "D2" H 5938 6346 50  0000 L CNN
F 1 "SM712-02HTG" H 5938 6255 50  0000 L CNN
F 2 "Package_TO_SOT_SMD:SOT-23" H 5900 6200 50  0001 L CNN
F 3 "https://m.littelfuse.com/~/media/electronics/datasheets/tvs_diode_arrays/littelfuse_tvs_diode_array_sm712_datasheet.pdf.pdf" V 5650 6300 50  0001 C CNN
F 4 "Littelfuse Inc." H 5750 6300 50  0001 C CNN "MFR"
F 5 "SM712-02HTG" H 5750 6300 50  0001 C CNN "MPN"
	1    5750 6300
	1    0    0    -1  
$EndComp
Wire Wire Line
	5750 6500 5750 7000
Wire Wire Line
	5750 7000 6750 7000
Connection ~ 6750 7000
Wire Wire Line
	5650 6100 5650 5800
Connection ~ 5650 5800
Wire Wire Line
	5650 5800 8025 5800
Wire Wire Line
	5850 6100 5850 5900
Connection ~ 5850 5900
Wire Wire Line
	5850 5900 6750 5900
$Comp
L power:PWR_FLAG #FLG03
U 1 1 5E91329F
P 5425 1300
F 0 "#FLG03" H 5425 1395 50  0001 C CNN
F 1 "PWR_FLAG" H 5425 1480 50  0000 C CNN
F 2 "" H 5425 1300 50  0000 C CNN
F 3 "" H 5425 1300 50  0000 C CNN
	1    5425 1300
	1    0    0    -1  
$EndComp
Wire Wire Line
	5425 1300 5425 1350
Connection ~ 5425 1350
Wire Wire Line
	5425 1350 5850 1350
Wire Wire Line
	13375 7650 7450 7650
Wire Wire Line
	7450 7650 7450 6125
Wire Wire Line
	7450 6125 7850 6125
Connection ~ 7850 6125
Wire Wire Line
	7850 6125 7850 6525
Text HLabel 13375 7650 2    60   Input ~ 0
RS232_SHDN_L
Text HLabel 13375 7000 2    60   Input ~ 0
RS232_GND
Text HLabel 4500 2200 0    60   Input ~ 0
RS232_GND
$Comp
L LTF5022T-101MR45-LC:LTF5022T-101MR45-LC L1
U 1 1 60E8B4DA
P 8900 1500
F 0 "L1" H 9100 1300 60  0000 C CNN
F 1 "100uH" H 9075 1400 60  0000 C CNN
F 2 "IND_5022_TDK" H 9175 1215 60  0001 C CNN
F 3 "" H 8900 1500 60  0000 C CNN
	1    8900 1500
	-1   0    0    1   
$EndComp
Wire Wire Line
	6950 1500 6950 1750
Wire Wire Line
	6950 1750 6750 1750
Wire Wire Line
	6750 1750 6750 1650
Wire Wire Line
	6750 1350 6750 1450
$Comp
L 109633-rescue:Rsmall-dgi2 R37
U 1 1 583F784C
P 6750 1550
F 0 "R37" V 6650 1450 40  0000 C CNN
F 1 "100K" V 6750 1450 30  0000 C CNN
F 2 "Resistor_SMD:R_0805_2012Metric" H 6750 1550 60  0001 C CNN
F 3 "" H 6750 1550 60  0001 C CNN
F 4 "Susumu" H 2875 0   50  0001 C CNN "MFR"
F 5 "RR1220P-104-D" H 2875 0   50  0001 C CNN "MPN"
F 6 "-" H 2875 0   50  0001 C CNN "SPR"
F 7 "-" H 2875 0   50  0001 C CNN "SPN"
F 8 "-" H 2875 0   50  0001 C CNN "SPURL"
	1    6750 1550
	0    1    1    0   
$EndComp
Connection ~ 8400 1500
Wire Wire Line
	7900 1500 8400 1500
Wire Wire Line
	8400 1425 8400 1500
$Comp
L Device:C_Small C20
U 1 1 5C2BA629
P 8400 1325
F 0 "C20" H 8410 1395 50  0000 L CNN
F 1 "0.1u" H 8410 1245 50  0000 L CNN
F 2 "Capacitor_SMD:C_0603_1608Metric_Pad1.05x0.95mm_HandSolder" H 8400 1325 50  0001 C CNN
F 3 "" H 8400 1325 50  0001 C CNN
F 4 "Kemet" H -1400 -100 50  0001 C CNN "MFR"
F 5 "C0603X104K5RAC7411" H -1400 -100 50  0001 C CNN "MPN"
F 6 "-" H -1400 -100 50  0001 C CNN "SPR"
F 7 "-" H -1400 -100 50  0001 C CNN "SPN"
F 8 "-" H -1400 -100 50  0001 C CNN "SPURL"
	1    8400 1325
	1    0    0    -1  
$EndComp
$EndSCHEMATC
