# 1 "C:/Users/Brian/Documents/Projects/OOI/LithiumBatteryInterface/Firmware/SCD41.X/scd4x_i2c.c"
# 1 "<built-in>" 1
# 1 "<built-in>" 3
# 288 "<built-in>" 3
# 1 "<command line>" 1
# 1 "<built-in>" 2
# 1 "C:/Program Files/Microchip/MPLABX/v5.50/packs/Microchip/PIC18F-Q_DFP/1.11.185/xc8\\pic\\include\\language_support.h" 1 3
# 2 "<built-in>" 2
# 1 "C:/Users/Brian/Documents/Projects/OOI/LithiumBatteryInterface/Firmware/SCD41.X/scd4x_i2c.c" 2
# 39 "C:/Users/Brian/Documents/Projects/OOI/LithiumBatteryInterface/Firmware/SCD41.X/scd4x_i2c.c"
# 1 "C:/Users/Brian/Documents/Projects/OOI/LithiumBatteryInterface/Firmware/SCD41.X/scd4x_i2c.h" 1
# 46 "C:/Users/Brian/Documents/Projects/OOI/LithiumBatteryInterface/Firmware/SCD41.X/scd4x_i2c.h"
# 1 "C:/Users/Brian/Documents/Projects/OOI/LithiumBatteryInterface/Firmware/SCD41.X/sensirion_config.h" 1
# 39 "C:/Users/Brian/Documents/Projects/OOI/LithiumBatteryInterface/Firmware/SCD41.X/sensirion_config.h"
# 1 "C:\\Program Files\\Microchip\\xc8\\v2.32\\pic\\include\\c99\\stdlib.h" 1 3



# 1 "C:\\Program Files\\Microchip\\xc8\\v2.32\\pic\\include\\c99\\musl_xc8.h" 1 3
# 4 "C:\\Program Files\\Microchip\\xc8\\v2.32\\pic\\include\\c99\\stdlib.h" 2 3






# 1 "C:\\Program Files\\Microchip\\xc8\\v2.32\\pic\\include\\c99\\features.h" 1 3
# 10 "C:\\Program Files\\Microchip\\xc8\\v2.32\\pic\\include\\c99\\stdlib.h" 2 3
# 21 "C:\\Program Files\\Microchip\\xc8\\v2.32\\pic\\include\\c99\\stdlib.h" 3
# 1 "C:\\Program Files\\Microchip\\xc8\\v2.32\\pic\\include\\c99\\bits/alltypes.h" 1 3
# 18 "C:\\Program Files\\Microchip\\xc8\\v2.32\\pic\\include\\c99\\bits/alltypes.h" 3
typedef long int wchar_t;
# 122 "C:\\Program Files\\Microchip\\xc8\\v2.32\\pic\\include\\c99\\bits/alltypes.h" 3
typedef unsigned size_t;
# 168 "C:\\Program Files\\Microchip\\xc8\\v2.32\\pic\\include\\c99\\bits/alltypes.h" 3
typedef __int24 int24_t;
# 204 "C:\\Program Files\\Microchip\\xc8\\v2.32\\pic\\include\\c99\\bits/alltypes.h" 3
typedef __uint24 uint24_t;
# 21 "C:\\Program Files\\Microchip\\xc8\\v2.32\\pic\\include\\c99\\stdlib.h" 2 3


int atoi (const char *);
long atol (const char *);
long long atoll (const char *);
double atof (const char *);

float strtof (const char *restrict, char **restrict);
double strtod (const char *restrict, char **restrict);
long double strtold (const char *restrict, char **restrict);



long strtol (const char *restrict, char **restrict, int);
unsigned long strtoul (const char *restrict, char **restrict, int);
long long strtoll (const char *restrict, char **restrict, int);
unsigned long long strtoull (const char *restrict, char **restrict, int);

int rand (void);
void srand (unsigned);

          void abort (void);
int atexit (void (*) (void));
          void exit (int);
          void _Exit (int);

void *bsearch (const void *, const void *, size_t, size_t, int (*)(const void *, const void *));

__attribute__((nonreentrant)) void qsort (void *, size_t, size_t, int (*)(const void *, const void *));

int abs (int);
long labs (long);
long long llabs (long long);

typedef struct { int quot, rem; } div_t;
typedef struct { long quot, rem; } ldiv_t;
typedef struct { long long quot, rem; } lldiv_t;

div_t div (int, int);
ldiv_t ldiv (long, long);
lldiv_t lldiv (long long, long long);

typedef struct { unsigned int quot, rem; } udiv_t;
typedef struct { unsigned long quot, rem; } uldiv_t;
udiv_t udiv (unsigned int, unsigned int);
uldiv_t uldiv (unsigned long, unsigned long);





size_t __ctype_get_mb_cur_max(void);
# 40 "C:/Users/Brian/Documents/Projects/OOI/LithiumBatteryInterface/Firmware/SCD41.X/sensirion_config.h" 2
# 51 "C:/Users/Brian/Documents/Projects/OOI/LithiumBatteryInterface/Firmware/SCD41.X/sensirion_config.h"
# 1 "C:\\Program Files\\Microchip\\xc8\\v2.32\\pic\\include\\c99\\stdint.h" 1 3
# 22 "C:\\Program Files\\Microchip\\xc8\\v2.32\\pic\\include\\c99\\stdint.h" 3
# 1 "C:\\Program Files\\Microchip\\xc8\\v2.32\\pic\\include\\c99\\bits/alltypes.h" 1 3
# 127 "C:\\Program Files\\Microchip\\xc8\\v2.32\\pic\\include\\c99\\bits/alltypes.h" 3
typedef unsigned long uintptr_t;
# 142 "C:\\Program Files\\Microchip\\xc8\\v2.32\\pic\\include\\c99\\bits/alltypes.h" 3
typedef long intptr_t;
# 158 "C:\\Program Files\\Microchip\\xc8\\v2.32\\pic\\include\\c99\\bits/alltypes.h" 3
typedef signed char int8_t;




typedef short int16_t;
# 173 "C:\\Program Files\\Microchip\\xc8\\v2.32\\pic\\include\\c99\\bits/alltypes.h" 3
typedef long int32_t;





typedef long long int64_t;
# 188 "C:\\Program Files\\Microchip\\xc8\\v2.32\\pic\\include\\c99\\bits/alltypes.h" 3
typedef long long intmax_t;





typedef unsigned char uint8_t;




typedef unsigned short uint16_t;
# 209 "C:\\Program Files\\Microchip\\xc8\\v2.32\\pic\\include\\c99\\bits/alltypes.h" 3
typedef unsigned long uint32_t;





typedef unsigned long long uint64_t;
# 229 "C:\\Program Files\\Microchip\\xc8\\v2.32\\pic\\include\\c99\\bits/alltypes.h" 3
typedef unsigned long long uintmax_t;
# 22 "C:\\Program Files\\Microchip\\xc8\\v2.32\\pic\\include\\c99\\stdint.h" 2 3


typedef int8_t int_fast8_t;

typedef int64_t int_fast64_t;


typedef int8_t int_least8_t;
typedef int16_t int_least16_t;

typedef int24_t int_least24_t;
typedef int24_t int_fast24_t;

typedef int32_t int_least32_t;

typedef int64_t int_least64_t;


typedef uint8_t uint_fast8_t;

typedef uint64_t uint_fast64_t;


typedef uint8_t uint_least8_t;
typedef uint16_t uint_least16_t;

typedef uint24_t uint_least24_t;
typedef uint24_t uint_fast24_t;

typedef uint32_t uint_least32_t;

typedef uint64_t uint_least64_t;
# 144 "C:\\Program Files\\Microchip\\xc8\\v2.32\\pic\\include\\c99\\stdint.h" 3
# 1 "C:\\Program Files\\Microchip\\xc8\\v2.32\\pic\\include\\c99\\bits/stdint.h" 1 3
typedef int16_t int_fast16_t;
typedef int32_t int_fast32_t;
typedef uint16_t uint_fast16_t;
typedef uint32_t uint_fast32_t;
# 144 "C:\\Program Files\\Microchip\\xc8\\v2.32\\pic\\include\\c99\\stdint.h" 2 3
# 52 "C:/Users/Brian/Documents/Projects/OOI/LithiumBatteryInterface/Firmware/SCD41.X/sensirion_config.h" 2
# 75 "C:/Users/Brian/Documents/Projects/OOI/LithiumBatteryInterface/Firmware/SCD41.X/sensirion_config.h"
# 1 "C:\\Program Files\\Microchip\\xc8\\v2.32\\pic\\include\\c99\\stdbool.h" 1 3
# 76 "C:/Users/Brian/Documents/Projects/OOI/LithiumBatteryInterface/Firmware/SCD41.X/sensirion_config.h" 2
# 47 "C:/Users/Brian/Documents/Projects/OOI/LithiumBatteryInterface/Firmware/SCD41.X/scd4x_i2c.h" 2
# 56 "C:/Users/Brian/Documents/Projects/OOI/LithiumBatteryInterface/Firmware/SCD41.X/scd4x_i2c.h"
int16_t scd4x_start_periodic_measurement(void);
# 78 "C:/Users/Brian/Documents/Projects/OOI/LithiumBatteryInterface/Firmware/SCD41.X/scd4x_i2c.h"
int16_t scd4x_read_measurement_ticks(uint16_t* co2, uint16_t* temperature,
                                     uint16_t* humidity);
# 97 "C:/Users/Brian/Documents/Projects/OOI/LithiumBatteryInterface/Firmware/SCD41.X/scd4x_i2c.h"
int16_t scd4x_read_measurement(uint16_t* co2, int32_t* temperature_m_deg_c,
                               int32_t* humidity_m_percent_rh);
# 108 "C:/Users/Brian/Documents/Projects/OOI/LithiumBatteryInterface/Firmware/SCD41.X/scd4x_i2c.h"
int16_t scd4x_stop_periodic_measurement(void);
# 122 "C:/Users/Brian/Documents/Projects/OOI/LithiumBatteryInterface/Firmware/SCD41.X/scd4x_i2c.h"
int16_t scd4x_get_temperature_offset_ticks(uint16_t* t_offset);
# 135 "C:/Users/Brian/Documents/Projects/OOI/LithiumBatteryInterface/Firmware/SCD41.X/scd4x_i2c.h"
int16_t scd4x_get_temperature_offset(int32_t* t_offset_m_deg_c);
# 152 "C:/Users/Brian/Documents/Projects/OOI/LithiumBatteryInterface/Firmware/SCD41.X/scd4x_i2c.h"
int16_t scd4x_set_temperature_offset_ticks(uint16_t t_offset);
# 169 "C:/Users/Brian/Documents/Projects/OOI/LithiumBatteryInterface/Firmware/SCD41.X/scd4x_i2c.h"
int16_t scd4x_set_temperature_offset(int32_t t_offset_m_deg_c);
# 182 "C:/Users/Brian/Documents/Projects/OOI/LithiumBatteryInterface/Firmware/SCD41.X/scd4x_i2c.h"
int16_t scd4x_get_sensor_altitude(uint16_t* sensor_altitude);
# 195 "C:/Users/Brian/Documents/Projects/OOI/LithiumBatteryInterface/Firmware/SCD41.X/scd4x_i2c.h"
int16_t scd4x_set_sensor_altitude(uint16_t sensor_altitude);
# 210 "C:/Users/Brian/Documents/Projects/OOI/LithiumBatteryInterface/Firmware/SCD41.X/scd4x_i2c.h"
int16_t scd4x_set_ambient_pressure(uint16_t ambient_pressure);
# 229 "C:/Users/Brian/Documents/Projects/OOI/LithiumBatteryInterface/Firmware/SCD41.X/scd4x_i2c.h"
int16_t scd4x_perform_forced_recalibration(uint16_t target_co2_concentration,
                                           uint16_t* frc_correction);
# 239 "C:/Users/Brian/Documents/Projects/OOI/LithiumBatteryInterface/Firmware/SCD41.X/scd4x_i2c.h"
int16_t scd4x_get_automatic_self_calibration(uint16_t* asc_enabled);
# 248 "C:/Users/Brian/Documents/Projects/OOI/LithiumBatteryInterface/Firmware/SCD41.X/scd4x_i2c.h"
int16_t scd4x_set_automatic_self_calibration(uint16_t asc_enabled);
# 258 "C:/Users/Brian/Documents/Projects/OOI/LithiumBatteryInterface/Firmware/SCD41.X/scd4x_i2c.h"
int16_t scd4x_start_low_power_periodic_measurement(void);
# 268 "C:/Users/Brian/Documents/Projects/OOI/LithiumBatteryInterface/Firmware/SCD41.X/scd4x_i2c.h"
int16_t scd4x_get_data_ready_status(uint16_t* data_ready);
# 285 "C:/Users/Brian/Documents/Projects/OOI/LithiumBatteryInterface/Firmware/SCD41.X/scd4x_i2c.h"
int16_t scd4x_persist_settings(void);
# 301 "C:/Users/Brian/Documents/Projects/OOI/LithiumBatteryInterface/Firmware/SCD41.X/scd4x_i2c.h"
int16_t scd4x_get_serial_number(uint16_t* serial_0, uint16_t* serial_1,
                                uint16_t* serial_2);
# 312 "C:/Users/Brian/Documents/Projects/OOI/LithiumBatteryInterface/Firmware/SCD41.X/scd4x_i2c.h"
int16_t scd4x_perform_self_test(uint16_t* sensor_status);







int16_t scd4x_perform_factory_reset(void);
# 332 "C:/Users/Brian/Documents/Projects/OOI/LithiumBatteryInterface/Firmware/SCD41.X/scd4x_i2c.h"
int16_t scd4x_reinit(void);
# 343 "C:/Users/Brian/Documents/Projects/OOI/LithiumBatteryInterface/Firmware/SCD41.X/scd4x_i2c.h"
int16_t scd4x_measure_single_shot(void);
# 353 "C:/Users/Brian/Documents/Projects/OOI/LithiumBatteryInterface/Firmware/SCD41.X/scd4x_i2c.h"
int16_t scd4x_measure_single_shot_rht_only(void);
# 363 "C:/Users/Brian/Documents/Projects/OOI/LithiumBatteryInterface/Firmware/SCD41.X/scd4x_i2c.h"
int16_t scd4x_power_down(void);
# 372 "C:/Users/Brian/Documents/Projects/OOI/LithiumBatteryInterface/Firmware/SCD41.X/scd4x_i2c.h"
int16_t scd4x_wake_up(void);
# 40 "C:/Users/Brian/Documents/Projects/OOI/LithiumBatteryInterface/Firmware/SCD41.X/scd4x_i2c.c" 2
# 1 "C:/Users/Brian/Documents/Projects/OOI/LithiumBatteryInterface/Firmware/SCD41.X/sensirion_common.h" 1
# 62 "C:/Users/Brian/Documents/Projects/OOI/LithiumBatteryInterface/Firmware/SCD41.X/sensirion_common.h"
int16_t sensirion_common_bytes_to_int16_t(const uint8_t* bytes);
# 73 "C:/Users/Brian/Documents/Projects/OOI/LithiumBatteryInterface/Firmware/SCD41.X/sensirion_common.h"
int32_t sensirion_common_bytes_to_int32_t(const uint8_t* bytes);
# 85 "C:/Users/Brian/Documents/Projects/OOI/LithiumBatteryInterface/Firmware/SCD41.X/sensirion_common.h"
uint16_t sensirion_common_bytes_to_uint16_t(const uint8_t* bytes);
# 97 "C:/Users/Brian/Documents/Projects/OOI/LithiumBatteryInterface/Firmware/SCD41.X/sensirion_common.h"
uint32_t sensirion_common_bytes_to_uint32_t(const uint8_t* bytes);
# 108 "C:/Users/Brian/Documents/Projects/OOI/LithiumBatteryInterface/Firmware/SCD41.X/sensirion_common.h"
float sensirion_common_bytes_to_float(const uint8_t* bytes);
# 120 "C:/Users/Brian/Documents/Projects/OOI/LithiumBatteryInterface/Firmware/SCD41.X/sensirion_common.h"
void sensirion_common_uint32_t_to_bytes(const uint32_t value, uint8_t* bytes);
# 132 "C:/Users/Brian/Documents/Projects/OOI/LithiumBatteryInterface/Firmware/SCD41.X/sensirion_common.h"
void sensirion_common_uint16_t_to_bytes(const uint16_t value, uint8_t* bytes);
# 143 "C:/Users/Brian/Documents/Projects/OOI/LithiumBatteryInterface/Firmware/SCD41.X/sensirion_common.h"
void sensirion_common_int32_t_to_bytes(const int32_t value, uint8_t* bytes);
# 154 "C:/Users/Brian/Documents/Projects/OOI/LithiumBatteryInterface/Firmware/SCD41.X/sensirion_common.h"
void sensirion_common_int16_t_to_bytes(const int16_t value, uint8_t* bytes);
# 165 "C:/Users/Brian/Documents/Projects/OOI/LithiumBatteryInterface/Firmware/SCD41.X/sensirion_common.h"
void sensirion_common_float_to_bytes(const float value, uint8_t* bytes);
# 174 "C:/Users/Brian/Documents/Projects/OOI/LithiumBatteryInterface/Firmware/SCD41.X/sensirion_common.h"
void sensirion_common_copy_bytes(const uint8_t* source, uint8_t* destination,
                                 uint16_t data_length);
# 41 "C:/Users/Brian/Documents/Projects/OOI/LithiumBatteryInterface/Firmware/SCD41.X/scd4x_i2c.c" 2
# 1 "C:/Users/Brian/Documents/Projects/OOI/LithiumBatteryInterface/Firmware/SCD41.X/sensirion_i2c.h" 1
# 55 "C:/Users/Brian/Documents/Projects/OOI/LithiumBatteryInterface/Firmware/SCD41.X/sensirion_i2c.h"
uint8_t sensirion_i2c_generate_crc(const uint8_t* data, uint16_t count);

int8_t sensirion_i2c_check_crc(const uint8_t* data, uint16_t count,
                               uint8_t checksum);
# 68 "C:/Users/Brian/Documents/Projects/OOI/LithiumBatteryInterface/Firmware/SCD41.X/sensirion_i2c.h"
int16_t sensirion_i2c_general_call_reset(void);
# 83 "C:/Users/Brian/Documents/Projects/OOI/LithiumBatteryInterface/Firmware/SCD41.X/sensirion_i2c.h"
uint16_t sensirion_i2c_fill_cmd_send_buf(uint8_t* buf, uint16_t cmd,
                                         const uint16_t* args,
                                         uint8_t num_args);
# 97 "C:/Users/Brian/Documents/Projects/OOI/LithiumBatteryInterface/Firmware/SCD41.X/sensirion_i2c.h"
int16_t sensirion_i2c_read_words(uint8_t address, uint16_t* data_words,
                                 uint16_t num_words);
# 116 "C:/Users/Brian/Documents/Projects/OOI/LithiumBatteryInterface/Firmware/SCD41.X/sensirion_i2c.h"
int16_t sensirion_i2c_read_words_as_bytes(uint8_t address, uint8_t* data,
                                          uint16_t num_words);
# 126 "C:/Users/Brian/Documents/Projects/OOI/LithiumBatteryInterface/Firmware/SCD41.X/sensirion_i2c.h"
int16_t sensirion_i2c_write_cmd(uint8_t address, uint16_t command);
# 138 "C:/Users/Brian/Documents/Projects/OOI/LithiumBatteryInterface/Firmware/SCD41.X/sensirion_i2c.h"
int16_t sensirion_i2c_write_cmd_with_args(uint8_t address, uint16_t command,
                                          const uint16_t* data_words,
                                          uint16_t num_words);
# 153 "C:/Users/Brian/Documents/Projects/OOI/LithiumBatteryInterface/Firmware/SCD41.X/sensirion_i2c.h"
int16_t sensirion_i2c_delayed_read_cmd(uint8_t address, uint16_t cmd,
                                       uint32_t delay_us, uint16_t* data_words,
                                       uint16_t num_words);
# 166 "C:/Users/Brian/Documents/Projects/OOI/LithiumBatteryInterface/Firmware/SCD41.X/sensirion_i2c.h"
int16_t sensirion_i2c_read_cmd(uint8_t address, uint16_t cmd,
                               uint16_t* data_words, uint16_t num_words);
# 181 "C:/Users/Brian/Documents/Projects/OOI/LithiumBatteryInterface/Firmware/SCD41.X/sensirion_i2c.h"
uint16_t sensirion_i2c_add_command_to_buffer(uint8_t* buffer, uint16_t offset,
                                             uint16_t command);
# 196 "C:/Users/Brian/Documents/Projects/OOI/LithiumBatteryInterface/Firmware/SCD41.X/sensirion_i2c.h"
uint16_t sensirion_i2c_add_uint32_t_to_buffer(uint8_t* buffer, uint16_t offset,
                                              uint32_t data);
# 211 "C:/Users/Brian/Documents/Projects/OOI/LithiumBatteryInterface/Firmware/SCD41.X/sensirion_i2c.h"
uint16_t sensirion_i2c_add_int32_t_to_buffer(uint8_t* buffer, uint16_t offset,
                                             int32_t data);
# 226 "C:/Users/Brian/Documents/Projects/OOI/LithiumBatteryInterface/Firmware/SCD41.X/sensirion_i2c.h"
uint16_t sensirion_i2c_add_uint16_t_to_buffer(uint8_t* buffer, uint16_t offset,
                                              uint16_t data);
# 241 "C:/Users/Brian/Documents/Projects/OOI/LithiumBatteryInterface/Firmware/SCD41.X/sensirion_i2c.h"
uint16_t sensirion_i2c_add_int16_t_to_buffer(uint8_t* buffer, uint16_t offset,
                                             int16_t data);
# 256 "C:/Users/Brian/Documents/Projects/OOI/LithiumBatteryInterface/Firmware/SCD41.X/sensirion_i2c.h"
uint16_t sensirion_i2c_add_float_to_buffer(uint8_t* buffer, uint16_t offset,
                                           float data);
# 276 "C:/Users/Brian/Documents/Projects/OOI/LithiumBatteryInterface/Firmware/SCD41.X/sensirion_i2c.h"
uint16_t sensirion_i2c_add_bytes_to_buffer(uint8_t* buffer, uint16_t offset,
                                           uint8_t* data, uint16_t data_length);
# 291 "C:/Users/Brian/Documents/Projects/OOI/LithiumBatteryInterface/Firmware/SCD41.X/sensirion_i2c.h"
int16_t sensirion_i2c_write_data(uint8_t address, const uint8_t* data,
                                 uint16_t data_length);
# 308 "C:/Users/Brian/Documents/Projects/OOI/LithiumBatteryInterface/Firmware/SCD41.X/sensirion_i2c.h"
int16_t sensirion_i2c_read_data_inplace(uint8_t address, uint8_t* buffer,
                                        uint16_t expected_data_length);
# 42 "C:/Users/Brian/Documents/Projects/OOI/LithiumBatteryInterface/Firmware/SCD41.X/scd4x_i2c.c" 2
# 1 "C:/Users/Brian/Documents/Projects/OOI/LithiumBatteryInterface/Firmware/SCD41.X/sensirion_i2c_hal.h" 1
# 51 "C:/Users/Brian/Documents/Projects/OOI/LithiumBatteryInterface/Firmware/SCD41.X/sensirion_i2c_hal.h"
int16_t sensirion_i2c_hal_select_bus(uint8_t bus_idx);





void sensirion_i2c_hal_init(void);




void sensirion_i2c_hal_free(void);
# 74 "C:/Users/Brian/Documents/Projects/OOI/LithiumBatteryInterface/Firmware/SCD41.X/sensirion_i2c_hal.h"
int8_t sensirion_i2c_hal_read(uint8_t address, uint8_t* data, uint16_t count);
# 87 "C:/Users/Brian/Documents/Projects/OOI/LithiumBatteryInterface/Firmware/SCD41.X/sensirion_i2c_hal.h"
int8_t sensirion_i2c_hal_write(uint8_t address, const uint8_t* data,
                               uint16_t count);
# 106 "C:/Users/Brian/Documents/Projects/OOI/LithiumBatteryInterface/Firmware/SCD41.X/sensirion_i2c_hal.h"
void sensirion_i2c_hal_sleep_usec(uint32_t useconds);
# 43 "C:/Users/Brian/Documents/Projects/OOI/LithiumBatteryInterface/Firmware/SCD41.X/scd4x_i2c.c" 2



int16_t scd4x_start_periodic_measurement() {
    int16_t error;
    uint8_t buffer[2];
    uint16_t offset = 0;
    offset = sensirion_i2c_add_command_to_buffer(&buffer[0], offset, 0x21B1);

    error = sensirion_i2c_write_data(98, &buffer[0], offset);
    if (error) {
        return error;
    }
    sensirion_i2c_hal_sleep_usec(1000);
    return 0;
}

int16_t scd4x_read_measurement_ticks(uint16_t* co2, uint16_t* temperature,
                                     uint16_t* humidity) {
    int16_t error;
    uint8_t buffer[9];
    uint16_t offset = 0;
    offset = sensirion_i2c_add_command_to_buffer(&buffer[0], offset, 0xEC05);

    error = sensirion_i2c_write_data(98, &buffer[0], offset);
    if (error) {
        return error;
    }

    sensirion_i2c_hal_sleep_usec(1000);

    error = sensirion_i2c_read_data_inplace(98, &buffer[0], 6);
    if (error) {
        return error;
    }
    *co2 = sensirion_common_bytes_to_uint16_t(&buffer[0]);
    *temperature = sensirion_common_bytes_to_uint16_t(&buffer[2]);
    *humidity = sensirion_common_bytes_to_uint16_t(&buffer[4]);
    return 0;
}

int16_t scd4x_read_measurement(uint16_t* co2, int32_t* temperature_m_deg_c,
                               int32_t* humidity_m_percent_rh) {
    int16_t error;
    uint16_t temperature;
    uint16_t humidity;

    error = scd4x_read_measurement_ticks(co2, &temperature, &humidity);
    if (error) {
        return error;
    }
    *temperature_m_deg_c = ((21875 * (int32_t)temperature) >> 13) - 45000;
    *humidity_m_percent_rh = ((12500 * (int32_t)humidity) >> 13);
    return 0;
}

int16_t scd4x_stop_periodic_measurement() {
    int16_t error;
    uint8_t buffer[2];
    uint16_t offset = 0;
    offset = sensirion_i2c_add_command_to_buffer(&buffer[0], offset, 0x3F86);

    error = sensirion_i2c_write_data(98, &buffer[0], offset);
    if (error) {
        return error;
    }
    sensirion_i2c_hal_sleep_usec(500000);
    return 0;
}

int16_t scd4x_get_temperature_offset_ticks(uint16_t* t_offset) {
    int16_t error;
    uint8_t buffer[3];
    uint16_t offset = 0;
    offset = sensirion_i2c_add_command_to_buffer(&buffer[0], offset, 0x2318);

    error = sensirion_i2c_write_data(98, &buffer[0], offset);
    if (error) {
        return error;
    }

    sensirion_i2c_hal_sleep_usec(1000);

    error = sensirion_i2c_read_data_inplace(98, &buffer[0], 2);
    if (error) {
        return error;
    }
    *t_offset = sensirion_common_bytes_to_uint16_t(&buffer[0]);
    return 0;
}

int16_t scd4x_get_temperature_offset(int32_t* t_offset_m_deg_c) {
    int16_t error;
    uint16_t t_offset;

    error = scd4x_get_temperature_offset_ticks(&t_offset);
    if (error) {
        return error;
    }
    *t_offset_m_deg_c = ((21875 * (int32_t)t_offset) >> 13);
    return 0;
}

int16_t scd4x_set_temperature_offset_ticks(uint16_t t_offset) {
    int16_t error;
    uint8_t buffer[5];
    uint16_t offset = 0;
    offset = sensirion_i2c_add_command_to_buffer(&buffer[0], offset, 0x241D);

    offset = sensirion_i2c_add_uint16_t_to_buffer(&buffer[0], offset, t_offset);

    error = sensirion_i2c_write_data(98, &buffer[0], offset);
    if (error) {
        return error;
    }
    sensirion_i2c_hal_sleep_usec(1000);
    return 0;
}

int16_t scd4x_set_temperature_offset(int32_t t_offset_m_deg_c) {
    uint16_t t_offset = (uint16_t)((t_offset_m_deg_c * 12271) >> 15);
    return scd4x_set_temperature_offset_ticks(t_offset);
}

int16_t scd4x_get_sensor_altitude(uint16_t* sensor_altitude) {
    int16_t error;
    uint8_t buffer[3];
    uint16_t offset = 0;
    offset = sensirion_i2c_add_command_to_buffer(&buffer[0], offset, 0x2322);

    error = sensirion_i2c_write_data(98, &buffer[0], offset);
    if (error) {
        return error;
    }

    sensirion_i2c_hal_sleep_usec(1000);

    error = sensirion_i2c_read_data_inplace(98, &buffer[0], 2);
    if (error) {
        return error;
    }
    *sensor_altitude = sensirion_common_bytes_to_uint16_t(&buffer[0]);
    return 0;
}

int16_t scd4x_set_sensor_altitude(uint16_t sensor_altitude) {
    int16_t error;
    uint8_t buffer[5];
    uint16_t offset = 0;
    offset = sensirion_i2c_add_command_to_buffer(&buffer[0], offset, 0x2427);

    offset = sensirion_i2c_add_uint16_t_to_buffer(&buffer[0], offset,
                                                  sensor_altitude);

    error = sensirion_i2c_write_data(98, &buffer[0], offset);
    if (error) {
        return error;
    }
    sensirion_i2c_hal_sleep_usec(1000);
    return 0;
}

int16_t scd4x_set_ambient_pressure(uint16_t ambient_pressure) {
    int16_t error;
    uint8_t buffer[5];
    uint16_t offset = 0;
    offset = sensirion_i2c_add_command_to_buffer(&buffer[0], offset, 0xE000);

    offset = sensirion_i2c_add_uint16_t_to_buffer(&buffer[0], offset,
                                                  ambient_pressure);

    error = sensirion_i2c_write_data(98, &buffer[0], offset);
    if (error) {
        return error;
    }
    sensirion_i2c_hal_sleep_usec(1000);
    return 0;
}

int16_t scd4x_perform_forced_recalibration(uint16_t target_co2_concentration,
                                           uint16_t* frc_correction) {
    int16_t error;
    uint8_t buffer[5];
    uint16_t offset = 0;
    offset = sensirion_i2c_add_command_to_buffer(&buffer[0], offset, 0x362F);

    offset = sensirion_i2c_add_uint16_t_to_buffer(&buffer[0], offset,
                                                  target_co2_concentration);

    error = sensirion_i2c_write_data(98, &buffer[0], offset);
    if (error) {
        return error;
    }

    sensirion_i2c_hal_sleep_usec(400000);

    error = sensirion_i2c_read_data_inplace(98, &buffer[0], 2);
    if (error) {
        return error;
    }
    *frc_correction = sensirion_common_bytes_to_uint16_t(&buffer[0]);
    return 0;
}

int16_t scd4x_get_automatic_self_calibration(uint16_t* asc_enabled) {
    int16_t error;
    uint8_t buffer[3];
    uint16_t offset = 0;
    offset = sensirion_i2c_add_command_to_buffer(&buffer[0], offset, 0x2313);

    error = sensirion_i2c_write_data(98, &buffer[0], offset);
    if (error) {
        return error;
    }

    sensirion_i2c_hal_sleep_usec(1000);

    error = sensirion_i2c_read_data_inplace(98, &buffer[0], 2);
    if (error) {
        return error;
    }
    *asc_enabled = sensirion_common_bytes_to_uint16_t(&buffer[0]);
    return 0;
}

int16_t scd4x_set_automatic_self_calibration(uint16_t asc_enabled) {
    int16_t error;
    uint8_t buffer[5];
    uint16_t offset = 0;
    offset = sensirion_i2c_add_command_to_buffer(&buffer[0], offset, 0x2416);

    offset =
        sensirion_i2c_add_uint16_t_to_buffer(&buffer[0], offset, asc_enabled);

    error = sensirion_i2c_write_data(98, &buffer[0], offset);
    if (error) {
        return error;
    }
    sensirion_i2c_hal_sleep_usec(1000);
    return 0;
}

int16_t scd4x_start_low_power_periodic_measurement() {
    uint8_t buffer[2];
    uint16_t offset = 0;
    offset = sensirion_i2c_add_command_to_buffer(&buffer[0], offset, 0x21AC);

    return sensirion_i2c_write_data(98, &buffer[0], offset);
}

int16_t scd4x_get_data_ready_status(uint16_t* data_ready) {
    int16_t error;
    uint8_t buffer[3];
    uint16_t offset = 0;
    offset = sensirion_i2c_add_command_to_buffer(&buffer[0], offset, 0xE4B8);

    error = sensirion_i2c_write_data(98, &buffer[0], offset);
    if (error) {
        return error;
    }

    sensirion_i2c_hal_sleep_usec(1000);

    error = sensirion_i2c_read_data_inplace(98, &buffer[0], 2);
    if (error) {
        return error;
    }
    *data_ready = sensirion_common_bytes_to_uint16_t(&buffer[0]);
    return 0;
}

int16_t scd4x_persist_settings() {
    int16_t error;
    uint8_t buffer[2];
    uint16_t offset = 0;
    offset = sensirion_i2c_add_command_to_buffer(&buffer[0], offset, 0x3615);

    error = sensirion_i2c_write_data(98, &buffer[0], offset);
    if (error) {
        return error;
    }
    sensirion_i2c_hal_sleep_usec(800000);
    return 0;
}

int16_t scd4x_get_serial_number(uint16_t* serial_0, uint16_t* serial_1,
                                uint16_t* serial_2) {
    int16_t error;
    uint8_t buffer[9];
    uint16_t offset = 0;
    offset = sensirion_i2c_add_command_to_buffer(&buffer[0], offset, 0x3682);

    error = sensirion_i2c_write_data(98, &buffer[0], offset);
    if (error) {
        return error;
    }

    sensirion_i2c_hal_sleep_usec(1000);

    error = sensirion_i2c_read_data_inplace(98, &buffer[0], 6);
    if (error) {
        return error;
    }
    *serial_0 = sensirion_common_bytes_to_uint16_t(&buffer[0]);
    *serial_1 = sensirion_common_bytes_to_uint16_t(&buffer[2]);
    *serial_2 = sensirion_common_bytes_to_uint16_t(&buffer[4]);
    return 0;
}

int16_t scd4x_perform_self_test(uint16_t* sensor_status) {
    int16_t error;
    uint8_t buffer[3];
    uint16_t offset = 0;
    offset = sensirion_i2c_add_command_to_buffer(&buffer[0], offset, 0x3639);

    error = sensirion_i2c_write_data(98, &buffer[0], offset);
    if (error) {
        return error;
    }

    sensirion_i2c_hal_sleep_usec(10000000);

    error = sensirion_i2c_read_data_inplace(98, &buffer[0], 2);
    if (error) {
        return error;
    }
    *sensor_status = sensirion_common_bytes_to_uint16_t(&buffer[0]);
    return 0;
}

int16_t scd4x_perform_factory_reset() {
    int16_t error;
    uint8_t buffer[2];
    uint16_t offset = 0;
    offset = sensirion_i2c_add_command_to_buffer(&buffer[0], offset, 0x3632);

    error = sensirion_i2c_write_data(98, &buffer[0], offset);
    if (error) {
        return error;
    }
    sensirion_i2c_hal_sleep_usec(800000);
    return 0;
}

int16_t scd4x_reinit() {
    int16_t error;
    uint8_t buffer[2];
    uint16_t offset = 0;
    offset = sensirion_i2c_add_command_to_buffer(&buffer[0], offset, 0x3646);

    error = sensirion_i2c_write_data(98, &buffer[0], offset);
    if (error) {
        return error;
    }
    sensirion_i2c_hal_sleep_usec(20000);
    return 0;
}

int16_t scd4x_measure_single_shot() {
    int16_t error;
    uint8_t buffer[2];
    uint16_t offset = 0;
    offset = sensirion_i2c_add_command_to_buffer(&buffer[0], offset, 0x219D);

    error = sensirion_i2c_write_data(98, &buffer[0], offset);
    if (error) {
        return error;
    }
    sensirion_i2c_hal_sleep_usec(5000000);
    return 0;
}

int16_t scd4x_measure_single_shot_rht_only() {
    int16_t error;
    uint8_t buffer[2];
    uint16_t offset = 0;
    offset = sensirion_i2c_add_command_to_buffer(&buffer[0], offset, 0x2196);

    error = sensirion_i2c_write_data(98, &buffer[0], offset);
    if (error) {
        return error;
    }
    sensirion_i2c_hal_sleep_usec(50000);
    return 0;
}

int16_t scd4x_power_down() {
    int16_t error;
    uint8_t buffer[2];
    uint16_t offset = 0;
    offset = sensirion_i2c_add_command_to_buffer(&buffer[0], offset, 0x36E0);

    error = sensirion_i2c_write_data(98, &buffer[0], offset);
    if (error) {
        return error;
    }
    sensirion_i2c_hal_sleep_usec(1000);
    return 0;
}

int16_t scd4x_wake_up() {
    uint8_t buffer[2];
    uint16_t offset = 0;
    offset = sensirion_i2c_add_command_to_buffer(&buffer[0], offset, 0x36F6);


    (void)sensirion_i2c_write_data(98, &buffer[0], offset);
    sensirion_i2c_hal_sleep_usec(20000);
    return 0;
}
