# 1 "C:/Users/Brian/Documents/Projects/OOI/LithiumBatteryInterface/Firmware/SCD41.X/scd4x_i2c_example_usage.c"
# 1 "<built-in>" 1
# 1 "<built-in>" 3
# 288 "<built-in>" 3
# 1 "<command line>" 1
# 1 "<built-in>" 2
# 1 "C:/Program Files/Microchip/MPLABX/v5.50/packs/Microchip/PIC18F-Q_DFP/1.11.185/xc8\\pic\\include\\language_support.h" 1 3
# 2 "<built-in>" 2
# 1 "C:/Users/Brian/Documents/Projects/OOI/LithiumBatteryInterface/Firmware/SCD41.X/scd4x_i2c_example_usage.c" 2
# 32 "C:/Users/Brian/Documents/Projects/OOI/LithiumBatteryInterface/Firmware/SCD41.X/scd4x_i2c_example_usage.c"
# 1 "C:\\Program Files\\Microchip\\xc8\\v2.32\\pic\\include\\c99\\stdio.h" 1 3



# 1 "C:\\Program Files\\Microchip\\xc8\\v2.32\\pic\\include\\c99\\musl_xc8.h" 1 3
# 4 "C:\\Program Files\\Microchip\\xc8\\v2.32\\pic\\include\\c99\\stdio.h" 2 3






# 1 "C:\\Program Files\\Microchip\\xc8\\v2.32\\pic\\include\\c99\\features.h" 1 3
# 10 "C:\\Program Files\\Microchip\\xc8\\v2.32\\pic\\include\\c99\\stdio.h" 2 3
# 24 "C:\\Program Files\\Microchip\\xc8\\v2.32\\pic\\include\\c99\\stdio.h" 3
# 1 "C:\\Program Files\\Microchip\\xc8\\v2.32\\pic\\include\\c99\\bits/alltypes.h" 1 3





typedef void * va_list[1];




typedef void * __isoc_va_list[1];
# 122 "C:\\Program Files\\Microchip\\xc8\\v2.32\\pic\\include\\c99\\bits/alltypes.h" 3
typedef unsigned size_t;
# 137 "C:\\Program Files\\Microchip\\xc8\\v2.32\\pic\\include\\c99\\bits/alltypes.h" 3
typedef long ssize_t;
# 168 "C:\\Program Files\\Microchip\\xc8\\v2.32\\pic\\include\\c99\\bits/alltypes.h" 3
typedef __int24 int24_t;
# 204 "C:\\Program Files\\Microchip\\xc8\\v2.32\\pic\\include\\c99\\bits/alltypes.h" 3
typedef __uint24 uint24_t;
# 246 "C:\\Program Files\\Microchip\\xc8\\v2.32\\pic\\include\\c99\\bits/alltypes.h" 3
typedef long long off_t;
# 399 "C:\\Program Files\\Microchip\\xc8\\v2.32\\pic\\include\\c99\\bits/alltypes.h" 3
typedef struct _IO_FILE FILE;
# 24 "C:\\Program Files\\Microchip\\xc8\\v2.32\\pic\\include\\c99\\stdio.h" 2 3
# 52 "C:\\Program Files\\Microchip\\xc8\\v2.32\\pic\\include\\c99\\stdio.h" 3
typedef union _G_fpos64_t {
 char __opaque[16];
 double __align;
} fpos_t;

extern FILE *const stdin;
extern FILE *const stdout;
extern FILE *const stderr;





FILE *fopen(const char *restrict, const char *restrict);
FILE *freopen(const char *restrict, const char *restrict, FILE *restrict);
int fclose(FILE *);

int remove(const char *);
int rename(const char *, const char *);

int feof(FILE *);
int ferror(FILE *);
int fflush(FILE *);
void clearerr(FILE *);

int fseek(FILE *, long, int);
long ftell(FILE *);
void rewind(FILE *);

int fgetpos(FILE *restrict, fpos_t *restrict);
int fsetpos(FILE *, const fpos_t *);

size_t fread(void *restrict, size_t, size_t, FILE *restrict);
size_t fwrite(const void *restrict, size_t, size_t, FILE *restrict);

int fgetc(FILE *);
int getc(FILE *);
int getchar(void);
int ungetc(int, FILE *);

int fputc(int, FILE *);
int putc(int, FILE *);
int putchar(int);

char *fgets(char *restrict, int, FILE *restrict);

char *gets(char *);


int fputs(const char *restrict, FILE *restrict);
int puts(const char *);

#pragma printf_check(printf) const
#pragma printf_check(vprintf) const
#pragma printf_check(sprintf) const
#pragma printf_check(snprintf) const
#pragma printf_check(vsprintf) const
#pragma printf_check(vsnprintf) const

int printf(const char *restrict, ...);
int fprintf(FILE *restrict, const char *restrict, ...);
int sprintf(char *restrict, const char *restrict, ...);
int snprintf(char *restrict, size_t, const char *restrict, ...);

int vprintf(const char *restrict, __isoc_va_list);
int vfprintf(FILE *restrict, const char *restrict, __isoc_va_list);
int vsprintf(char *restrict, const char *restrict, __isoc_va_list);
int vsnprintf(char *restrict, size_t, const char *restrict, __isoc_va_list);

int scanf(const char *restrict, ...);
int fscanf(FILE *restrict, const char *restrict, ...);
int sscanf(const char *restrict, const char *restrict, ...);
int vscanf(const char *restrict, __isoc_va_list);
int vfscanf(FILE *restrict, const char *restrict, __isoc_va_list);
int vsscanf(const char *restrict, const char *restrict, __isoc_va_list);

void perror(const char *);

int setvbuf(FILE *restrict, char *restrict, int, size_t);
void setbuf(FILE *restrict, char *restrict);

char *tmpnam(char *);
FILE *tmpfile(void);




FILE *fmemopen(void *restrict, size_t, const char *restrict);
FILE *open_memstream(char **, size_t *);
FILE *fdopen(int, const char *);
FILE *popen(const char *, const char *);
int pclose(FILE *);
int fileno(FILE *);
int fseeko(FILE *, off_t, int);
off_t ftello(FILE *);
int dprintf(int, const char *restrict, ...);
int vdprintf(int, const char *restrict, __isoc_va_list);
void flockfile(FILE *);
int ftrylockfile(FILE *);
void funlockfile(FILE *);
int getc_unlocked(FILE *);
int getchar_unlocked(void);
int putc_unlocked(int, FILE *);
int putchar_unlocked(int);
ssize_t getdelim(char **restrict, size_t *restrict, int, FILE *restrict);
ssize_t getline(char **restrict, size_t *restrict, FILE *restrict);
int renameat(int, const char *, int, const char *);
char *ctermid(char *);







char *tempnam(const char *, const char *);
# 33 "C:/Users/Brian/Documents/Projects/OOI/LithiumBatteryInterface/Firmware/SCD41.X/scd4x_i2c_example_usage.c" 2

# 1 "C:/Users/Brian/Documents/Projects/OOI/LithiumBatteryInterface/Firmware/SCD41.X/scd4x_i2c.h" 1
# 46 "C:/Users/Brian/Documents/Projects/OOI/LithiumBatteryInterface/Firmware/SCD41.X/scd4x_i2c.h"
# 1 "C:/Users/Brian/Documents/Projects/OOI/LithiumBatteryInterface/Firmware/SCD41.X/sensirion_config.h" 1
# 39 "C:/Users/Brian/Documents/Projects/OOI/LithiumBatteryInterface/Firmware/SCD41.X/sensirion_config.h"
# 1 "C:\\Program Files\\Microchip\\xc8\\v2.32\\pic\\include\\c99\\stdlib.h" 1 3
# 21 "C:\\Program Files\\Microchip\\xc8\\v2.32\\pic\\include\\c99\\stdlib.h" 3
# 1 "C:\\Program Files\\Microchip\\xc8\\v2.32\\pic\\include\\c99\\bits/alltypes.h" 1 3
# 18 "C:\\Program Files\\Microchip\\xc8\\v2.32\\pic\\include\\c99\\bits/alltypes.h" 3
typedef long int wchar_t;
# 21 "C:\\Program Files\\Microchip\\xc8\\v2.32\\pic\\include\\c99\\stdlib.h" 2 3


int atoi (const char *);
long atol (const char *);
long long atoll (const char *);
double atof (const char *);

float strtof (const char *restrict, char **restrict);
double strtod (const char *restrict, char **restrict);
long double strtold (const char *restrict, char **restrict);



long strtol (const char *restrict, char **restrict, int);
unsigned long strtoul (const char *restrict, char **restrict, int);
long long strtoll (const char *restrict, char **restrict, int);
unsigned long long strtoull (const char *restrict, char **restrict, int);

int rand (void);
void srand (unsigned);

          void abort (void);
int atexit (void (*) (void));
          void exit (int);
          void _Exit (int);

void *bsearch (const void *, const void *, size_t, size_t, int (*)(const void *, const void *));

__attribute__((nonreentrant)) void qsort (void *, size_t, size_t, int (*)(const void *, const void *));

int abs (int);
long labs (long);
long long llabs (long long);

typedef struct { int quot, rem; } div_t;
typedef struct { long quot, rem; } ldiv_t;
typedef struct { long long quot, rem; } lldiv_t;

div_t div (int, int);
ldiv_t ldiv (long, long);
lldiv_t lldiv (long long, long long);

typedef struct { unsigned int quot, rem; } udiv_t;
typedef struct { unsigned long quot, rem; } uldiv_t;
udiv_t udiv (unsigned int, unsigned int);
uldiv_t uldiv (unsigned long, unsigned long);





size_t __ctype_get_mb_cur_max(void);
# 40 "C:/Users/Brian/Documents/Projects/OOI/LithiumBatteryInterface/Firmware/SCD41.X/sensirion_config.h" 2
# 51 "C:/Users/Brian/Documents/Projects/OOI/LithiumBatteryInterface/Firmware/SCD41.X/sensirion_config.h"
# 1 "C:\\Program Files\\Microchip\\xc8\\v2.32\\pic\\include\\c99\\stdint.h" 1 3
# 22 "C:\\Program Files\\Microchip\\xc8\\v2.32\\pic\\include\\c99\\stdint.h" 3
# 1 "C:\\Program Files\\Microchip\\xc8\\v2.32\\pic\\include\\c99\\bits/alltypes.h" 1 3
# 127 "C:\\Program Files\\Microchip\\xc8\\v2.32\\pic\\include\\c99\\bits/alltypes.h" 3
typedef unsigned long uintptr_t;
# 142 "C:\\Program Files\\Microchip\\xc8\\v2.32\\pic\\include\\c99\\bits/alltypes.h" 3
typedef long intptr_t;
# 158 "C:\\Program Files\\Microchip\\xc8\\v2.32\\pic\\include\\c99\\bits/alltypes.h" 3
typedef signed char int8_t;




typedef short int16_t;
# 173 "C:\\Program Files\\Microchip\\xc8\\v2.32\\pic\\include\\c99\\bits/alltypes.h" 3
typedef long int32_t;





typedef long long int64_t;
# 188 "C:\\Program Files\\Microchip\\xc8\\v2.32\\pic\\include\\c99\\bits/alltypes.h" 3
typedef long long intmax_t;





typedef unsigned char uint8_t;




typedef unsigned short uint16_t;
# 209 "C:\\Program Files\\Microchip\\xc8\\v2.32\\pic\\include\\c99\\bits/alltypes.h" 3
typedef unsigned long uint32_t;





typedef unsigned long long uint64_t;
# 229 "C:\\Program Files\\Microchip\\xc8\\v2.32\\pic\\include\\c99\\bits/alltypes.h" 3
typedef unsigned long long uintmax_t;
# 22 "C:\\Program Files\\Microchip\\xc8\\v2.32\\pic\\include\\c99\\stdint.h" 2 3


typedef int8_t int_fast8_t;

typedef int64_t int_fast64_t;


typedef int8_t int_least8_t;
typedef int16_t int_least16_t;

typedef int24_t int_least24_t;
typedef int24_t int_fast24_t;

typedef int32_t int_least32_t;

typedef int64_t int_least64_t;


typedef uint8_t uint_fast8_t;

typedef uint64_t uint_fast64_t;


typedef uint8_t uint_least8_t;
typedef uint16_t uint_least16_t;

typedef uint24_t uint_least24_t;
typedef uint24_t uint_fast24_t;

typedef uint32_t uint_least32_t;

typedef uint64_t uint_least64_t;
# 144 "C:\\Program Files\\Microchip\\xc8\\v2.32\\pic\\include\\c99\\stdint.h" 3
# 1 "C:\\Program Files\\Microchip\\xc8\\v2.32\\pic\\include\\c99\\bits/stdint.h" 1 3
typedef int16_t int_fast16_t;
typedef int32_t int_fast32_t;
typedef uint16_t uint_fast16_t;
typedef uint32_t uint_fast32_t;
# 144 "C:\\Program Files\\Microchip\\xc8\\v2.32\\pic\\include\\c99\\stdint.h" 2 3
# 52 "C:/Users/Brian/Documents/Projects/OOI/LithiumBatteryInterface/Firmware/SCD41.X/sensirion_config.h" 2
# 75 "C:/Users/Brian/Documents/Projects/OOI/LithiumBatteryInterface/Firmware/SCD41.X/sensirion_config.h"
# 1 "C:\\Program Files\\Microchip\\xc8\\v2.32\\pic\\include\\c99\\stdbool.h" 1 3
# 76 "C:/Users/Brian/Documents/Projects/OOI/LithiumBatteryInterface/Firmware/SCD41.X/sensirion_config.h" 2
# 47 "C:/Users/Brian/Documents/Projects/OOI/LithiumBatteryInterface/Firmware/SCD41.X/scd4x_i2c.h" 2
# 56 "C:/Users/Brian/Documents/Projects/OOI/LithiumBatteryInterface/Firmware/SCD41.X/scd4x_i2c.h"
int16_t scd4x_start_periodic_measurement(void);
# 78 "C:/Users/Brian/Documents/Projects/OOI/LithiumBatteryInterface/Firmware/SCD41.X/scd4x_i2c.h"
int16_t scd4x_read_measurement_ticks(uint16_t* co2, uint16_t* temperature,
                                     uint16_t* humidity);
# 97 "C:/Users/Brian/Documents/Projects/OOI/LithiumBatteryInterface/Firmware/SCD41.X/scd4x_i2c.h"
int16_t scd4x_read_measurement(uint16_t* co2, int32_t* temperature_m_deg_c,
                               int32_t* humidity_m_percent_rh);
# 108 "C:/Users/Brian/Documents/Projects/OOI/LithiumBatteryInterface/Firmware/SCD41.X/scd4x_i2c.h"
int16_t scd4x_stop_periodic_measurement(void);
# 122 "C:/Users/Brian/Documents/Projects/OOI/LithiumBatteryInterface/Firmware/SCD41.X/scd4x_i2c.h"
int16_t scd4x_get_temperature_offset_ticks(uint16_t* t_offset);
# 135 "C:/Users/Brian/Documents/Projects/OOI/LithiumBatteryInterface/Firmware/SCD41.X/scd4x_i2c.h"
int16_t scd4x_get_temperature_offset(int32_t* t_offset_m_deg_c);
# 152 "C:/Users/Brian/Documents/Projects/OOI/LithiumBatteryInterface/Firmware/SCD41.X/scd4x_i2c.h"
int16_t scd4x_set_temperature_offset_ticks(uint16_t t_offset);
# 169 "C:/Users/Brian/Documents/Projects/OOI/LithiumBatteryInterface/Firmware/SCD41.X/scd4x_i2c.h"
int16_t scd4x_set_temperature_offset(int32_t t_offset_m_deg_c);
# 182 "C:/Users/Brian/Documents/Projects/OOI/LithiumBatteryInterface/Firmware/SCD41.X/scd4x_i2c.h"
int16_t scd4x_get_sensor_altitude(uint16_t* sensor_altitude);
# 195 "C:/Users/Brian/Documents/Projects/OOI/LithiumBatteryInterface/Firmware/SCD41.X/scd4x_i2c.h"
int16_t scd4x_set_sensor_altitude(uint16_t sensor_altitude);
# 210 "C:/Users/Brian/Documents/Projects/OOI/LithiumBatteryInterface/Firmware/SCD41.X/scd4x_i2c.h"
int16_t scd4x_set_ambient_pressure(uint16_t ambient_pressure);
# 229 "C:/Users/Brian/Documents/Projects/OOI/LithiumBatteryInterface/Firmware/SCD41.X/scd4x_i2c.h"
int16_t scd4x_perform_forced_recalibration(uint16_t target_co2_concentration,
                                           uint16_t* frc_correction);
# 239 "C:/Users/Brian/Documents/Projects/OOI/LithiumBatteryInterface/Firmware/SCD41.X/scd4x_i2c.h"
int16_t scd4x_get_automatic_self_calibration(uint16_t* asc_enabled);
# 248 "C:/Users/Brian/Documents/Projects/OOI/LithiumBatteryInterface/Firmware/SCD41.X/scd4x_i2c.h"
int16_t scd4x_set_automatic_self_calibration(uint16_t asc_enabled);
# 258 "C:/Users/Brian/Documents/Projects/OOI/LithiumBatteryInterface/Firmware/SCD41.X/scd4x_i2c.h"
int16_t scd4x_start_low_power_periodic_measurement(void);
# 268 "C:/Users/Brian/Documents/Projects/OOI/LithiumBatteryInterface/Firmware/SCD41.X/scd4x_i2c.h"
int16_t scd4x_get_data_ready_status(uint16_t* data_ready);
# 285 "C:/Users/Brian/Documents/Projects/OOI/LithiumBatteryInterface/Firmware/SCD41.X/scd4x_i2c.h"
int16_t scd4x_persist_settings(void);
# 301 "C:/Users/Brian/Documents/Projects/OOI/LithiumBatteryInterface/Firmware/SCD41.X/scd4x_i2c.h"
int16_t scd4x_get_serial_number(uint16_t* serial_0, uint16_t* serial_1,
                                uint16_t* serial_2);
# 312 "C:/Users/Brian/Documents/Projects/OOI/LithiumBatteryInterface/Firmware/SCD41.X/scd4x_i2c.h"
int16_t scd4x_perform_self_test(uint16_t* sensor_status);







int16_t scd4x_perform_factory_reset(void);
# 332 "C:/Users/Brian/Documents/Projects/OOI/LithiumBatteryInterface/Firmware/SCD41.X/scd4x_i2c.h"
int16_t scd4x_reinit(void);
# 343 "C:/Users/Brian/Documents/Projects/OOI/LithiumBatteryInterface/Firmware/SCD41.X/scd4x_i2c.h"
int16_t scd4x_measure_single_shot(void);
# 353 "C:/Users/Brian/Documents/Projects/OOI/LithiumBatteryInterface/Firmware/SCD41.X/scd4x_i2c.h"
int16_t scd4x_measure_single_shot_rht_only(void);
# 363 "C:/Users/Brian/Documents/Projects/OOI/LithiumBatteryInterface/Firmware/SCD41.X/scd4x_i2c.h"
int16_t scd4x_power_down(void);
# 372 "C:/Users/Brian/Documents/Projects/OOI/LithiumBatteryInterface/Firmware/SCD41.X/scd4x_i2c.h"
int16_t scd4x_wake_up(void);
# 35 "C:/Users/Brian/Documents/Projects/OOI/LithiumBatteryInterface/Firmware/SCD41.X/scd4x_i2c_example_usage.c" 2
# 1 "C:/Users/Brian/Documents/Projects/OOI/LithiumBatteryInterface/Firmware/SCD41.X/sensirion_common.h" 1
# 62 "C:/Users/Brian/Documents/Projects/OOI/LithiumBatteryInterface/Firmware/SCD41.X/sensirion_common.h"
int16_t sensirion_common_bytes_to_int16_t(const uint8_t* bytes);
# 73 "C:/Users/Brian/Documents/Projects/OOI/LithiumBatteryInterface/Firmware/SCD41.X/sensirion_common.h"
int32_t sensirion_common_bytes_to_int32_t(const uint8_t* bytes);
# 85 "C:/Users/Brian/Documents/Projects/OOI/LithiumBatteryInterface/Firmware/SCD41.X/sensirion_common.h"
uint16_t sensirion_common_bytes_to_uint16_t(const uint8_t* bytes);
# 97 "C:/Users/Brian/Documents/Projects/OOI/LithiumBatteryInterface/Firmware/SCD41.X/sensirion_common.h"
uint32_t sensirion_common_bytes_to_uint32_t(const uint8_t* bytes);
# 108 "C:/Users/Brian/Documents/Projects/OOI/LithiumBatteryInterface/Firmware/SCD41.X/sensirion_common.h"
float sensirion_common_bytes_to_float(const uint8_t* bytes);
# 120 "C:/Users/Brian/Documents/Projects/OOI/LithiumBatteryInterface/Firmware/SCD41.X/sensirion_common.h"
void sensirion_common_uint32_t_to_bytes(const uint32_t value, uint8_t* bytes);
# 132 "C:/Users/Brian/Documents/Projects/OOI/LithiumBatteryInterface/Firmware/SCD41.X/sensirion_common.h"
void sensirion_common_uint16_t_to_bytes(const uint16_t value, uint8_t* bytes);
# 143 "C:/Users/Brian/Documents/Projects/OOI/LithiumBatteryInterface/Firmware/SCD41.X/sensirion_common.h"
void sensirion_common_int32_t_to_bytes(const int32_t value, uint8_t* bytes);
# 154 "C:/Users/Brian/Documents/Projects/OOI/LithiumBatteryInterface/Firmware/SCD41.X/sensirion_common.h"
void sensirion_common_int16_t_to_bytes(const int16_t value, uint8_t* bytes);
# 165 "C:/Users/Brian/Documents/Projects/OOI/LithiumBatteryInterface/Firmware/SCD41.X/sensirion_common.h"
void sensirion_common_float_to_bytes(const float value, uint8_t* bytes);
# 174 "C:/Users/Brian/Documents/Projects/OOI/LithiumBatteryInterface/Firmware/SCD41.X/sensirion_common.h"
void sensirion_common_copy_bytes(const uint8_t* source, uint8_t* destination,
                                 uint16_t data_length);
# 36 "C:/Users/Brian/Documents/Projects/OOI/LithiumBatteryInterface/Firmware/SCD41.X/scd4x_i2c_example_usage.c" 2
# 1 "C:/Users/Brian/Documents/Projects/OOI/LithiumBatteryInterface/Firmware/SCD41.X/sensirion_i2c_hal.h" 1
# 51 "C:/Users/Brian/Documents/Projects/OOI/LithiumBatteryInterface/Firmware/SCD41.X/sensirion_i2c_hal.h"
int16_t sensirion_i2c_hal_select_bus(uint8_t bus_idx);





void sensirion_i2c_hal_init(void);




void sensirion_i2c_hal_free(void);
# 74 "C:/Users/Brian/Documents/Projects/OOI/LithiumBatteryInterface/Firmware/SCD41.X/sensirion_i2c_hal.h"
int8_t sensirion_i2c_hal_read(uint8_t address, uint8_t* data, uint16_t count);
# 87 "C:/Users/Brian/Documents/Projects/OOI/LithiumBatteryInterface/Firmware/SCD41.X/sensirion_i2c_hal.h"
int8_t sensirion_i2c_hal_write(uint8_t address, const uint8_t* data,
                               uint16_t count);
# 106 "C:/Users/Brian/Documents/Projects/OOI/LithiumBatteryInterface/Firmware/SCD41.X/sensirion_i2c_hal.h"
void sensirion_i2c_hal_sleep_usec(uint32_t useconds);
# 37 "C:/Users/Brian/Documents/Projects/OOI/LithiumBatteryInterface/Firmware/SCD41.X/scd4x_i2c_example_usage.c" 2






int main(void) {
    int16_t error = 0;

    sensirion_i2c_hal_init();


    scd4x_wake_up();
    scd4x_stop_periodic_measurement();
    scd4x_reinit();

    uint16_t serial_0;
    uint16_t serial_1;
    uint16_t serial_2;
    error = scd4x_get_serial_number(&serial_0, &serial_1, &serial_2);
    if (error) {
        printf("Error executing scd4x_get_serial_number(): %i\n", error);
    } else {
        printf("serial: 0x%04x%04x%04x\n", serial_0, serial_1, serial_2);
    }



    error = scd4x_start_periodic_measurement();
    if (error) {
        printf("Error executing scd4x_start_periodic_measurement(): %i\n",
               error);
    }

    printf("Waiting for first measurement... (5 sec)\n");

    for (;;) {

        sensirion_i2c_hal_sleep_usec(5000000);

        uint16_t co2;
        int32_t temperature;
        int32_t humidity;
        error = scd4x_read_measurement(&co2, &temperature, &humidity);
        if (error) {
            printf("Error executing scd4x_read_measurement(): %i\n", error);
        } else if (co2 == 0) {
            printf("Invalid sample detected, skipping.\n");
        } else {
            printf("CO2: %u\n", co2);
            printf("Temperature: %d m°C\n", temperature);
            printf("Humidity: %d mRH\n", humidity);
        }
    }

    return 0;
}
