# 1 "C:/Users/Brian/Documents/Projects/OOI/LithiumBatteryInterface/Firmware/SCD41.X/sensirion_i2c_hal.c"
# 1 "<built-in>" 1
# 1 "<built-in>" 3
# 288 "<built-in>" 3
# 1 "<command line>" 1
# 1 "<built-in>" 2
# 1 "C:/Program Files/Microchip/MPLABX/v5.50/packs/Microchip/PIC18F-Q_DFP/1.11.185/xc8\\pic\\include\\language_support.h" 1 3
# 2 "<built-in>" 2
# 1 "C:/Users/Brian/Documents/Projects/OOI/LithiumBatteryInterface/Firmware/SCD41.X/sensirion_i2c_hal.c" 2
# 32 "C:/Users/Brian/Documents/Projects/OOI/LithiumBatteryInterface/Firmware/SCD41.X/sensirion_i2c_hal.c"
# 1 "C:/Users/Brian/Documents/Projects/OOI/LithiumBatteryInterface/Firmware/SCD41.X/sensirion_i2c_hal.h" 1
# 35 "C:/Users/Brian/Documents/Projects/OOI/LithiumBatteryInterface/Firmware/SCD41.X/sensirion_i2c_hal.h"
# 1 "C:/Users/Brian/Documents/Projects/OOI/LithiumBatteryInterface/Firmware/SCD41.X/sensirion_config.h" 1
# 39 "C:/Users/Brian/Documents/Projects/OOI/LithiumBatteryInterface/Firmware/SCD41.X/sensirion_config.h"
# 1 "C:\\Program Files\\Microchip\\xc8\\v2.32\\pic\\include\\c99\\stdlib.h" 1 3



# 1 "C:\\Program Files\\Microchip\\xc8\\v2.32\\pic\\include\\c99\\musl_xc8.h" 1 3
# 4 "C:\\Program Files\\Microchip\\xc8\\v2.32\\pic\\include\\c99\\stdlib.h" 2 3






# 1 "C:\\Program Files\\Microchip\\xc8\\v2.32\\pic\\include\\c99\\features.h" 1 3
# 10 "C:\\Program Files\\Microchip\\xc8\\v2.32\\pic\\include\\c99\\stdlib.h" 2 3
# 21 "C:\\Program Files\\Microchip\\xc8\\v2.32\\pic\\include\\c99\\stdlib.h" 3
# 1 "C:\\Program Files\\Microchip\\xc8\\v2.32\\pic\\include\\c99\\bits/alltypes.h" 1 3
# 18 "C:\\Program Files\\Microchip\\xc8\\v2.32\\pic\\include\\c99\\bits/alltypes.h" 3
typedef long int wchar_t;
# 122 "C:\\Program Files\\Microchip\\xc8\\v2.32\\pic\\include\\c99\\bits/alltypes.h" 3
typedef unsigned size_t;
# 168 "C:\\Program Files\\Microchip\\xc8\\v2.32\\pic\\include\\c99\\bits/alltypes.h" 3
typedef __int24 int24_t;
# 204 "C:\\Program Files\\Microchip\\xc8\\v2.32\\pic\\include\\c99\\bits/alltypes.h" 3
typedef __uint24 uint24_t;
# 21 "C:\\Program Files\\Microchip\\xc8\\v2.32\\pic\\include\\c99\\stdlib.h" 2 3


int atoi (const char *);
long atol (const char *);
long long atoll (const char *);
double atof (const char *);

float strtof (const char *restrict, char **restrict);
double strtod (const char *restrict, char **restrict);
long double strtold (const char *restrict, char **restrict);



long strtol (const char *restrict, char **restrict, int);
unsigned long strtoul (const char *restrict, char **restrict, int);
long long strtoll (const char *restrict, char **restrict, int);
unsigned long long strtoull (const char *restrict, char **restrict, int);

int rand (void);
void srand (unsigned);

          void abort (void);
int atexit (void (*) (void));
          void exit (int);
          void _Exit (int);

void *bsearch (const void *, const void *, size_t, size_t, int (*)(const void *, const void *));

__attribute__((nonreentrant)) void qsort (void *, size_t, size_t, int (*)(const void *, const void *));

int abs (int);
long labs (long);
long long llabs (long long);

typedef struct { int quot, rem; } div_t;
typedef struct { long quot, rem; } ldiv_t;
typedef struct { long long quot, rem; } lldiv_t;

div_t div (int, int);
ldiv_t ldiv (long, long);
lldiv_t lldiv (long long, long long);

typedef struct { unsigned int quot, rem; } udiv_t;
typedef struct { unsigned long quot, rem; } uldiv_t;
udiv_t udiv (unsigned int, unsigned int);
uldiv_t uldiv (unsigned long, unsigned long);





size_t __ctype_get_mb_cur_max(void);
# 40 "C:/Users/Brian/Documents/Projects/OOI/LithiumBatteryInterface/Firmware/SCD41.X/sensirion_config.h" 2
# 51 "C:/Users/Brian/Documents/Projects/OOI/LithiumBatteryInterface/Firmware/SCD41.X/sensirion_config.h"
# 1 "C:\\Program Files\\Microchip\\xc8\\v2.32\\pic\\include\\c99\\stdint.h" 1 3
# 22 "C:\\Program Files\\Microchip\\xc8\\v2.32\\pic\\include\\c99\\stdint.h" 3
# 1 "C:\\Program Files\\Microchip\\xc8\\v2.32\\pic\\include\\c99\\bits/alltypes.h" 1 3
# 127 "C:\\Program Files\\Microchip\\xc8\\v2.32\\pic\\include\\c99\\bits/alltypes.h" 3
typedef unsigned long uintptr_t;
# 142 "C:\\Program Files\\Microchip\\xc8\\v2.32\\pic\\include\\c99\\bits/alltypes.h" 3
typedef long intptr_t;
# 158 "C:\\Program Files\\Microchip\\xc8\\v2.32\\pic\\include\\c99\\bits/alltypes.h" 3
typedef signed char int8_t;




typedef short int16_t;
# 173 "C:\\Program Files\\Microchip\\xc8\\v2.32\\pic\\include\\c99\\bits/alltypes.h" 3
typedef long int32_t;





typedef long long int64_t;
# 188 "C:\\Program Files\\Microchip\\xc8\\v2.32\\pic\\include\\c99\\bits/alltypes.h" 3
typedef long long intmax_t;





typedef unsigned char uint8_t;




typedef unsigned short uint16_t;
# 209 "C:\\Program Files\\Microchip\\xc8\\v2.32\\pic\\include\\c99\\bits/alltypes.h" 3
typedef unsigned long uint32_t;





typedef unsigned long long uint64_t;
# 229 "C:\\Program Files\\Microchip\\xc8\\v2.32\\pic\\include\\c99\\bits/alltypes.h" 3
typedef unsigned long long uintmax_t;
# 22 "C:\\Program Files\\Microchip\\xc8\\v2.32\\pic\\include\\c99\\stdint.h" 2 3


typedef int8_t int_fast8_t;

typedef int64_t int_fast64_t;


typedef int8_t int_least8_t;
typedef int16_t int_least16_t;

typedef int24_t int_least24_t;
typedef int24_t int_fast24_t;

typedef int32_t int_least32_t;

typedef int64_t int_least64_t;


typedef uint8_t uint_fast8_t;

typedef uint64_t uint_fast64_t;


typedef uint8_t uint_least8_t;
typedef uint16_t uint_least16_t;

typedef uint24_t uint_least24_t;
typedef uint24_t uint_fast24_t;

typedef uint32_t uint_least32_t;

typedef uint64_t uint_least64_t;
# 144 "C:\\Program Files\\Microchip\\xc8\\v2.32\\pic\\include\\c99\\stdint.h" 3
# 1 "C:\\Program Files\\Microchip\\xc8\\v2.32\\pic\\include\\c99\\bits/stdint.h" 1 3
typedef int16_t int_fast16_t;
typedef int32_t int_fast32_t;
typedef uint16_t uint_fast16_t;
typedef uint32_t uint_fast32_t;
# 144 "C:\\Program Files\\Microchip\\xc8\\v2.32\\pic\\include\\c99\\stdint.h" 2 3
# 52 "C:/Users/Brian/Documents/Projects/OOI/LithiumBatteryInterface/Firmware/SCD41.X/sensirion_config.h" 2
# 75 "C:/Users/Brian/Documents/Projects/OOI/LithiumBatteryInterface/Firmware/SCD41.X/sensirion_config.h"
# 1 "C:\\Program Files\\Microchip\\xc8\\v2.32\\pic\\include\\c99\\stdbool.h" 1 3
# 76 "C:/Users/Brian/Documents/Projects/OOI/LithiumBatteryInterface/Firmware/SCD41.X/sensirion_config.h" 2
# 36 "C:/Users/Brian/Documents/Projects/OOI/LithiumBatteryInterface/Firmware/SCD41.X/sensirion_i2c_hal.h" 2
# 51 "C:/Users/Brian/Documents/Projects/OOI/LithiumBatteryInterface/Firmware/SCD41.X/sensirion_i2c_hal.h"
int16_t sensirion_i2c_hal_select_bus(uint8_t bus_idx);





void sensirion_i2c_hal_init(void);




void sensirion_i2c_hal_free(void);
# 74 "C:/Users/Brian/Documents/Projects/OOI/LithiumBatteryInterface/Firmware/SCD41.X/sensirion_i2c_hal.h"
int8_t sensirion_i2c_hal_read(uint8_t address, uint8_t* data, uint16_t count);
# 87 "C:/Users/Brian/Documents/Projects/OOI/LithiumBatteryInterface/Firmware/SCD41.X/sensirion_i2c_hal.h"
int8_t sensirion_i2c_hal_write(uint8_t address, const uint8_t* data,
                               uint16_t count);
# 106 "C:/Users/Brian/Documents/Projects/OOI/LithiumBatteryInterface/Firmware/SCD41.X/sensirion_i2c_hal.h"
void sensirion_i2c_hal_sleep_usec(uint32_t useconds);
# 33 "C:/Users/Brian/Documents/Projects/OOI/LithiumBatteryInterface/Firmware/SCD41.X/sensirion_i2c_hal.c" 2
# 1 "C:/Users/Brian/Documents/Projects/OOI/LithiumBatteryInterface/Firmware/SCD41.X/sensirion_common.h" 1
# 62 "C:/Users/Brian/Documents/Projects/OOI/LithiumBatteryInterface/Firmware/SCD41.X/sensirion_common.h"
int16_t sensirion_common_bytes_to_int16_t(const uint8_t* bytes);
# 73 "C:/Users/Brian/Documents/Projects/OOI/LithiumBatteryInterface/Firmware/SCD41.X/sensirion_common.h"
int32_t sensirion_common_bytes_to_int32_t(const uint8_t* bytes);
# 85 "C:/Users/Brian/Documents/Projects/OOI/LithiumBatteryInterface/Firmware/SCD41.X/sensirion_common.h"
uint16_t sensirion_common_bytes_to_uint16_t(const uint8_t* bytes);
# 97 "C:/Users/Brian/Documents/Projects/OOI/LithiumBatteryInterface/Firmware/SCD41.X/sensirion_common.h"
uint32_t sensirion_common_bytes_to_uint32_t(const uint8_t* bytes);
# 108 "C:/Users/Brian/Documents/Projects/OOI/LithiumBatteryInterface/Firmware/SCD41.X/sensirion_common.h"
float sensirion_common_bytes_to_float(const uint8_t* bytes);
# 120 "C:/Users/Brian/Documents/Projects/OOI/LithiumBatteryInterface/Firmware/SCD41.X/sensirion_common.h"
void sensirion_common_uint32_t_to_bytes(const uint32_t value, uint8_t* bytes);
# 132 "C:/Users/Brian/Documents/Projects/OOI/LithiumBatteryInterface/Firmware/SCD41.X/sensirion_common.h"
void sensirion_common_uint16_t_to_bytes(const uint16_t value, uint8_t* bytes);
# 143 "C:/Users/Brian/Documents/Projects/OOI/LithiumBatteryInterface/Firmware/SCD41.X/sensirion_common.h"
void sensirion_common_int32_t_to_bytes(const int32_t value, uint8_t* bytes);
# 154 "C:/Users/Brian/Documents/Projects/OOI/LithiumBatteryInterface/Firmware/SCD41.X/sensirion_common.h"
void sensirion_common_int16_t_to_bytes(const int16_t value, uint8_t* bytes);
# 165 "C:/Users/Brian/Documents/Projects/OOI/LithiumBatteryInterface/Firmware/SCD41.X/sensirion_common.h"
void sensirion_common_float_to_bytes(const float value, uint8_t* bytes);
# 174 "C:/Users/Brian/Documents/Projects/OOI/LithiumBatteryInterface/Firmware/SCD41.X/sensirion_common.h"
void sensirion_common_copy_bytes(const uint8_t* source, uint8_t* destination,
                                 uint16_t data_length);
# 34 "C:/Users/Brian/Documents/Projects/OOI/LithiumBatteryInterface/Firmware/SCD41.X/sensirion_i2c_hal.c" 2
# 54 "C:/Users/Brian/Documents/Projects/OOI/LithiumBatteryInterface/Firmware/SCD41.X/sensirion_i2c_hal.c"
int16_t sensirion_i2c_hal_select_bus(uint8_t bus_idx) {



    return 31;
}





void sensirion_i2c_hal_init(void) {

}




void sensirion_i2c_hal_free(void) {

}
# 86 "C:/Users/Brian/Documents/Projects/OOI/LithiumBatteryInterface/Firmware/SCD41.X/sensirion_i2c_hal.c"
int8_t sensirion_i2c_hal_read(uint8_t address, uint8_t* data, uint16_t count) {

    return 31;
}
# 102 "C:/Users/Brian/Documents/Projects/OOI/LithiumBatteryInterface/Firmware/SCD41.X/sensirion_i2c_hal.c"
int8_t sensirion_i2c_hal_write(uint8_t address, const uint8_t* data,
                               uint16_t count) {

    return 31;
}
# 116 "C:/Users/Brian/Documents/Projects/OOI/LithiumBatteryInterface/Firmware/SCD41.X/sensirion_i2c_hal.c"
void sensirion_i2c_hal_sleep_usec(uint32_t useconds) {

}
