%TF.GenerationSoftware,KiCad,Pcbnew,(5.1.10)-1*%
%TF.CreationDate,2021-09-09T22:09:11-04:00*%
%TF.ProjectId,PLB,504c422e-6b69-4636-9164-5f7063625858,3*%
%TF.SameCoordinates,Original*%
%TF.FileFunction,Copper,L2,Bot*%
%TF.FilePolarity,Positive*%
%FSLAX46Y46*%
G04 Gerber Fmt 4.6, Leading zero omitted, Abs format (unit mm)*
G04 Created by KiCad (PCBNEW (5.1.10)-1) date 2021-09-09 22:09:11*
%MOMM*%
%LPD*%
G01*
G04 APERTURE LIST*
%TA.AperFunction,ComponentPad*%
%ADD10O,1.700000X1.700000*%
%TD*%
%TA.AperFunction,ComponentPad*%
%ADD11R,1.700000X1.700000*%
%TD*%
%TA.AperFunction,ComponentPad*%
%ADD12O,2.700000X3.700000*%
%TD*%
%TA.AperFunction,ComponentPad*%
%ADD13O,3.700000X2.700000*%
%TD*%
%TA.AperFunction,SMDPad,CuDef*%
%ADD14R,2.000000X4.500000*%
%TD*%
%TA.AperFunction,ComponentPad*%
%ADD15C,1.320800*%
%TD*%
%TA.AperFunction,ComponentPad*%
%ADD16O,2.020000X1.500000*%
%TD*%
%TA.AperFunction,ComponentPad*%
%ADD17C,1.900000*%
%TD*%
%TA.AperFunction,ComponentPad*%
%ADD18R,1.900000X1.900000*%
%TD*%
%TA.AperFunction,ComponentPad*%
%ADD19C,1.500000*%
%TD*%
%TA.AperFunction,ComponentPad*%
%ADD20O,1.500000X2.020000*%
%TD*%
%TA.AperFunction,ComponentPad*%
%ADD21C,2.020000*%
%TD*%
%TA.AperFunction,ComponentPad*%
%ADD22C,2.000000*%
%TD*%
%TA.AperFunction,ComponentPad*%
%ADD23R,2.000000X2.000000*%
%TD*%
%TA.AperFunction,SMDPad,CuDef*%
%ADD24R,1.900000X2.900000*%
%TD*%
%TA.AperFunction,ComponentPad*%
%ADD25C,0.500000*%
%TD*%
%TA.AperFunction,ViaPad*%
%ADD26C,0.800000*%
%TD*%
%TA.AperFunction,ViaPad*%
%ADD27C,1.270000*%
%TD*%
%TA.AperFunction,Conductor*%
%ADD28C,0.250000*%
%TD*%
%TA.AperFunction,Conductor*%
%ADD29C,3.810000*%
%TD*%
%TA.AperFunction,Conductor*%
%ADD30C,1.524000*%
%TD*%
%TA.AperFunction,Conductor*%
%ADD31C,0.508000*%
%TD*%
G04 APERTURE END LIST*
%TO.P,C4,2*%
%TO.N,/GND*%
%TA.AperFunction,SMDPad,CuDef*%
G36*
G01*
X228992420Y-133179300D02*
X229467420Y-133179300D01*
G75*
G02*
X229704920Y-133416800I0J-237500D01*
G01*
X229704920Y-133991800D01*
G75*
G02*
X229467420Y-134229300I-237500J0D01*
G01*
X228992420Y-134229300D01*
G75*
G02*
X228754920Y-133991800I0J237500D01*
G01*
X228754920Y-133416800D01*
G75*
G02*
X228992420Y-133179300I237500J0D01*
G01*
G37*
%TD.AperFunction*%
%TO.P,C4,1*%
%TO.N,Net-(C4-Pad1)*%
%TA.AperFunction,SMDPad,CuDef*%
G36*
G01*
X228992420Y-131429300D02*
X229467420Y-131429300D01*
G75*
G02*
X229704920Y-131666800I0J-237500D01*
G01*
X229704920Y-132241800D01*
G75*
G02*
X229467420Y-132479300I-237500J0D01*
G01*
X228992420Y-132479300D01*
G75*
G02*
X228754920Y-132241800I0J237500D01*
G01*
X228754920Y-131666800D01*
G75*
G02*
X228992420Y-131429300I237500J0D01*
G01*
G37*
%TD.AperFunction*%
%TD*%
%TO.P,C5,2*%
%TO.N,/GND*%
%TA.AperFunction,SMDPad,CuDef*%
G36*
G01*
X229467420Y-138295900D02*
X228992420Y-138295900D01*
G75*
G02*
X228754920Y-138058400I0J237500D01*
G01*
X228754920Y-137483400D01*
G75*
G02*
X228992420Y-137245900I237500J0D01*
G01*
X229467420Y-137245900D01*
G75*
G02*
X229704920Y-137483400I0J-237500D01*
G01*
X229704920Y-138058400D01*
G75*
G02*
X229467420Y-138295900I-237500J0D01*
G01*
G37*
%TD.AperFunction*%
%TO.P,C5,1*%
%TO.N,Net-(C5-Pad1)*%
%TA.AperFunction,SMDPad,CuDef*%
G36*
G01*
X229467420Y-140045900D02*
X228992420Y-140045900D01*
G75*
G02*
X228754920Y-139808400I0J237500D01*
G01*
X228754920Y-139233400D01*
G75*
G02*
X228992420Y-138995900I237500J0D01*
G01*
X229467420Y-138995900D01*
G75*
G02*
X229704920Y-139233400I0J-237500D01*
G01*
X229704920Y-139808400D01*
G75*
G02*
X229467420Y-140045900I-237500J0D01*
G01*
G37*
%TD.AperFunction*%
%TD*%
D10*
%TO.P,J2,6*%
%TO.N,N/C*%
X252851920Y-142748000D03*
%TO.P,J2,5*%
%TO.N,/PGD*%
X252851920Y-140208000D03*
%TO.P,J2,4*%
%TO.N,/PGC*%
X252851920Y-137668000D03*
%TO.P,J2,3*%
%TO.N,/GND*%
X252851920Y-135128000D03*
%TO.P,J2,2*%
%TO.N,/5V*%
X252851920Y-132588000D03*
D11*
%TO.P,J2,1*%
%TO.N,/MCLR\u005C*%
X252851920Y-130048000D03*
%TD*%
D12*
%TO.P,BT12,8*%
%TO.N,/#12_CHG-*%
X216375920Y-188810000D03*
%TO.P,BT12,7*%
%TO.N,/#12_CHG+*%
X220575920Y-188810000D03*
%TO.P,BT12,6*%
%TO.N,/BATT-*%
X224775920Y-188810000D03*
%TO.P,BT12,5*%
%TO.N,/STC_BATT+*%
X228975920Y-188810000D03*
%TO.P,BT12,4*%
%TO.N,/#12_CLK*%
X216375920Y-194310000D03*
%TO.P,BT12,3*%
%TO.N,/#12_SDA*%
X220575920Y-194310000D03*
%TO.P,BT12,2*%
%TO.N,/GND*%
X224775920Y-194310000D03*
%TO.P,BT12,1*%
%TO.N,/SHIELD*%
%TA.AperFunction,ComponentPad*%
G36*
G01*
X230325920Y-192710001D02*
X230325920Y-195909999D01*
G75*
G02*
X230075919Y-196160000I-250001J0D01*
G01*
X227875921Y-196160000D01*
G75*
G02*
X227625920Y-195909999I0J250001D01*
G01*
X227625920Y-192710001D01*
G75*
G02*
X227875921Y-192460000I250001J0D01*
G01*
X230075919Y-192460000D01*
G75*
G02*
X230325920Y-192710001I0J-250001D01*
G01*
G37*
%TD.AperFunction*%
%TD*%
%TO.P,BT8,8*%
%TO.N,/#8_CHG-*%
X135095920Y-188810000D03*
%TO.P,BT8,7*%
%TO.N,/#8_CHG+*%
X139295920Y-188810000D03*
%TO.P,BT8,6*%
%TO.N,/BATT-*%
X143495920Y-188810000D03*
%TO.P,BT8,5*%
%TO.N,/STC_BATT+*%
X147695920Y-188810000D03*
%TO.P,BT8,4*%
%TO.N,N/C*%
X135095920Y-194310000D03*
%TO.P,BT8,3*%
X139295920Y-194310000D03*
%TO.P,BT8,2*%
%TO.N,/GND*%
X143495920Y-194310000D03*
%TO.P,BT8,1*%
%TO.N,/SHIELD*%
%TA.AperFunction,ComponentPad*%
G36*
G01*
X149045920Y-192710001D02*
X149045920Y-195909999D01*
G75*
G02*
X148795919Y-196160000I-250001J0D01*
G01*
X146595921Y-196160000D01*
G75*
G02*
X146345920Y-195909999I0J250001D01*
G01*
X146345920Y-192710001D01*
G75*
G02*
X146595921Y-192460000I250001J0D01*
G01*
X148795919Y-192460000D01*
G75*
G02*
X149045920Y-192710001I0J-250001D01*
G01*
G37*
%TD.AperFunction*%
%TD*%
%TO.P,BT11,8*%
%TO.N,/#11_CHG-*%
X196055920Y-188810000D03*
%TO.P,BT11,7*%
%TO.N,/#11_CHG+*%
X200255920Y-188810000D03*
%TO.P,BT11,6*%
%TO.N,/BATT-*%
X204455920Y-188810000D03*
%TO.P,BT11,5*%
%TO.N,/STC_BATT+*%
X208655920Y-188810000D03*
%TO.P,BT11,4*%
%TO.N,/#11_CLK*%
X196055920Y-194310000D03*
%TO.P,BT11,3*%
%TO.N,/#11_SDA*%
X200255920Y-194310000D03*
%TO.P,BT11,2*%
%TO.N,/GND*%
X204455920Y-194310000D03*
%TO.P,BT11,1*%
%TO.N,/SHIELD*%
%TA.AperFunction,ComponentPad*%
G36*
G01*
X210005920Y-192710001D02*
X210005920Y-195909999D01*
G75*
G02*
X209755919Y-196160000I-250001J0D01*
G01*
X207555921Y-196160000D01*
G75*
G02*
X207305920Y-195909999I0J250001D01*
G01*
X207305920Y-192710001D01*
G75*
G02*
X207555921Y-192460000I250001J0D01*
G01*
X209755919Y-192460000D01*
G75*
G02*
X210005920Y-192710001I0J-250001D01*
G01*
G37*
%TD.AperFunction*%
%TD*%
%TO.P,BT6,8*%
%TO.N,/#6_CHG-*%
X126900000Y-90336000D03*
%TO.P,BT6,7*%
%TO.N,/#6_CHG+*%
X122700000Y-90336000D03*
%TO.P,BT6,6*%
%TO.N,/BATT-*%
X118500000Y-90336000D03*
%TO.P,BT6,5*%
%TO.N,/RTE_BATT+*%
X114300000Y-90336000D03*
%TO.P,BT6,4*%
%TO.N,N/C*%
X126900000Y-84836000D03*
%TO.P,BT6,3*%
X122700000Y-84836000D03*
%TO.P,BT6,2*%
%TO.N,/GND*%
X118500000Y-84836000D03*
%TO.P,BT6,1*%
%TO.N,/SHIELD*%
%TA.AperFunction,ComponentPad*%
G36*
G01*
X112950000Y-86435999D02*
X112950000Y-83236001D01*
G75*
G02*
X113200001Y-82986000I250001J0D01*
G01*
X115399999Y-82986000D01*
G75*
G02*
X115650000Y-83236001I0J-250001D01*
G01*
X115650000Y-86435999D01*
G75*
G02*
X115399999Y-86686000I-250001J0D01*
G01*
X113200001Y-86686000D01*
G75*
G02*
X112950000Y-86435999I0J250001D01*
G01*
G37*
%TD.AperFunction*%
%TD*%
%TO.P,BT7,8*%
%TO.N,/#7_CHG-*%
X114775920Y-188810000D03*
%TO.P,BT7,7*%
%TO.N,/#7_CHG+*%
X118975920Y-188810000D03*
%TO.P,BT7,6*%
%TO.N,/BATT-*%
X123175920Y-188810000D03*
%TO.P,BT7,5*%
%TO.N,/STC_BATT+*%
X127375920Y-188810000D03*
%TO.P,BT7,4*%
%TO.N,N/C*%
X114775920Y-194310000D03*
%TO.P,BT7,3*%
X118975920Y-194310000D03*
%TO.P,BT7,2*%
%TO.N,/GND*%
X123175920Y-194310000D03*
%TO.P,BT7,1*%
%TO.N,/SHIELD*%
%TA.AperFunction,ComponentPad*%
G36*
G01*
X128725920Y-192710001D02*
X128725920Y-195909999D01*
G75*
G02*
X128475919Y-196160000I-250001J0D01*
G01*
X126275921Y-196160000D01*
G75*
G02*
X126025920Y-195909999I0J250001D01*
G01*
X126025920Y-192710001D01*
G75*
G02*
X126275921Y-192460000I250001J0D01*
G01*
X128475919Y-192460000D01*
G75*
G02*
X128725920Y-192710001I0J-250001D01*
G01*
G37*
%TD.AperFunction*%
%TD*%
%TO.P,BT5,8*%
%TO.N,/#5_CHG-*%
X147220000Y-90336000D03*
%TO.P,BT5,7*%
%TO.N,/#5_CHG+*%
X143020000Y-90336000D03*
%TO.P,BT5,6*%
%TO.N,/BATT-*%
X138820000Y-90336000D03*
%TO.P,BT5,5*%
%TO.N,/RTE_BATT+*%
X134620000Y-90336000D03*
%TO.P,BT5,4*%
%TO.N,N/C*%
X147220000Y-84836000D03*
%TO.P,BT5,3*%
X143020000Y-84836000D03*
%TO.P,BT5,2*%
%TO.N,/GND*%
X138820000Y-84836000D03*
%TO.P,BT5,1*%
%TO.N,/SHIELD*%
%TA.AperFunction,ComponentPad*%
G36*
G01*
X133270000Y-86435999D02*
X133270000Y-83236001D01*
G75*
G02*
X133520001Y-82986000I250001J0D01*
G01*
X135719999Y-82986000D01*
G75*
G02*
X135970000Y-83236001I0J-250001D01*
G01*
X135970000Y-86435999D01*
G75*
G02*
X135719999Y-86686000I-250001J0D01*
G01*
X133520001Y-86686000D01*
G75*
G02*
X133270000Y-86435999I0J250001D01*
G01*
G37*
%TD.AperFunction*%
%TD*%
%TO.P,BT4,8*%
%TO.N,/#4_CHG-*%
X167540000Y-90336000D03*
%TO.P,BT4,7*%
%TO.N,/#4_CHG+*%
X163340000Y-90336000D03*
%TO.P,BT4,6*%
%TO.N,/BATT-*%
X159140000Y-90336000D03*
%TO.P,BT4,5*%
%TO.N,/STC_BATT+*%
X154940000Y-90336000D03*
%TO.P,BT4,4*%
%TO.N,N/C*%
X167540000Y-84836000D03*
%TO.P,BT4,3*%
X163340000Y-84836000D03*
%TO.P,BT4,2*%
%TO.N,/GND*%
X159140000Y-84836000D03*
%TO.P,BT4,1*%
%TO.N,/SHIELD*%
%TA.AperFunction,ComponentPad*%
G36*
G01*
X153590000Y-86435999D02*
X153590000Y-83236001D01*
G75*
G02*
X153840001Y-82986000I250001J0D01*
G01*
X156039999Y-82986000D01*
G75*
G02*
X156290000Y-83236001I0J-250001D01*
G01*
X156290000Y-86435999D01*
G75*
G02*
X156039999Y-86686000I-250001J0D01*
G01*
X153840001Y-86686000D01*
G75*
G02*
X153590000Y-86435999I0J250001D01*
G01*
G37*
%TD.AperFunction*%
%TD*%
%TO.P,BT10,8*%
%TO.N,/#10_CHG-*%
X175944200Y-188810000D03*
%TO.P,BT10,7*%
%TO.N,/#10_CHG+*%
X180144200Y-188810000D03*
%TO.P,BT10,6*%
%TO.N,/BATT-*%
X184344200Y-188810000D03*
%TO.P,BT10,5*%
%TO.N,/STC_BATT+*%
X188544200Y-188810000D03*
%TO.P,BT10,4*%
%TO.N,/#10_CLK*%
X175944200Y-194310000D03*
%TO.P,BT10,3*%
%TO.N,/#10_SDA*%
X180144200Y-194310000D03*
%TO.P,BT10,2*%
%TO.N,/GND*%
X184344200Y-194310000D03*
%TO.P,BT10,1*%
%TO.N,/SHIELD*%
%TA.AperFunction,ComponentPad*%
G36*
G01*
X189894200Y-192710001D02*
X189894200Y-195909999D01*
G75*
G02*
X189644199Y-196160000I-250001J0D01*
G01*
X187444201Y-196160000D01*
G75*
G02*
X187194200Y-195909999I0J250001D01*
G01*
X187194200Y-192710001D01*
G75*
G02*
X187444201Y-192460000I250001J0D01*
G01*
X189644199Y-192460000D01*
G75*
G02*
X189894200Y-192710001I0J-250001D01*
G01*
G37*
%TD.AperFunction*%
%TD*%
%TO.P,BT3,8*%
%TO.N,/#3_CHG-*%
X187860000Y-90336000D03*
%TO.P,BT3,7*%
%TO.N,/#3_CHG+*%
X183660000Y-90336000D03*
%TO.P,BT3,6*%
%TO.N,/BATT-*%
X179460000Y-90336000D03*
%TO.P,BT3,5*%
%TO.N,/STC_BATT+*%
X175260000Y-90336000D03*
%TO.P,BT3,4*%
%TO.N,N/C*%
X187860000Y-84836000D03*
%TO.P,BT3,3*%
X183660000Y-84836000D03*
%TO.P,BT3,2*%
%TO.N,/GND*%
X179460000Y-84836000D03*
%TO.P,BT3,1*%
%TO.N,/SHIELD*%
%TA.AperFunction,ComponentPad*%
G36*
G01*
X173910000Y-86435999D02*
X173910000Y-83236001D01*
G75*
G02*
X174160001Y-82986000I250001J0D01*
G01*
X176359999Y-82986000D01*
G75*
G02*
X176610000Y-83236001I0J-250001D01*
G01*
X176610000Y-86435999D01*
G75*
G02*
X176359999Y-86686000I-250001J0D01*
G01*
X174160001Y-86686000D01*
G75*
G02*
X173910000Y-86435999I0J250001D01*
G01*
G37*
%TD.AperFunction*%
%TD*%
%TO.P,BT2,8*%
%TO.N,/#2_CHG-*%
X208180000Y-90336000D03*
%TO.P,BT2,7*%
%TO.N,/#2_CHG+*%
X203980000Y-90336000D03*
%TO.P,BT2,6*%
%TO.N,/BATT-*%
X199780000Y-90336000D03*
%TO.P,BT2,5*%
%TO.N,/STC_BATT+*%
X195580000Y-90336000D03*
%TO.P,BT2,4*%
%TO.N,N/C*%
X208180000Y-84836000D03*
%TO.P,BT2,3*%
X203980000Y-84836000D03*
%TO.P,BT2,2*%
%TO.N,/GND*%
X199780000Y-84836000D03*
%TO.P,BT2,1*%
%TO.N,/SHIELD*%
%TA.AperFunction,ComponentPad*%
G36*
G01*
X194230000Y-86435999D02*
X194230000Y-83236001D01*
G75*
G02*
X194480001Y-82986000I250001J0D01*
G01*
X196679999Y-82986000D01*
G75*
G02*
X196930000Y-83236001I0J-250001D01*
G01*
X196930000Y-86435999D01*
G75*
G02*
X196679999Y-86686000I-250001J0D01*
G01*
X194480001Y-86686000D01*
G75*
G02*
X194230000Y-86435999I0J250001D01*
G01*
G37*
%TD.AperFunction*%
%TD*%
D13*
%TO.P,J16,2*%
%TO.N,/RTE_BATT+*%
X101379920Y-84836000D03*
%TO.P,J16,1*%
%TO.N,/BATT-*%
%TA.AperFunction,ComponentPad*%
G36*
G01*
X97479919Y-86186000D02*
X94279921Y-86186000D01*
G75*
G02*
X94029920Y-85935999I0J250001D01*
G01*
X94029920Y-83736001D01*
G75*
G02*
X94279921Y-83486000I250001J0D01*
G01*
X97479919Y-83486000D01*
G75*
G02*
X97729920Y-83736001I0J-250001D01*
G01*
X97729920Y-85935999D01*
G75*
G02*
X97479919Y-86186000I-250001J0D01*
G01*
G37*
%TD.AperFunction*%
%TD*%
D14*
%TO.P,Y1,2*%
%TO.N,Net-(C5-Pad1)*%
X225593421Y-139855712D03*
%TO.P,Y1,1*%
%TO.N,Net-(C4-Pad1)*%
X225593421Y-131355712D03*
%TD*%
D12*
%TO.P,BT9,8*%
%TO.N,/#9_CHG-*%
X155415920Y-188810000D03*
%TO.P,BT9,7*%
%TO.N,/#9_CHG+*%
X159615920Y-188810000D03*
%TO.P,BT9,6*%
%TO.N,/BATT-*%
X163815920Y-188810000D03*
%TO.P,BT9,5*%
%TO.N,/STC_BATT+*%
X168015920Y-188810000D03*
%TO.P,BT9,4*%
%TO.N,/#9_CLK*%
X155415920Y-194310000D03*
%TO.P,BT9,3*%
%TO.N,/#9_SDA*%
X159615920Y-194310000D03*
%TO.P,BT9,2*%
%TO.N,/GND*%
X163815920Y-194310000D03*
%TO.P,BT9,1*%
%TO.N,/SHIELD*%
%TA.AperFunction,ComponentPad*%
G36*
G01*
X169365920Y-192710001D02*
X169365920Y-195909999D01*
G75*
G02*
X169115919Y-196160000I-250001J0D01*
G01*
X166915921Y-196160000D01*
G75*
G02*
X166665920Y-195909999I0J250001D01*
G01*
X166665920Y-192710001D01*
G75*
G02*
X166915921Y-192460000I250001J0D01*
G01*
X169115919Y-192460000D01*
G75*
G02*
X169365920Y-192710001I0J-250001D01*
G01*
G37*
%TD.AperFunction*%
%TD*%
D15*
%TO.P,U6,8*%
%TO.N,N/C*%
X135757920Y-121158001D03*
%TO.P,U6,7*%
%TO.N,/GND*%
X133217920Y-121158001D03*
%TO.P,U6,6*%
%TO.N,Net-(L1-Pad2)*%
X130677920Y-121158001D03*
%TO.P,U6,3*%
%TO.N,/STC_BATT+*%
X123057920Y-121158001D03*
%TO.P,U6,2*%
X120517920Y-121158001D03*
%TO.P,U6,1*%
%TO.N,/BATT-*%
X117977920Y-121158001D03*
%TD*%
D16*
%TO.P,J3,5*%
%TO.N,/GND*%
X91053920Y-159450000D03*
%TO.P,J3,4*%
%TO.N,/BATT_TXD*%
X91053920Y-162450000D03*
%TO.P,J3,3*%
%TO.N,/BATT_RXD*%
X91053920Y-165450000D03*
%TO.P,J3,2*%
%TO.N,/5V*%
X91053920Y-168450000D03*
%TO.P,J3,1*%
%TO.N,/ISO_5V_OUT*%
%TA.AperFunction,ComponentPad*%
G36*
G01*
X91813920Y-172200000D02*
X90293920Y-172200000D01*
G75*
G02*
X90043920Y-171950000I0J250000D01*
G01*
X90043920Y-170950000D01*
G75*
G02*
X90293920Y-170700000I250000J0D01*
G01*
X91813920Y-170700000D01*
G75*
G02*
X92063920Y-170950000I0J-250000D01*
G01*
X92063920Y-171950000D01*
G75*
G02*
X91813920Y-172200000I-250000J0D01*
G01*
G37*
%TD.AperFunction*%
%TD*%
D17*
%TO.P,J4,2*%
%TO.N,/#7_CHG-*%
X113493921Y-177800000D03*
D18*
%TO.P,J4,1*%
%TO.N,/#7_CHG+*%
X118993920Y-177800000D03*
%TD*%
D17*
%TO.P,J5,2*%
%TO.N,/#9_CHG-*%
X154133921Y-177038000D03*
D18*
%TO.P,J5,1*%
%TO.N,/#9_CHG+*%
X159633920Y-177038000D03*
%TD*%
D17*
%TO.P,J6,2*%
%TO.N,/#8_CHG-*%
X133692001Y-177546000D03*
D18*
%TO.P,J6,1*%
%TO.N,/#8_CHG+*%
X139192000Y-177546000D03*
%TD*%
D17*
%TO.P,J7,2*%
%TO.N,/#10_CHG-*%
X174707921Y-177292000D03*
D18*
%TO.P,J7,1*%
%TO.N,/#10_CHG+*%
X180207920Y-177292000D03*
%TD*%
D17*
%TO.P,J8,2*%
%TO.N,/#6_CHG-*%
X128303919Y-101600000D03*
D18*
%TO.P,J8,1*%
%TO.N,/#6_CHG+*%
X122803920Y-101600000D03*
%TD*%
D17*
%TO.P,J9,2*%
%TO.N,/#11_CHG-*%
X194519921Y-176784000D03*
D18*
%TO.P,J9,1*%
%TO.N,/#11_CHG+*%
X200019920Y-176784000D03*
%TD*%
D17*
%TO.P,J10,2*%
%TO.N,/#5_CHG-*%
X148369919Y-101600000D03*
D18*
%TO.P,J10,1*%
%TO.N,/#5_CHG+*%
X142869920Y-101600000D03*
%TD*%
D17*
%TO.P,J11,2*%
%TO.N,/#4_CHG-*%
X168689919Y-101600000D03*
D18*
%TO.P,J11,1*%
%TO.N,/#4_CHG+*%
X163189920Y-101600000D03*
%TD*%
D17*
%TO.P,J13,2*%
%TO.N,/#3_CHG-*%
X188755919Y-101600000D03*
D18*
%TO.P,J13,1*%
%TO.N,/#3_CHG+*%
X183255920Y-101600000D03*
%TD*%
D17*
%TO.P,J14,2*%
%TO.N,/#2_CHG-*%
X209583919Y-101600000D03*
D18*
%TO.P,J14,1*%
%TO.N,/#2_CHG+*%
X204083920Y-101600000D03*
%TD*%
D17*
%TO.P,J15,2*%
%TO.N,/#1_CHG-*%
X230157919Y-101600000D03*
D18*
%TO.P,J15,1*%
%TO.N,/#1_CHG+*%
X224657920Y-101600000D03*
%TD*%
D19*
%TO.P,J19,4*%
%TO.N,/LEAK-2_RTN*%
X94053920Y-113078000D03*
%TO.P,J19,3*%
%TO.N,/LEAK-2*%
X94053920Y-116078000D03*
%TO.P,J19,2*%
%TO.N,/LEAK-1_RTN*%
X91053920Y-113078000D03*
%TO.P,J19,1*%
%TO.N,/LEAK-1*%
%TA.AperFunction,ComponentPad*%
G36*
G01*
X91553920Y-116828000D02*
X90553920Y-116828000D01*
G75*
G02*
X90303920Y-116578000I0J250000D01*
G01*
X90303920Y-115578000D01*
G75*
G02*
X90553920Y-115328000I250000J0D01*
G01*
X91553920Y-115328000D01*
G75*
G02*
X91803920Y-115578000I0J-250000D01*
G01*
X91803920Y-116578000D01*
G75*
G02*
X91553920Y-116828000I-250000J0D01*
G01*
G37*
%TD.AperFunction*%
%TD*%
D13*
%TO.P,J1,12*%
%TO.N,/STC_BATT+*%
X101379920Y-127082000D03*
%TO.P,J1,11*%
X101379920Y-131282000D03*
%TO.P,J1,10*%
%TO.N,/BATT-*%
X101379920Y-135482000D03*
%TO.P,J1,9*%
X101379920Y-139682000D03*
%TO.P,J1,8*%
%TO.N,/GND*%
X101379920Y-143882000D03*
%TO.P,J1,7*%
%TO.N,/BATT_TXD*%
X101379920Y-148082000D03*
%TO.P,J1,6*%
%TO.N,/BATT_RXD*%
X95879920Y-127082000D03*
%TO.P,J1,5*%
%TO.N,/STC_5V*%
X95879920Y-131282000D03*
%TO.P,J1,4*%
%TO.N,/LEAK-2_RTN*%
X95879920Y-135482000D03*
%TO.P,J1,3*%
%TO.N,/LEAK-2*%
X95879920Y-139682000D03*
%TO.P,J1,2*%
%TO.N,/LEAK-1*%
X95879920Y-143882000D03*
%TO.P,J1,1*%
%TO.N,/LEAK-1_RTN*%
%TA.AperFunction,ComponentPad*%
G36*
G01*
X97479919Y-149432000D02*
X94279921Y-149432000D01*
G75*
G02*
X94029920Y-149181999I0J250001D01*
G01*
X94029920Y-146982001D01*
G75*
G02*
X94279921Y-146732000I250001J0D01*
G01*
X97479919Y-146732000D01*
G75*
G02*
X97729920Y-146982001I0J-250001D01*
G01*
X97729920Y-149181999D01*
G75*
G02*
X97479919Y-149432000I-250001J0D01*
G01*
G37*
%TD.AperFunction*%
%TD*%
%TO.P,BT1,1*%
%TO.N,/SHIELD*%
%TA.AperFunction,ComponentPad*%
G36*
G01*
X214550000Y-86435999D02*
X214550000Y-83236001D01*
G75*
G02*
X214800001Y-82986000I250001J0D01*
G01*
X216999999Y-82986000D01*
G75*
G02*
X217250000Y-83236001I0J-250001D01*
G01*
X217250000Y-86435999D01*
G75*
G02*
X216999999Y-86686000I-250001J0D01*
G01*
X214800001Y-86686000D01*
G75*
G02*
X214550000Y-86435999I0J250001D01*
G01*
G37*
%TD.AperFunction*%
D12*
%TO.P,BT1,2*%
%TO.N,/GND*%
X220100000Y-84836000D03*
%TO.P,BT1,3*%
%TO.N,N/C*%
X224300000Y-84836000D03*
%TO.P,BT1,4*%
X228500000Y-84836000D03*
%TO.P,BT1,5*%
%TO.N,/STC_BATT+*%
X215900000Y-90336000D03*
%TO.P,BT1,6*%
%TO.N,/BATT-*%
X220100000Y-90336000D03*
%TO.P,BT1,7*%
%TO.N,/#1_CHG+*%
X224300000Y-90336000D03*
%TO.P,BT1,8*%
%TO.N,/#1_CHG-*%
X228500000Y-90336000D03*
%TD*%
D16*
%TO.P,J17,3*%
%TO.N,/GND*%
X253867920Y-171100000D03*
%TO.P,J17,2*%
%TO.N,Net-(J17-Pad2)*%
X253867920Y-168100000D03*
%TO.P,J17,1*%
%TO.N,/5V*%
%TA.AperFunction,ComponentPad*%
G36*
G01*
X253107920Y-164350000D02*
X254627920Y-164350000D01*
G75*
G02*
X254877920Y-164600000I0J-250000D01*
G01*
X254877920Y-165600000D01*
G75*
G02*
X254627920Y-165850000I-250000J0D01*
G01*
X253107920Y-165850000D01*
G75*
G02*
X252857920Y-165600000I0J250000D01*
G01*
X252857920Y-164600000D01*
G75*
G02*
X253107920Y-164350000I250000J0D01*
G01*
G37*
%TD.AperFunction*%
%TD*%
%TO.P,J20,3*%
%TO.N,/GND*%
X254121920Y-197770000D03*
%TO.P,J20,2*%
%TO.N,Net-(J20-Pad2)*%
X254121920Y-194770000D03*
%TO.P,J20,1*%
%TO.N,/5V*%
%TA.AperFunction,ComponentPad*%
G36*
G01*
X253361920Y-191020000D02*
X254881920Y-191020000D01*
G75*
G02*
X255131920Y-191270000I0J-250000D01*
G01*
X255131920Y-192270000D01*
G75*
G02*
X254881920Y-192520000I-250000J0D01*
G01*
X253361920Y-192520000D01*
G75*
G02*
X253111920Y-192270000I0J250000D01*
G01*
X253111920Y-191270000D01*
G75*
G02*
X253361920Y-191020000I250000J0D01*
G01*
G37*
%TD.AperFunction*%
%TD*%
%TO.P,J21,4*%
%TO.N,/GND*%
X253613920Y-89772000D03*
%TO.P,J21,3*%
%TO.N,/SDA*%
X253613920Y-86772000D03*
%TO.P,J21,2*%
%TO.N,/SCL*%
X253613920Y-83772000D03*
%TO.P,J21,1*%
%TO.N,/5V*%
%TA.AperFunction,ComponentPad*%
G36*
G01*
X252853920Y-80022000D02*
X254373920Y-80022000D01*
G75*
G02*
X254623920Y-80272000I0J-250000D01*
G01*
X254623920Y-81272000D01*
G75*
G02*
X254373920Y-81522000I-250000J0D01*
G01*
X252853920Y-81522000D01*
G75*
G02*
X252603920Y-81272000I0J250000D01*
G01*
X252603920Y-80272000D01*
G75*
G02*
X252853920Y-80022000I250000J0D01*
G01*
G37*
%TD.AperFunction*%
%TD*%
%TO.P,J22,4*%
%TO.N,/GND*%
X253867920Y-117966000D03*
%TO.P,J22,3*%
%TO.N,/SDA*%
X253867920Y-114966000D03*
%TO.P,J22,2*%
%TO.N,/SCL*%
X253867920Y-111966000D03*
%TO.P,J22,1*%
%TO.N,/5V*%
%TA.AperFunction,ComponentPad*%
G36*
G01*
X253107920Y-108216000D02*
X254627920Y-108216000D01*
G75*
G02*
X254877920Y-108466000I0J-250000D01*
G01*
X254877920Y-109466000D01*
G75*
G02*
X254627920Y-109716000I-250000J0D01*
G01*
X253107920Y-109716000D01*
G75*
G02*
X252857920Y-109466000I0J250000D01*
G01*
X252857920Y-108466000D01*
G75*
G02*
X253107920Y-108216000I250000J0D01*
G01*
G37*
%TD.AperFunction*%
%TD*%
D20*
%TO.P,J23,4*%
%TO.N,/GND*%
X246357920Y-79502000D03*
%TO.P,J23,3*%
%TO.N,/SDA*%
X243357920Y-79502000D03*
%TO.P,J23,2*%
%TO.N,/SCL*%
X240357920Y-79502000D03*
%TO.P,J23,1*%
%TO.N,/5V*%
%TA.AperFunction,ComponentPad*%
G36*
G01*
X236607920Y-80262000D02*
X236607920Y-78742000D01*
G75*
G02*
X236857920Y-78492000I250000J0D01*
G01*
X237857920Y-78492000D01*
G75*
G02*
X238107920Y-78742000I0J-250000D01*
G01*
X238107920Y-80262000D01*
G75*
G02*
X237857920Y-80512000I-250000J0D01*
G01*
X236857920Y-80512000D01*
G75*
G02*
X236607920Y-80262000I0J250000D01*
G01*
G37*
%TD.AperFunction*%
%TD*%
D16*
%TO.P,J18,3*%
%TO.N,/GND*%
X253867920Y-155860000D03*
%TO.P,J18,2*%
%TO.N,Net-(J18-Pad2)*%
X253867920Y-152860000D03*
%TO.P,J18,1*%
%TO.N,/5V*%
%TA.AperFunction,ComponentPad*%
G36*
G01*
X253107920Y-149110000D02*
X254627920Y-149110000D01*
G75*
G02*
X254877920Y-149360000I0J-250000D01*
G01*
X254877920Y-150360000D01*
G75*
G02*
X254627920Y-150610000I-250000J0D01*
G01*
X253107920Y-150610000D01*
G75*
G02*
X252857920Y-150360000I0J250000D01*
G01*
X252857920Y-149360000D01*
G75*
G02*
X253107920Y-149110000I250000J0D01*
G01*
G37*
%TD.AperFunction*%
%TD*%
D21*
%TO.P,TP2,1*%
%TO.N,/STC_5V*%
X104261920Y-172212000D03*
%TD*%
%TO.P,TP3,1*%
%TO.N,/ISO_5V_OUT*%
X100197920Y-183134000D03*
%TD*%
%TO.P,TP4,1*%
%TO.N,/5V*%
X102737920Y-165354000D03*
%TD*%
%TO.P,TP7,1*%
%TO.N,/TTL_TXD*%
X128899920Y-162052000D03*
%TD*%
%TO.P,TP8,1*%
%TO.N,/TTL_RXD*%
X137789920Y-162052000D03*
%TD*%
%TO.P,TP1,1*%
%TO.N,/ALL_CH_5V*%
X237103920Y-165100000D03*
%TD*%
%TO.P,TP5,1*%
%TO.N,/MCLR\u005C*%
X239897920Y-111760000D03*
%TD*%
%TO.P,TP6,1*%
%TO.N,Net-(TP6-Pad1)*%
X221609920Y-123698000D03*
%TD*%
D22*
%TO.P,U1,6*%
%TO.N,/5V*%
X125967920Y-144780000D03*
%TO.P,U1,4*%
X125967920Y-151500000D03*
%TO.P,U1,3*%
%TO.N,/GND*%
X119247920Y-151500000D03*
D23*
%TO.P,U1,1*%
%TO.N,Net-(TP6-Pad1)*%
X119247920Y-144780000D03*
D22*
%TO.P,U1,5*%
%TO.N,Net-(R35-Pad1)*%
X127357920Y-148140000D03*
%TO.P,U1,2*%
%TO.N,/5V*%
X117857920Y-148140000D03*
%TD*%
D17*
%TO.P,J12,2*%
%TO.N,/#12_CHG-*%
X215093921Y-176784000D03*
D18*
%TO.P,J12,1*%
%TO.N,/#12_CHG+*%
X220593920Y-176784000D03*
%TD*%
D24*
%TO.P,U7,9*%
%TO.N,N/C*%
X156458920Y-144018000D03*
D25*
X157158920Y-145218000D03*
X155758920Y-145218000D03*
X157158920Y-144018000D03*
X155758920Y-144018000D03*
X157158920Y-142818000D03*
X155758920Y-142818000D03*
%TD*%
D26*
%TO.N,Net-(C1-Pad1)*%
X139313920Y-151130000D03*
X138729920Y-147320000D03*
%TO.N,Net-(C4-Pad1)*%
X227451920Y-131318000D03*
%TO.N,Net-(C5-Pad1)*%
X227705920Y-134620000D03*
%TO.N,Net-(C6-Pad1)*%
X139313920Y-143764000D03*
X211957920Y-130048000D03*
X189351920Y-137922000D03*
X202051920Y-132588000D03*
%TO.N,/SDA*%
X217545920Y-129794000D03*
X234309920Y-130556000D03*
X235579920Y-122428000D03*
X206623920Y-119380000D03*
X236849920Y-147320000D03*
X230245920Y-127000000D03*
X217545920Y-127508000D03*
X188081920Y-152146000D03*
X178175920Y-115570000D03*
X162173920Y-145923000D03*
X186303920Y-144018000D03*
X187573920Y-147828000D03*
%TO.N,/SCL*%
X219323920Y-124714000D03*
X255391920Y-126746000D03*
X251327920Y-126746000D03*
X237611920Y-127508000D03*
X235321267Y-132846653D03*
X204591920Y-124714000D03*
X237681971Y-147874701D03*
X220339920Y-129032000D03*
X208884920Y-120167000D03*
X191891920Y-151638000D03*
X178937920Y-116840000D03*
X194431920Y-130556000D03*
X160903920Y-144653000D03*
X189478920Y-142748000D03*
X189478920Y-147828000D03*
%TO.N,/GND*%
X173857920Y-151638000D03*
X183255920Y-158750000D03*
X145409920Y-125476000D03*
X229229920Y-136398000D03*
X222371920Y-148590000D03*
X220339920Y-115399261D03*
X207609920Y-118394000D03*
X215626920Y-129032000D03*
X169031920Y-127508000D03*
X190367920Y-129540000D03*
X146933920Y-117602000D03*
X146933920Y-119634000D03*
X140583920Y-117348000D03*
X140075920Y-119380000D03*
X164078920Y-141478000D03*
X156458920Y-140208000D03*
X160268920Y-140208000D03*
X150743920Y-140208000D03*
%TO.N,/ALL_CH_5V*%
X151251920Y-134112000D03*
X150489920Y-130810000D03*
X142982920Y-132955000D03*
X149727920Y-118364000D03*
%TO.N,/5V*%
X106039920Y-158496000D03*
X145155920Y-153416000D03*
X145155920Y-149352000D03*
X124581920Y-157988000D03*
D27*
%TO.N,/BATT-*%
X108579920Y-123698000D03*
X108579920Y-137922000D03*
%TO.N,/STC_BATT+*%
X126105920Y-171196000D03*
X146425920Y-170942000D03*
X166999920Y-171196000D03*
X187319920Y-170942000D03*
X207131920Y-171196000D03*
X216783920Y-106680000D03*
X211449920Y-112014000D03*
X194939920Y-106680000D03*
X176143920Y-105918000D03*
X155569920Y-106426000D03*
X184525920Y-165354000D03*
X163951920Y-165354000D03*
X142361920Y-165354000D03*
X123565920Y-165354000D03*
X204083920Y-165354000D03*
X192399920Y-112014000D03*
X173095920Y-112014000D03*
X153283920Y-112014000D03*
D26*
%TO.N,/#9_CLK*%
X175127920Y-152908000D03*
X179699920Y-152908000D03*
%TO.N,/#9_SDA*%
X174365920Y-153924000D03*
X181985920Y-153162000D03*
%TO.N,/#10_SDA*%
X181477920Y-157824000D03*
X181096920Y-155829000D03*
%TO.N,/#11_CLK*%
X192907920Y-159258000D03*
X192780920Y-157099000D03*
%TO.N,/#12_CLK*%
X200527920Y-154432000D03*
X193923920Y-153924000D03*
%TO.N,/#12_SDA*%
X195955920Y-153162000D03*
X200527920Y-153162000D03*
%TO.N,/BATT_TXD*%
X101379920Y-156044000D03*
%TO.N,/MCLR\u005C*%
X225165920Y-125476000D03*
X223734920Y-139861000D03*
%TO.N,/ISO_5V_OUT*%
X126867920Y-137414000D03*
X113659920Y-163576000D03*
%TO.N,/TTL_TXD*%
X147695920Y-149352000D03*
X216529920Y-132588000D03*
X201035920Y-133604000D03*
X192907920Y-133604000D03*
%TO.N,/TTL_RXD*%
X149981920Y-150368000D03*
X219831920Y-133350000D03*
X201035920Y-135382000D03*
X192907920Y-135382000D03*
%TO.N,Net-(JP3-Pad2)*%
X166999920Y-149860000D03*
X187573920Y-159258000D03*
%TO.N,Net-(JP4-Pad2)*%
X173857920Y-149860000D03*
X186557920Y-150622000D03*
%TO.N,Net-(JP5-Pad2)*%
X170047920Y-150114000D03*
X186557920Y-149352000D03*
%TO.N,Net-(JP6-Pad2)*%
X138551920Y-114046000D03*
X174111920Y-118110000D03*
%TO.N,Net-(JP7-Pad2)*%
X144393920Y-114046000D03*
X164205920Y-115570000D03*
%TO.N,Net-(J17-Pad2)*%
X241167920Y-137922000D03*
X245993920Y-145288000D03*
X245993920Y-140208000D03*
%TO.N,Net-(J18-Pad2)*%
X246247920Y-138684000D03*
X247771920Y-145034000D03*
%TO.N,Net-(J20-Pad2)*%
X231515920Y-141224000D03*
X231515920Y-144780000D03*
%TO.N,Net-(TP6-Pad1)*%
X220593920Y-131826000D03*
X189351920Y-136652000D03*
X201035920Y-136652000D03*
%TD*%
D28*
%TO.N,Net-(C1-Pad1)*%
X139313920Y-147904000D02*
X138729920Y-147320000D01*
X139313920Y-151130000D02*
X139313920Y-147904000D01*
%TO.N,Net-(C4-Pad1)*%
X228745632Y-131355712D02*
X229344220Y-131954300D01*
X227489632Y-131355712D02*
X227451920Y-131318000D01*
X225593421Y-131355712D02*
X227489632Y-131355712D01*
X227489632Y-131355712D02*
X228745632Y-131355712D01*
%TO.N,Net-(C5-Pad1)*%
X229098308Y-139855712D02*
X229433120Y-139520900D01*
X227353632Y-139855712D02*
X227353632Y-139798288D01*
X227353632Y-139855712D02*
X229098308Y-139855712D01*
X227042208Y-139855712D02*
X227353632Y-139855712D01*
X225593421Y-139855712D02*
X227042208Y-139855712D01*
X227451920Y-134874000D02*
X227705920Y-134620000D01*
X227451920Y-139446000D02*
X227451920Y-134874000D01*
X227042208Y-139855712D02*
X227451920Y-139446000D01*
%TO.N,Net-(C6-Pad1)*%
X139313920Y-138684000D02*
X139313920Y-143764000D01*
X189351920Y-137922000D02*
X140075920Y-137922000D01*
X140075920Y-137922000D02*
X139313920Y-138684000D01*
X211957920Y-130048000D02*
X211957920Y-132080000D01*
X211449920Y-132588000D02*
X202051920Y-132588000D01*
X211957920Y-132080000D02*
X211449920Y-132588000D01*
%TO.N,/SDA*%
X234309920Y-130556000D02*
X234309920Y-127254000D01*
X234309920Y-127254000D02*
X234055920Y-127000000D01*
X235579920Y-124460000D02*
X233039920Y-127000000D01*
X235579920Y-122428000D02*
X235579920Y-124460000D01*
X234055920Y-127000000D02*
X233039920Y-127000000D01*
X234817920Y-135890000D02*
X234309920Y-135382000D01*
X234309920Y-135382000D02*
X234309920Y-130556000D01*
X236849920Y-136398000D02*
X236341920Y-135890000D01*
X236849920Y-147320000D02*
X236849920Y-136398000D01*
X236341920Y-135890000D02*
X234817920Y-135890000D01*
X233039920Y-127000000D02*
X230245920Y-127000000D01*
X213989920Y-119380000D02*
X206623920Y-119380000D01*
X214497920Y-119888000D02*
X213989920Y-119380000D01*
X214497920Y-129540000D02*
X214497920Y-119888000D01*
X215005920Y-130048000D02*
X214497920Y-129540000D01*
X216275920Y-130048000D02*
X215005920Y-130048000D01*
X216529920Y-129794000D02*
X216275920Y-130048000D01*
X217545920Y-129794000D02*
X216529920Y-129794000D01*
X217545920Y-127508000D02*
X217545920Y-129794000D01*
X188081920Y-152146000D02*
X188589920Y-152654000D01*
X188589920Y-152654000D02*
X193923920Y-152654000D01*
X193923920Y-152654000D02*
X194177920Y-152654000D01*
X194177920Y-152654000D02*
X195701920Y-151130000D01*
X195701920Y-151130000D02*
X195701920Y-140716000D01*
X195701920Y-140716000D02*
X195701920Y-132080000D01*
X194177920Y-115570000D02*
X178175920Y-115570000D01*
X195701920Y-117094000D02*
X194177920Y-115570000D01*
X206623920Y-119380000D02*
X196463920Y-119380000D01*
X196463920Y-119380000D02*
X195701920Y-118618000D01*
X195701920Y-118618000D02*
X195701920Y-117094000D01*
X195701920Y-132080000D02*
X195701920Y-118618000D01*
X162173920Y-145923000D02*
X164078920Y-144018000D01*
X164078920Y-144018000D02*
X174238920Y-144018000D01*
X174238920Y-144018000D02*
X185033920Y-144018000D01*
X185033920Y-144018000D02*
X186303920Y-144018000D01*
X188081920Y-148336000D02*
X188081920Y-152146000D01*
X187573920Y-147828000D02*
X188081920Y-148336000D01*
%TO.N,/SCL*%
X219831920Y-125476000D02*
X219831920Y-125222000D01*
X219831920Y-125222000D02*
X219323920Y-124714000D01*
X255391920Y-126746000D02*
X251327920Y-126746000D01*
X235321267Y-129798653D02*
X235321267Y-132846653D01*
X237611920Y-127508000D02*
X235321267Y-129798653D01*
X235321267Y-134361347D02*
X235321267Y-132846653D01*
X235833920Y-134874000D02*
X235321267Y-134361347D01*
X237681971Y-135198051D02*
X237357920Y-134874000D01*
X237681971Y-147874701D02*
X237681971Y-135198051D01*
X237357920Y-134874000D02*
X235833920Y-134874000D01*
X220085920Y-129032000D02*
X219831920Y-128778000D01*
X220339920Y-129032000D02*
X220085920Y-129032000D01*
X219831920Y-128778000D02*
X219831920Y-125476000D01*
X204845920Y-124460000D02*
X204591920Y-124714000D01*
X204845920Y-121158000D02*
X204845920Y-124460000D01*
X205099920Y-120904000D02*
X204845920Y-121158000D01*
X207893920Y-120904000D02*
X205099920Y-120904000D01*
X208884920Y-120167000D02*
X207893920Y-120904000D01*
X193669920Y-151638000D02*
X191891920Y-151638000D01*
X194431920Y-150876000D02*
X193669920Y-151638000D01*
X194431920Y-130556000D02*
X194431920Y-150876000D01*
X194431920Y-117602000D02*
X194431920Y-130556000D01*
X193669920Y-116840000D02*
X194431920Y-117602000D01*
X178937920Y-116840000D02*
X193669920Y-116840000D01*
X160903920Y-144653000D02*
X161538920Y-144653000D01*
X161538920Y-144653000D02*
X163443920Y-142748000D01*
X163443920Y-142748000D02*
X189478920Y-142748000D01*
X191891920Y-149225000D02*
X191891920Y-151638000D01*
X190748920Y-147828000D02*
X191891920Y-149225000D01*
X189478920Y-147828000D02*
X190748920Y-147828000D01*
D29*
%TO.N,/#1_CHG+*%
X224300000Y-101242080D02*
X224657920Y-101600000D01*
X224300000Y-90336000D02*
X224300000Y-101242080D01*
%TO.N,/#1_CHG-*%
X228500000Y-90336000D02*
X231681920Y-90336000D01*
X231681920Y-90336000D02*
X234817920Y-93472000D01*
X234817920Y-93472000D02*
X234817920Y-100330000D01*
X233547920Y-101600000D02*
X230157919Y-101600000D01*
X234817920Y-100330000D02*
X233547920Y-101600000D01*
D28*
%TO.N,/GND*%
X101379920Y-143882000D02*
X99825920Y-143882000D01*
X99825920Y-143882000D02*
X98673920Y-145034000D01*
X98673920Y-145034000D02*
X98673920Y-158242000D01*
X97465920Y-159450000D02*
X91053920Y-159450000D01*
X98673920Y-158242000D02*
X97465920Y-159450000D01*
X173857920Y-151638000D02*
X173349920Y-152146000D01*
X175889920Y-158750000D02*
X173349920Y-156210000D01*
X183255920Y-158750000D02*
X175889920Y-158750000D01*
X173349920Y-152146000D02*
X173349920Y-156210000D01*
X145663920Y-125222000D02*
X145409920Y-125476000D01*
X224775920Y-194310000D02*
X224775920Y-196732000D01*
X224775920Y-196732000D02*
X223133920Y-198374000D01*
X204455920Y-196968000D02*
X204455920Y-194310000D01*
X205861920Y-198374000D02*
X204455920Y-196968000D01*
X223133920Y-198374000D02*
X206115920Y-198374000D01*
X206115920Y-198374000D02*
X205861920Y-198374000D01*
X184344200Y-196922280D02*
X184344200Y-194310000D01*
X185795920Y-198374000D02*
X184344200Y-196922280D01*
X206115920Y-198374000D02*
X186049920Y-198374000D01*
X186049920Y-198374000D02*
X185795920Y-198374000D01*
X163815920Y-197476000D02*
X163815920Y-194310000D01*
X164713920Y-198374000D02*
X163815920Y-197476000D01*
X186049920Y-198374000D02*
X165983920Y-198374000D01*
X165983920Y-198374000D02*
X164713920Y-198374000D01*
X143495920Y-197730000D02*
X143495920Y-194310000D01*
X144139920Y-198374000D02*
X143495920Y-197730000D01*
X144901920Y-198374000D02*
X124073920Y-198374000D01*
X165983920Y-198374000D02*
X144901920Y-198374000D01*
X144901920Y-198374000D02*
X144139920Y-198374000D01*
X123175920Y-197476000D02*
X123175920Y-194310000D01*
X124073920Y-198374000D02*
X123175920Y-197476000D01*
X224775920Y-194310000D02*
X224775920Y-196714000D01*
X224775920Y-196714000D02*
X226435920Y-198374000D01*
X226435920Y-198374000D02*
X241167920Y-198374000D01*
X241167920Y-198374000D02*
X244977920Y-194564000D01*
X220100000Y-82281920D02*
X220100000Y-84836000D01*
X220847920Y-81534000D02*
X220100000Y-82281920D01*
X240913920Y-81534000D02*
X221101920Y-81534000D01*
X221101920Y-81534000D02*
X220847920Y-81534000D01*
X199780000Y-82281920D02*
X199780000Y-84836000D01*
X200527920Y-81534000D02*
X199780000Y-82281920D01*
X200781920Y-81534000D02*
X180715920Y-81534000D01*
X221101920Y-81534000D02*
X200781920Y-81534000D01*
X200781920Y-81534000D02*
X200527920Y-81534000D01*
X179460000Y-82789920D02*
X179460000Y-84836000D01*
X180715920Y-81534000D02*
X179460000Y-82789920D01*
X159140000Y-82281920D02*
X159140000Y-84836000D01*
X159887920Y-81534000D02*
X159140000Y-82281920D01*
X180715920Y-81534000D02*
X160649920Y-81534000D01*
X160649920Y-81534000D02*
X159887920Y-81534000D01*
X138820000Y-82281920D02*
X138820000Y-84836000D01*
X139567920Y-81534000D02*
X138820000Y-82281920D01*
X160649920Y-81534000D02*
X139567920Y-81534000D01*
X229344220Y-137682000D02*
X229433120Y-137770900D01*
X244977920Y-85598000D02*
X244977920Y-88138000D01*
X246611920Y-89772000D02*
X253613920Y-89772000D01*
X244977920Y-88138000D02*
X246611920Y-89772000D01*
X253867920Y-117966000D02*
X245595920Y-117966000D01*
X245595920Y-117966000D02*
X244977920Y-117348000D01*
X242945920Y-83566000D02*
X245993920Y-83566000D01*
X244977920Y-85598000D02*
X242945920Y-83566000D01*
X242945920Y-83566000D02*
X240913920Y-81534000D01*
X246357920Y-83202000D02*
X246357920Y-79502000D01*
X245993920Y-83566000D02*
X246357920Y-83202000D01*
X244977920Y-116840000D02*
X244977920Y-85598000D01*
X244977920Y-117348000D02*
X244977920Y-116840000D01*
X244977920Y-193294000D02*
X244977920Y-116840000D01*
X254121920Y-197770000D02*
X246405920Y-197770000D01*
X244977920Y-196342000D02*
X244977920Y-193802000D01*
X246405920Y-197770000D02*
X244977920Y-196342000D01*
X244977920Y-193802000D02*
X244977920Y-193294000D01*
X244977920Y-194564000D02*
X244977920Y-193802000D01*
X254121920Y-197770000D02*
X255487920Y-197770000D01*
X255487920Y-197770000D02*
X255899920Y-197358000D01*
X255597920Y-171148000D02*
X253865920Y-171148000D01*
X255899920Y-171450000D02*
X255597920Y-171148000D01*
X255899920Y-197358000D02*
X255899920Y-171704000D01*
X255899920Y-171704000D02*
X255899920Y-156210000D01*
X255899920Y-171704000D02*
X255899920Y-171450000D01*
X255549920Y-155860000D02*
X253867920Y-155860000D01*
X255899920Y-156210000D02*
X255549920Y-155860000D01*
X229229920Y-136398000D02*
X229229920Y-133704300D01*
X229229920Y-137770900D02*
X229229920Y-136398000D01*
X222371920Y-143256000D02*
X222371920Y-148590000D01*
X223895920Y-124714000D02*
X222371920Y-126238000D01*
X222455181Y-115399261D02*
X223895920Y-116840000D01*
X222371920Y-126238000D02*
X222371920Y-143256000D01*
X220339920Y-115399261D02*
X222455181Y-115399261D01*
X215626920Y-119493000D02*
X214527920Y-118394000D01*
X215626920Y-129032000D02*
X215626920Y-119493000D01*
X145409920Y-125476000D02*
X167761920Y-125476000D01*
X169031920Y-126746000D02*
X169031920Y-127508000D01*
X167761920Y-125476000D02*
X169031920Y-126746000D01*
X169031920Y-128778000D02*
X169031920Y-127508000D01*
X169539920Y-129286000D02*
X169031920Y-128778000D01*
X223417920Y-118394000D02*
X223895920Y-118872000D01*
X214273920Y-118394000D02*
X223417920Y-118394000D01*
X223895920Y-118872000D02*
X223895920Y-124714000D01*
X223895920Y-116840000D02*
X223895920Y-118872000D01*
X214527920Y-118394000D02*
X214273920Y-118394000D01*
X214273920Y-118394000D02*
X207609920Y-118394000D01*
X189605920Y-129540000D02*
X189351920Y-129286000D01*
X190367920Y-129540000D02*
X189605920Y-129540000D01*
X189351920Y-129286000D02*
X169539920Y-129286000D01*
X146933920Y-119888000D02*
X146933920Y-119634000D01*
X146933920Y-117602000D02*
X146933920Y-119634000D01*
X140583920Y-118872000D02*
X140075920Y-119380000D01*
X140583920Y-117348000D02*
X140583920Y-118872000D01*
X160268920Y-140208000D02*
X156458920Y-140208000D01*
X160903920Y-141478000D02*
X164078920Y-141478000D01*
X160268920Y-140208000D02*
X160903920Y-141478000D01*
X156458920Y-140208000D02*
X150743920Y-140208000D01*
%TO.N,/ALL_CH_5V*%
X151251920Y-134112000D02*
X150489920Y-133350000D01*
X150489920Y-133350000D02*
X150489920Y-130810000D01*
X142982920Y-132955000D02*
X142982920Y-125617000D01*
X149473920Y-118618000D02*
X149727920Y-118364000D01*
X149473920Y-123190000D02*
X149473920Y-118618000D01*
X148711920Y-123952000D02*
X149473920Y-123190000D01*
X144647920Y-123952000D02*
X148711920Y-123952000D01*
X142982920Y-125617000D02*
X144647920Y-123952000D01*
D29*
%TO.N,/#2_CHG-*%
X213481920Y-101346000D02*
X213227920Y-101600000D01*
X213481920Y-95504000D02*
X213481920Y-101346000D01*
X211195920Y-93218000D02*
X213481920Y-95504000D01*
X213227920Y-101600000D02*
X209583919Y-101600000D01*
X211195920Y-92202000D02*
X211195920Y-93218000D01*
X209329920Y-90336000D02*
X211195920Y-92202000D01*
X208180000Y-90336000D02*
X209329920Y-90336000D01*
%TO.N,/#2_CHG+*%
X203980000Y-101496080D02*
X204083920Y-101600000D01*
X203980000Y-90336000D02*
X203980000Y-101496080D01*
%TO.N,/#4_CHG-*%
X167540000Y-90336000D02*
X167540000Y-90456080D01*
X171063920Y-94398616D02*
X172587920Y-95922616D01*
X171063920Y-93980000D02*
X171063920Y-94398616D01*
X167540000Y-90456080D02*
X171063920Y-93980000D01*
X172587920Y-95922616D02*
X172587920Y-101092000D01*
X172079920Y-101600000D02*
X168689919Y-101600000D01*
X172587920Y-101092000D02*
X172079920Y-101600000D01*
%TO.N,/#4_CHG+*%
X163340000Y-101449920D02*
X163189920Y-101600000D01*
X163340000Y-90336000D02*
X163340000Y-101449920D01*
%TO.N,/#5_CHG-*%
X147220000Y-90336000D02*
X147220000Y-90456080D01*
X147220000Y-90456080D02*
X151759920Y-94996000D01*
X151759920Y-94996000D02*
X151759920Y-100584000D01*
X150743920Y-101600000D02*
X148369919Y-101600000D01*
X151759920Y-100584000D02*
X150743920Y-101600000D01*
%TO.N,/#5_CHG+*%
X143020000Y-101449920D02*
X142869920Y-101600000D01*
X143020000Y-90336000D02*
X143020000Y-101449920D01*
%TO.N,/#6_CHG-*%
X126900000Y-90336000D02*
X127033920Y-90336000D01*
X127033920Y-90336000D02*
X132201920Y-95504000D01*
X132201920Y-95504000D02*
X132201920Y-100584000D01*
X131185920Y-101600000D02*
X128303919Y-101600000D01*
X132201920Y-100584000D02*
X131185920Y-101600000D01*
%TO.N,/#6_CHG+*%
X122700000Y-101496080D02*
X122803920Y-101600000D01*
X122700000Y-90336000D02*
X122700000Y-101496080D01*
%TO.N,/#7_CHG-*%
X114775920Y-188810000D02*
X109937920Y-188810000D01*
X109937920Y-188810000D02*
X108325920Y-187198000D01*
X108325920Y-187198000D02*
X108325920Y-179832000D01*
X110357920Y-177800000D02*
X113493921Y-177800000D01*
X108325920Y-179832000D02*
X110357920Y-177800000D01*
%TO.N,/#7_CHG+*%
X118975920Y-177818000D02*
X118993920Y-177800000D01*
X118975920Y-188810000D02*
X118975920Y-177818000D01*
%TO.N,/#8_CHG-*%
X135095920Y-188810000D02*
X134321920Y-188810000D01*
X134321920Y-188810000D02*
X129915920Y-184404000D01*
X129915920Y-184404000D02*
X129915920Y-178308000D01*
X129915920Y-178308000D02*
X130169920Y-178308000D01*
X130931920Y-177546000D02*
X133692001Y-177546000D01*
X130169920Y-178308000D02*
X130931920Y-177546000D01*
%TO.N,/#8_CHG+*%
X139295920Y-177649920D02*
X139192000Y-177546000D01*
X139295920Y-188810000D02*
X139295920Y-177649920D01*
%TO.N,/#9_CHG-*%
X155415920Y-188810000D02*
X155403920Y-188810000D01*
X155403920Y-188810000D02*
X150489920Y-183896000D01*
X150489920Y-183896000D02*
X150489920Y-178816000D01*
X152267920Y-177038000D02*
X154133921Y-177038000D01*
X150489920Y-178816000D02*
X152267920Y-177038000D01*
%TO.N,/#9_CHG+*%
X159615920Y-177056000D02*
X159633920Y-177038000D01*
X159615920Y-188810000D02*
X159615920Y-177056000D01*
D28*
%TO.N,/5V*%
X91053920Y-168450000D02*
X104467920Y-168450000D01*
X104467920Y-168450000D02*
X105023920Y-167894000D01*
X105023920Y-159512000D02*
X106039920Y-158496000D01*
X145155920Y-153416000D02*
X145155920Y-149352000D01*
X254121920Y-191770000D02*
X254121920Y-185166000D01*
X254121920Y-185166000D02*
X254883920Y-184404000D01*
X254883920Y-184404000D02*
X254883920Y-178816000D01*
X254883920Y-178816000D02*
X251581920Y-175514000D01*
X252041920Y-165148000D02*
X253865920Y-165148000D01*
X251581920Y-165608000D02*
X252041920Y-165148000D01*
X251581920Y-175514000D02*
X251581920Y-166370000D01*
X251581920Y-166370000D02*
X251581920Y-165608000D01*
X251835920Y-149860000D02*
X253867920Y-149860000D01*
X251581920Y-150114000D02*
X251835920Y-149860000D01*
X251581920Y-166370000D02*
X251581920Y-150368000D01*
X251581920Y-150368000D02*
X251581920Y-150114000D01*
X251581920Y-144780000D02*
X251581920Y-144018000D01*
X251581920Y-150368000D02*
X251581920Y-144780000D01*
X251581920Y-144018000D02*
X250819920Y-143256000D01*
X250819920Y-133096000D02*
X251327920Y-132588000D01*
X250819920Y-143256000D02*
X250819920Y-133096000D01*
X252851920Y-132588000D02*
X251327920Y-132588000D01*
X122295920Y-155702000D02*
X124581920Y-157988000D01*
X117915920Y-148082000D02*
X117857920Y-148140000D01*
X122295920Y-154432000D02*
X122295920Y-155702000D01*
X104261920Y-165354000D02*
X105023920Y-166116000D01*
X102737920Y-165354000D02*
X104261920Y-165354000D01*
X105023920Y-166116000D02*
X105023920Y-159512000D01*
X105023920Y-167894000D02*
X105023920Y-166116000D01*
X125967920Y-144780000D02*
X122295920Y-148452000D01*
X122295920Y-148452000D02*
X122295920Y-149860000D01*
X122295920Y-154432000D02*
X122295920Y-149860000D01*
X125967920Y-151500000D02*
X125967920Y-149722000D01*
X125967920Y-149722000D02*
X124327920Y-148082000D01*
X120517920Y-148082000D02*
X117915920Y-148082000D01*
X121025920Y-148082000D02*
X120517920Y-148082000D01*
X122665920Y-148082000D02*
X122549920Y-148082000D01*
X125967920Y-144780000D02*
X122665920Y-148082000D01*
X122549920Y-148082000D02*
X120517920Y-148082000D01*
X124327920Y-148082000D02*
X122549920Y-148082000D01*
D30*
%TO.N,/RTE_BATT+*%
X134620000Y-90336000D02*
X133129920Y-90336000D01*
X133129920Y-90336000D02*
X130677920Y-87884000D01*
X130677920Y-87884000D02*
X130677920Y-81788000D01*
X130677920Y-81788000D02*
X129915920Y-81026000D01*
X129915920Y-81026000D02*
X109849920Y-81026000D01*
X109849920Y-81026000D02*
X108325920Y-82550000D01*
X110269920Y-90336000D02*
X108325920Y-88392000D01*
X114300000Y-90336000D02*
X110269920Y-90336000D01*
X108325920Y-82550000D02*
X108325920Y-88392000D01*
X108325920Y-82550000D02*
X108325920Y-84328000D01*
X107817920Y-84836000D02*
X101379920Y-84836000D01*
X108325920Y-84328000D02*
X107817920Y-84836000D01*
%TO.N,/BATT-*%
X123175920Y-188810000D02*
X123175920Y-169536000D01*
X123175920Y-169536000D02*
X122041920Y-168402000D01*
X122041920Y-168402000D02*
X110103920Y-168402000D01*
X110103920Y-168402000D02*
X108579920Y-166878000D01*
X143495920Y-188810000D02*
X143495920Y-169790000D01*
X142107920Y-168402000D02*
X122041920Y-168402000D01*
X143495920Y-169790000D02*
X142107920Y-168402000D01*
X162427920Y-168402000D02*
X142107920Y-168402000D01*
X163815920Y-169790000D02*
X162427920Y-168402000D01*
X163815920Y-188810000D02*
X163815920Y-169790000D01*
X184344200Y-188810000D02*
X184344200Y-170252280D01*
X182493920Y-168402000D02*
X162427920Y-168402000D01*
X184344200Y-170252280D02*
X182493920Y-168402000D01*
X204455920Y-188810000D02*
X204455920Y-169790000D01*
X204455920Y-169790000D02*
X203067920Y-168402000D01*
X224775920Y-188810000D02*
X224775920Y-170044000D01*
X223133920Y-168402000D02*
X202305920Y-168402000D01*
X224775920Y-170044000D02*
X223133920Y-168402000D01*
X202305920Y-168402000D02*
X182493920Y-168402000D01*
X203067920Y-168402000D02*
X202305920Y-168402000D01*
X118500000Y-90336000D02*
X118500000Y-105395920D01*
X107155920Y-135482000D02*
X101379920Y-135482000D01*
X108579920Y-136906000D02*
X107155920Y-135482000D01*
X106275920Y-139682000D02*
X108579920Y-141986000D01*
X101379920Y-139682000D02*
X106275920Y-139682000D01*
X108579920Y-166878000D02*
X108579920Y-141986000D01*
X110992920Y-112903000D02*
X108579920Y-115316000D01*
X108579920Y-115316000D02*
X108579920Y-123698000D01*
X108579920Y-137922000D02*
X108579920Y-136906000D01*
X108579920Y-141986000D02*
X108579920Y-137922000D01*
X95879920Y-93472000D02*
X95879920Y-84836000D01*
X116961920Y-94488000D02*
X96895920Y-94488000D01*
X96895920Y-94488000D02*
X95879920Y-93472000D01*
X118500000Y-92949920D02*
X116961920Y-94488000D01*
X118500000Y-90336000D02*
X118500000Y-92949920D01*
X114167920Y-109728000D02*
X135503920Y-109728000D01*
X118500000Y-105395920D02*
X114167920Y-109728000D01*
X114167920Y-109728000D02*
X110992920Y-112903000D01*
X138820000Y-106411920D02*
X138820000Y-90336000D01*
X135503920Y-109728000D02*
X138820000Y-106411920D01*
X159140000Y-107935920D02*
X159140000Y-90336000D01*
X157347920Y-109728000D02*
X159140000Y-107935920D01*
X135503920Y-109728000D02*
X155569920Y-109728000D01*
X155569920Y-109728000D02*
X157347920Y-109728000D01*
X179460000Y-108443920D02*
X179460000Y-90336000D01*
X178175920Y-109728000D02*
X179460000Y-108443920D01*
X155569920Y-109728000D02*
X176651920Y-109728000D01*
X176651920Y-109728000D02*
X178175920Y-109728000D01*
X195701920Y-109728000D02*
X218053920Y-109728000D01*
X220100000Y-107681920D02*
X220100000Y-90336000D01*
X218053920Y-109728000D02*
X220100000Y-107681920D01*
X196209920Y-109728000D02*
X199780000Y-106157920D01*
X194431920Y-109728000D02*
X196209920Y-109728000D01*
X176651920Y-109728000D02*
X194431920Y-109728000D01*
X199780000Y-106157920D02*
X199780000Y-90336000D01*
X194431920Y-109728000D02*
X195701920Y-109728000D01*
D29*
%TO.N,/#3_CHG-*%
X187860000Y-90336000D02*
X187860000Y-90710080D01*
X187860000Y-90710080D02*
X192145920Y-94996000D01*
X192145920Y-94996000D02*
X192145920Y-100584000D01*
X191129920Y-101600000D02*
X188755919Y-101600000D01*
X192145920Y-100584000D02*
X191129920Y-101600000D01*
%TO.N,/#3_CHG+*%
X183660000Y-101195920D02*
X183255920Y-101600000D01*
X183660000Y-90336000D02*
X183660000Y-101195920D01*
%TO.N,/#10_CHG-*%
X175944200Y-188810000D02*
X175469920Y-188810000D01*
X175469920Y-188810000D02*
X171063920Y-184404000D01*
X171063920Y-184404000D02*
X171063920Y-179324000D01*
X173095920Y-177292000D02*
X174707921Y-177292000D01*
X171063920Y-179324000D02*
X173095920Y-177292000D01*
%TO.N,/#10_CHG+*%
X180207920Y-188746280D02*
X180144200Y-188810000D01*
X180207920Y-177292000D02*
X180207920Y-188746280D01*
%TO.N,/#11_CHG-*%
X190875920Y-183630000D02*
X196055920Y-188810000D01*
X190875920Y-177800000D02*
X190875920Y-183630000D01*
X191891920Y-176784000D02*
X190875920Y-177800000D01*
X194519921Y-176784000D02*
X191891920Y-176784000D01*
%TO.N,/#11_CHG+*%
X200255920Y-177020000D02*
X200019920Y-176784000D01*
X200255920Y-188810000D02*
X200255920Y-177020000D01*
%TO.N,/#12_CHG-*%
X216375920Y-188810000D02*
X215601920Y-188810000D01*
X215601920Y-188810000D02*
X211195920Y-184404000D01*
X211195920Y-184404000D02*
X211195920Y-179578000D01*
X213481920Y-177292000D02*
X214972001Y-177292000D01*
X211195920Y-179578000D02*
X213481920Y-177292000D01*
%TO.N,/#12_CHG+*%
X220472000Y-188706080D02*
X220575920Y-188810000D01*
X220472000Y-177292000D02*
X220472000Y-188706080D01*
D30*
%TO.N,/STC_BATT+*%
X215900000Y-90336000D02*
X215900000Y-90302080D01*
X112389920Y-165354000D02*
X111119920Y-164084000D01*
X111119920Y-164084000D02*
X111119920Y-155194000D01*
X127375920Y-188810000D02*
X127375920Y-187452000D01*
X126105920Y-186182000D02*
X126105920Y-171196000D01*
X127375920Y-187452000D02*
X126105920Y-186182000D01*
X147695920Y-188810000D02*
X147695920Y-186944000D01*
X146425920Y-185674000D02*
X146425920Y-170942000D01*
X147695920Y-186944000D02*
X146425920Y-185674000D01*
X168015920Y-188810000D02*
X168015920Y-186944000D01*
X166999920Y-185928000D02*
X166999920Y-171196000D01*
X168015920Y-186944000D02*
X166999920Y-185928000D01*
X188544200Y-188810000D02*
X188544200Y-187406280D01*
X187319920Y-186182000D02*
X187319920Y-170942000D01*
X188544200Y-187406280D02*
X187319920Y-186182000D01*
X208655920Y-188810000D02*
X208655920Y-187452000D01*
X207131920Y-185928000D02*
X207131920Y-171196000D01*
X208655920Y-187452000D02*
X207131920Y-185928000D01*
X111119920Y-155194000D02*
X111119920Y-151384000D01*
X102655920Y-127082000D02*
X101379920Y-127082000D01*
X111119920Y-135636000D02*
X111119920Y-128524000D01*
X109677920Y-127082000D02*
X101379920Y-127082000D01*
X111119920Y-128524000D02*
X109677920Y-127082000D01*
X111119920Y-138430000D02*
X111119920Y-133350000D01*
X111119920Y-151384000D02*
X111119920Y-138430000D01*
X111119920Y-138430000D02*
X111119920Y-135636000D01*
X109051920Y-131282000D02*
X101379920Y-131282000D01*
X111119920Y-133350000D02*
X109051920Y-131282000D01*
X215900000Y-90336000D02*
X216783920Y-91219920D01*
X216783920Y-91219920D02*
X216783920Y-106680000D01*
X111119920Y-116586000D02*
X111119920Y-128524000D01*
X115691920Y-112014000D02*
X111119920Y-116586000D01*
X195580000Y-106039920D02*
X194939920Y-106680000D01*
X195580000Y-90336000D02*
X195580000Y-106039920D01*
X175260000Y-93710000D02*
X176143920Y-94593920D01*
X175260000Y-90336000D02*
X175260000Y-93710000D01*
X176143920Y-94593920D02*
X176143920Y-105918000D01*
X154940000Y-90336000D02*
X154940000Y-93096080D01*
X154940000Y-93096080D02*
X155569920Y-93726000D01*
X155569920Y-93726000D02*
X155569920Y-106426000D01*
X228975920Y-167386000D02*
X228975920Y-188810000D01*
X226943920Y-165354000D02*
X228975920Y-167386000D01*
X201797920Y-165354000D02*
X187065920Y-165354000D01*
X187065920Y-165354000D02*
X184525920Y-165354000D01*
X184525920Y-165354000D02*
X163951920Y-165354000D01*
X142361920Y-165354000D02*
X125851920Y-165354000D01*
X123565920Y-165354000D02*
X112389920Y-165354000D01*
X125851920Y-165354000D02*
X123565920Y-165354000D01*
X146425920Y-165354000D02*
X142361920Y-165354000D01*
X163951920Y-165354000D02*
X146425920Y-165354000D01*
X204083920Y-165354000D02*
X226943920Y-165354000D01*
X201797920Y-165354000D02*
X204083920Y-165354000D01*
X192399920Y-112014000D02*
X189605920Y-112014000D01*
X211449920Y-112014000D02*
X192399920Y-112014000D01*
X173095920Y-112014000D02*
X171317920Y-112014000D01*
X189605920Y-112014000D02*
X173095920Y-112014000D01*
X153283920Y-112014000D02*
X149981920Y-112014000D01*
X171317920Y-112014000D02*
X153283920Y-112014000D01*
D31*
X125597920Y-118618001D02*
X123057920Y-121158001D01*
X125597920Y-112014000D02*
X125597920Y-118618001D01*
D30*
X149981920Y-112014000D02*
X125597920Y-112014000D01*
X125597920Y-112014000D02*
X115691920Y-112014000D01*
D28*
%TO.N,/#9_CLK*%
X175127920Y-152908000D02*
X179699920Y-152908000D01*
%TO.N,/#9_SDA*%
X181223920Y-153924000D02*
X181985920Y-153162000D01*
X174365920Y-153924000D02*
X181223920Y-153924000D01*
%TO.N,/#10_SDA*%
X181477920Y-156210000D02*
X181096920Y-155829000D01*
X181477920Y-157824000D02*
X181477920Y-156210000D01*
%TO.N,/#11_CLK*%
X192907920Y-157226000D02*
X192780920Y-157099000D01*
X192907920Y-159258000D02*
X192907920Y-157226000D01*
%TO.N,/#12_CLK*%
X200527920Y-154432000D02*
X194431920Y-154432000D01*
X194431920Y-154432000D02*
X193923920Y-153924000D01*
%TO.N,/#12_SDA*%
X200527920Y-153162000D02*
X195955920Y-153162000D01*
%TO.N,/BATT_TXD*%
X100561920Y-162450000D02*
X91053920Y-162450000D01*
X101379920Y-161632000D02*
X100561920Y-162450000D01*
X101379920Y-156044000D02*
X101379920Y-161632000D01*
X101379920Y-148082000D02*
X101379920Y-156044000D01*
%TO.N,/LEAK-2_RTN*%
X95879920Y-135482000D02*
X93693920Y-135482000D01*
X92978919Y-134766999D02*
X92978919Y-125075001D01*
X93693920Y-135482000D02*
X92978919Y-134766999D01*
X92978919Y-125075001D02*
X96895920Y-121158000D01*
X96895920Y-121158000D02*
X96895920Y-113792000D01*
X96181920Y-113078000D02*
X94053920Y-113078000D01*
X96895920Y-113792000D02*
X96181920Y-113078000D01*
%TO.N,/LEAK-2*%
X95879920Y-139682000D02*
X93575920Y-139682000D01*
X93575920Y-139682000D02*
X92069920Y-138176000D01*
X92069920Y-138176000D02*
X92069920Y-124714000D01*
X92069920Y-124714000D02*
X95879920Y-120904000D01*
X95879920Y-120904000D02*
X95879920Y-116586000D01*
X95371920Y-116078000D02*
X94053920Y-116078000D01*
X95879920Y-116586000D02*
X95371920Y-116078000D01*
%TO.N,/LEAK-1*%
X95879920Y-143882000D02*
X93457920Y-143882000D01*
X93457920Y-143882000D02*
X91053920Y-141478000D01*
X91053920Y-125476000D02*
X91053920Y-116078000D01*
X91053920Y-141478000D02*
X91053920Y-125476000D01*
%TO.N,/LEAK-1_RTN*%
X89275920Y-113538000D02*
X89735920Y-113078000D01*
X89275920Y-123698000D02*
X89275920Y-113538000D01*
X88513920Y-124460000D02*
X89275920Y-123698000D01*
X87243920Y-124460000D02*
X88513920Y-124460000D01*
X87497920Y-129540000D02*
X86354920Y-128397000D01*
X89783920Y-130048000D02*
X89275920Y-129540000D01*
X86354920Y-128397000D02*
X86354920Y-125349000D01*
X89275920Y-129540000D02*
X87497920Y-129540000D01*
X89783920Y-144526000D02*
X89783920Y-130048000D01*
X89735920Y-113078000D02*
X91053920Y-113078000D01*
X86354920Y-125349000D02*
X87243920Y-124460000D01*
X93339920Y-148082000D02*
X89783920Y-144526000D01*
X95879920Y-148082000D02*
X93339920Y-148082000D01*
%TO.N,/MCLR\u005C*%
X239897920Y-111760000D02*
X226689920Y-111760000D01*
X225165920Y-113284000D02*
X225165920Y-125476000D01*
X226689920Y-111760000D02*
X225165920Y-113284000D01*
X223734920Y-125891000D02*
X224149920Y-125476000D01*
X223734920Y-139861000D02*
X223734920Y-125891000D01*
X224149920Y-125476000D02*
X225165920Y-125476000D01*
%TO.N,/ISO_5V_OUT*%
X114675920Y-137414000D02*
X113659920Y-138430000D01*
X126867920Y-137414000D02*
X114675920Y-137414000D01*
X113659920Y-159258000D02*
X113659920Y-163576000D01*
X113659920Y-138430000D02*
X113659920Y-159258000D01*
%TO.N,/TTL_TXD*%
X147695920Y-149352000D02*
X147695920Y-159258000D01*
X147695920Y-159258000D02*
X147441920Y-159512000D01*
X131439920Y-159512000D02*
X128899920Y-162052000D01*
X147441920Y-159512000D02*
X131439920Y-159512000D01*
X150997920Y-149352000D02*
X147695920Y-149352000D01*
X160649920Y-149352000D02*
X150997920Y-149352000D01*
X165221920Y-144780000D02*
X160649920Y-149352000D01*
X190113920Y-144780000D02*
X165221920Y-144780000D01*
X190621920Y-144272000D02*
X190113920Y-144780000D01*
X190621920Y-134366000D02*
X190621920Y-144272000D01*
X191383920Y-133604000D02*
X190621920Y-134366000D01*
X192907920Y-133604000D02*
X191383920Y-133604000D01*
X201035920Y-133604000D02*
X216021920Y-133604000D01*
X216529920Y-133096000D02*
X216529920Y-132588000D01*
X216021920Y-133604000D02*
X216529920Y-133096000D01*
%TO.N,/TTL_RXD*%
X149981920Y-150368000D02*
X149981920Y-161544000D01*
X149473920Y-162052000D02*
X137789920Y-162052000D01*
X149981920Y-161544000D02*
X149473920Y-162052000D01*
X152267920Y-150368000D02*
X161919920Y-150368000D01*
X152267920Y-150368000D02*
X149981920Y-150368000D01*
X161919920Y-150368000D02*
X165729920Y-146558000D01*
X165729920Y-146558000D02*
X191637920Y-146558000D01*
X191637920Y-146558000D02*
X192145920Y-146050000D01*
X192145920Y-136144000D02*
X192907920Y-135382000D01*
X192145920Y-146050000D02*
X192145920Y-136144000D01*
X219831920Y-134366000D02*
X219831920Y-133350000D01*
X218815920Y-135382000D02*
X219831920Y-134366000D01*
X201035920Y-135382000D02*
X218815920Y-135382000D01*
%TO.N,Net-(JP3-Pad2)*%
X166999920Y-149860000D02*
X166999920Y-159004000D01*
X166999920Y-159004000D02*
X168015920Y-160020000D01*
X168015920Y-160020000D02*
X186811920Y-160020000D01*
X186811920Y-160020000D02*
X187573920Y-159258000D01*
%TO.N,Net-(JP4-Pad2)*%
X173857920Y-149860000D02*
X174365920Y-150368000D01*
X186303920Y-150368000D02*
X186557920Y-150622000D01*
X174365920Y-150368000D02*
X186303920Y-150368000D01*
%TO.N,Net-(JP5-Pad2)*%
X170047920Y-150114000D02*
X171063920Y-149098000D01*
X186303920Y-149098000D02*
X186557920Y-149352000D01*
X171063920Y-149098000D02*
X186303920Y-149098000D01*
%TO.N,Net-(JP6-Pad2)*%
X141853920Y-114808000D02*
X141091920Y-114046000D01*
X142869920Y-116586000D02*
X141853920Y-115570000D01*
X141853920Y-115570000D02*
X141853920Y-114808000D01*
X172587920Y-116586000D02*
X142869920Y-116586000D01*
X141091920Y-114046000D02*
X138551920Y-114046000D01*
X174111920Y-118110000D02*
X172587920Y-116586000D01*
%TO.N,Net-(JP7-Pad2)*%
X144393920Y-114046000D02*
X144393920Y-115062000D01*
X144393920Y-115062000D02*
X144901920Y-115570000D01*
X144901920Y-115570000D02*
X164205920Y-115570000D01*
%TO.N,/SHIELD*%
X228975920Y-194310000D02*
X228975920Y-193548000D01*
X228975920Y-193548000D02*
X226943920Y-191516000D01*
X208655920Y-192532000D02*
X208655920Y-194310000D01*
X209671920Y-191516000D02*
X208655920Y-192532000D01*
X226943920Y-191516000D02*
X209925920Y-191516000D01*
X209925920Y-191516000D02*
X209671920Y-191516000D01*
X188544200Y-192577720D02*
X188544200Y-194310000D01*
X189605920Y-191516000D02*
X188544200Y-192577720D01*
X209925920Y-191516000D02*
X189859920Y-191516000D01*
X189859920Y-191516000D02*
X189605920Y-191516000D01*
X168015920Y-192532000D02*
X168015920Y-194310000D01*
X169031920Y-191516000D02*
X168015920Y-192532000D01*
X189859920Y-191516000D02*
X169285920Y-191516000D01*
X169285920Y-191516000D02*
X169031920Y-191516000D01*
X147695920Y-192278000D02*
X147695920Y-194310000D01*
X148457920Y-191516000D02*
X147695920Y-192278000D01*
X169285920Y-191516000D02*
X148457920Y-191516000D01*
X148457920Y-191516000D02*
X127883920Y-191516000D01*
X127375920Y-192024000D02*
X127375920Y-194310000D01*
X127883920Y-191516000D02*
X127375920Y-192024000D01*
X134620000Y-84836000D02*
X134620000Y-86746080D01*
X134620000Y-86746080D02*
X135249920Y-87376000D01*
X154940000Y-86989920D02*
X154940000Y-84836000D01*
X154553920Y-87376000D02*
X154940000Y-86989920D01*
X135249920Y-87376000D02*
X153791920Y-87376000D01*
X153791920Y-87376000D02*
X154553920Y-87376000D01*
X175260000Y-86989920D02*
X175260000Y-84836000D01*
X174873920Y-87376000D02*
X175260000Y-86989920D01*
X153791920Y-87376000D02*
X174111920Y-87376000D01*
X174111920Y-87376000D02*
X174873920Y-87376000D01*
X195580000Y-86989920D02*
X195580000Y-84836000D01*
X195193920Y-87376000D02*
X195580000Y-86989920D01*
X174111920Y-87376000D02*
X194685920Y-87376000D01*
X194685920Y-87376000D02*
X195193920Y-87376000D01*
X215900000Y-86227920D02*
X214751920Y-87376000D01*
X215900000Y-84836000D02*
X215900000Y-86227920D01*
X194685920Y-87376000D02*
X214751920Y-87376000D01*
X239135920Y-194310000D02*
X228975920Y-194310000D01*
X242437920Y-89662000D02*
X242437920Y-191008000D01*
X242437920Y-191008000D02*
X239135920Y-194310000D01*
X216783920Y-87630000D02*
X240405920Y-87630000D01*
X240405920Y-87630000D02*
X242437920Y-89662000D01*
X215900000Y-86746080D02*
X216783920Y-87630000D01*
X215900000Y-84836000D02*
X215900000Y-86746080D01*
%TO.N,Net-(J17-Pad2)*%
X245993920Y-145288000D02*
X245993920Y-140208000D01*
%TO.N,Net-(J18-Pad2)*%
X247771920Y-145034000D02*
X247771920Y-139446000D01*
X247009920Y-138684000D02*
X246247920Y-138684000D01*
X247771920Y-139446000D02*
X247009920Y-138684000D01*
%TO.N,Net-(J20-Pad2)*%
X231515920Y-144780000D02*
X231515920Y-141224000D01*
%TO.N,Net-(TP6-Pad1)*%
X220593920Y-131826000D02*
X220593920Y-130048000D01*
X220593920Y-130048000D02*
X221355920Y-129286000D01*
X221355920Y-123952000D02*
X221609920Y-123698000D01*
X221355920Y-125984000D02*
X221355920Y-123952000D01*
X221355920Y-129286000D02*
X221355920Y-125984000D01*
X123057920Y-144780000D02*
X119247920Y-144780000D01*
X133979920Y-136144000D02*
X128137920Y-141986000D01*
X125851920Y-141986000D02*
X123057920Y-144780000D01*
X128137920Y-141986000D02*
X125851920Y-141986000D01*
X133979920Y-136144000D02*
X188843920Y-136144000D01*
X188843920Y-136144000D02*
X189351920Y-136652000D01*
X220593920Y-134874000D02*
X220593920Y-131826000D01*
X201035920Y-136652000D02*
X218815920Y-136652000D01*
X218815920Y-136652000D02*
X220593920Y-134874000D01*
%TD*%
M02*
