# 1 "mcc_generated_files/device_config.c"
# 1 "<built-in>" 1
# 1 "<built-in>" 3
# 288 "<built-in>" 3
# 1 "<command line>" 1
# 1 "<built-in>" 2
# 1 "C:/Program Files/Microchip/MPLABX/v5.50/packs/Microchip/PIC18F-Q_DFP/1.11.185/xc8\\pic\\include\\language_support.h" 1 3
# 2 "<built-in>" 2
# 1 "mcc_generated_files/device_config.c" 2
# 50 "mcc_generated_files/device_config.c"
#pragma config FEXTOSC = XT
#pragma config RSTOSC = EXTOSC


#pragma config CLKOUTEN = OFF
#pragma config CSWEN = ON
#pragma config FCMEN = ON


#pragma config MCLRE = EXTMCLR
#pragma config PWRTE = OFF
#pragma config LPBOREN = OFF
#pragma config BOREN = SBORDIS


#pragma config BORV = VBOR_190
#pragma config ZCD = OFF
#pragma config PPS1WAY = ON
#pragma config STVREN = ON
#pragma config XINST = OFF


#pragma config WDTCPS = WDTCPS_31
#pragma config WDTE = OFF


#pragma config WDTCWS = WDTCWS_7
#pragma config WDTCCS = SC


#pragma config WRT0 = OFF
#pragma config WRT1 = OFF
#pragma config WRT2 = OFF
#pragma config WRT3 = OFF


#pragma config WRTC = OFF
#pragma config WRTB = OFF
#pragma config WRTD = OFF
#pragma config SCANE = ON
#pragma config LVP = ON


#pragma config CP = OFF
#pragma config CPD = OFF


#pragma config EBTR0 = OFF
#pragma config EBTR1 = OFF
#pragma config EBTR2 = OFF
#pragma config EBTR3 = OFF


#pragma config EBTRB = OFF
# 103 "mcc_generated_files/device_config.c"

