EESchema Schematic File Version 4
EELAYER 30 0
EELAYER END
$Descr B 17000 11000
encoding utf-8
Sheet 3 4
Title "109633 PCB, SMBus Mux, Profiler"
Date "2020-05-28"
Rev "C"
Comp ""
Comment1 ""
Comment2 ""
Comment3 ""
Comment4 ""
$EndDescr
$Comp
L 109633-rescue:Rsmall-dgi2 R?
U 1 1 613473C3
P 3475 1425
AR Path="/5B11D17D/613473C3" Ref="R?"  Part="1" 
AR Path="/5B13E060/613473C3" Ref="R?"  Part="1" 
AR Path="/5E57930B/613473C3" Ref="R?"  Part="1" 
AR Path="/5EFBE18D/613473C3" Ref="R?"  Part="1" 
AR Path="/5F6C1276/613473C3" Ref="R?"  Part="1" 
AR Path="/5F745286/613473C3" Ref="R28"  Part="1" 
F 0 "R28" V 3375 1625 50  0000 C CNN
F 1 "4.7K" V 3475 1625 50  0000 C CNN
F 2 "Resistor_SMD:R_0603_1608Metric_Pad1.05x0.95mm_HandSolder" H 3475 1425 60  0001 C CNN
F 3 "" H 3475 1425 60  0001 C CNN
F 4 "Susumu" H -675 0   50  0001 C CNN "MFR"
F 5 "RR0816P-472-D" H -675 0   50  0001 C CNN "MPN"
F 6 "-" H -675 0   50  0001 C CNN "SPR"
F 7 "-" H -675 0   50  0001 C CNN "SPN"
F 8 "-" H -675 0   50  0001 C CNN "SPURL"
	1    3475 1425
	0    1    1    0   
$EndComp
$Comp
L 109633-rescue:Rsmall-dgi2 R?
U 1 1 613473C4
P 3350 1500
AR Path="/5B11D17D/613473C4" Ref="R?"  Part="1" 
AR Path="/5B13E060/613473C4" Ref="R?"  Part="1" 
AR Path="/5E57930B/613473C4" Ref="R?"  Part="1" 
AR Path="/5EFBE18D/613473C4" Ref="R?"  Part="1" 
AR Path="/5F6C1276/613473C4" Ref="R?"  Part="1" 
AR Path="/5F745286/613473C4" Ref="R29"  Part="1" 
F 0 "R29" V 3250 1375 50  0000 C CNN
F 1 "4.7K" V 3350 1375 50  0000 C CNN
F 2 "Resistor_SMD:R_0603_1608Metric_Pad1.05x0.95mm_HandSolder" H 3350 1500 60  0001 C CNN
F 3 "" H 3350 1500 60  0001 C CNN
F 4 "Susumu" H -1075 0   50  0001 C CNN "MFR"
F 5 "RR0816P-472-D" H -1075 0   50  0001 C CNN "MPN"
F 6 "-" H -1075 0   50  0001 C CNN "SPR"
F 7 "-" H -1075 0   50  0001 C CNN "SPN"
F 8 "-" H -1075 0   50  0001 C CNN "SPURL"
	1    3350 1500
	0    1    1    0   
$EndComp
$Comp
L 109633-rescue:Rsmall-dgi2 R?
U 1 1 613473C7
P 6700 1425
AR Path="/5B11D17D/613473C7" Ref="R?"  Part="1" 
AR Path="/5B13E060/613473C7" Ref="R?"  Part="1" 
AR Path="/5E57930B/613473C7" Ref="R?"  Part="1" 
AR Path="/5EFBE18D/613473C7" Ref="R?"  Part="1" 
AR Path="/5F6C1276/613473C7" Ref="R?"  Part="1" 
AR Path="/5F745286/613473C7" Ref="R33"  Part="1" 
F 0 "R33" V 6600 1300 50  0000 C CNN
F 1 "4.7K" V 6700 1300 50  0000 C CNN
F 2 "Resistor_SMD:R_0603_1608Metric_Pad1.05x0.95mm_HandSolder" H 6700 1425 60  0001 C CNN
F 3 "" H 6700 1425 60  0001 C CNN
F 4 "Susumu" H -1175 100 50  0001 C CNN "MFR"
F 5 "RR0816P-472-D" H -1175 100 50  0001 C CNN "MPN"
F 6 "-" H -1175 100 50  0001 C CNN "SPR"
F 7 "-" H -1175 100 50  0001 C CNN "SPN"
F 8 "-" H -1175 100 50  0001 C CNN "SPURL"
	1    6700 1425
	0    -1   1    0   
$EndComp
$Comp
L 109633-rescue:Rsmall-dgi2 R?
U 1 1 613473C8
P 6550 1450
AR Path="/5B11D17D/613473C8" Ref="R?"  Part="1" 
AR Path="/5B13E060/613473C8" Ref="R?"  Part="1" 
AR Path="/5E57930B/613473C8" Ref="R?"  Part="1" 
AR Path="/5EFBE18D/613473C8" Ref="R?"  Part="1" 
AR Path="/5F6C1276/613473C8" Ref="R?"  Part="1" 
AR Path="/5F745286/613473C8" Ref="R32"  Part="1" 
F 0 "R32" V 6425 1675 50  0000 C CNN
F 1 "4.7K" V 6525 1650 50  0000 C CNN
F 2 "Resistor_SMD:R_0603_1608Metric_Pad1.05x0.95mm_HandSolder" H 6550 1450 60  0001 C CNN
F 3 "" H 6550 1450 60  0001 C CNN
F 4 "Susumu" H -1075 -50 50  0001 C CNN "MFR"
F 5 "RR0816P-472-D" H -1075 -50 50  0001 C CNN "MPN"
F 6 "-" H -1075 -50 50  0001 C CNN "SPR"
F 7 "-" H -1075 -50 50  0001 C CNN "SPN"
F 8 "-" H -1075 -50 50  0001 C CNN "SPURL"
	1    6550 1450
	0    -1   1    0   
$EndComp
$Comp
L 109633-rescue:Rsmall-dgi2 R?
U 1 1 60E1CB59
P 8200 1400
AR Path="/5B11D17D/60E1CB59" Ref="R?"  Part="1" 
AR Path="/5B13E060/60E1CB59" Ref="R?"  Part="1" 
AR Path="/5E57930B/60E1CB59" Ref="R?"  Part="1" 
AR Path="/5EFBE18D/60E1CB59" Ref="R?"  Part="1" 
AR Path="/5F6C1276/60E1CB59" Ref="R?"  Part="1" 
AR Path="/5F745286/60E1CB59" Ref="R35"  Part="1" 
F 0 "R35" V 8100 1275 50  0000 C CNN
F 1 "4.7K" V 8200 1275 50  0000 C CNN
F 2 "Resistor_SMD:R_0603_1608Metric_Pad1.05x0.95mm_HandSolder" H 8200 1400 60  0001 C CNN
F 3 "" H 8200 1400 60  0001 C CNN
F 4 "Susumu" H -150 50  50  0001 C CNN "MFR"
F 5 "RR0816P-472-D" H -150 50  50  0001 C CNN "MPN"
F 6 "-" H -150 50  50  0001 C CNN "SPR"
F 7 "-" H -150 50  50  0001 C CNN "SPN"
F 8 "-" H -150 50  50  0001 C CNN "SPURL"
	1    8200 1400
	0    -1   1    0   
$EndComp
$Comp
L 109633-rescue:Rsmall-dgi2 R?
U 1 1 60E1CB5A
P 8050 1425
AR Path="/5B11D17D/60E1CB5A" Ref="R?"  Part="1" 
AR Path="/5B13E060/60E1CB5A" Ref="R?"  Part="1" 
AR Path="/5E57930B/60E1CB5A" Ref="R?"  Part="1" 
AR Path="/5EFBE18D/60E1CB5A" Ref="R?"  Part="1" 
AR Path="/5F6C1276/60E1CB5A" Ref="R?"  Part="1" 
AR Path="/5F745286/60E1CB5A" Ref="R34"  Part="1" 
F 0 "R34" V 7975 1650 50  0000 C CNN
F 1 "4.7K" V 8075 1625 50  0000 C CNN
F 2 "Resistor_SMD:R_0603_1608Metric_Pad1.05x0.95mm_HandSolder" H 8050 1425 60  0001 C CNN
F 3 "" H 8050 1425 60  0001 C CNN
F 4 "Susumu" H -50 -100 50  0001 C CNN "MFR"
F 5 "RR0816P-472-D" H -50 -100 50  0001 C CNN "MPN"
F 6 "-" H -50 -100 50  0001 C CNN "SPR"
F 7 "-" H -50 -100 50  0001 C CNN "SPN"
F 8 "-" H -50 -100 50  0001 C CNN "SPURL"
	1    8050 1425
	0    -1   1    0   
$EndComp
$Comp
L Device:C_Small C?
U 1 1 613473CB
P 12100 1900
AR Path="/5B11D17D/613473CB" Ref="C?"  Part="1" 
AR Path="/5B13E060/613473CB" Ref="C?"  Part="1" 
AR Path="/5E57930B/613473CB" Ref="C?"  Part="1" 
AR Path="/5EFBE18D/613473CB" Ref="C?"  Part="1" 
AR Path="/5F6C1276/613473CB" Ref="C?"  Part="1" 
AR Path="/5F745286/613473CB" Ref="C15"  Part="1" 
F 0 "C15" H 12150 2000 50  0000 L CNN
F 1 "0.1u" H 12150 1800 50  0000 L CNN
F 2 "Capacitor_SMD:C_0603_1608Metric_Pad1.05x0.95mm_HandSolder" H 12100 1900 50  0001 C CNN
F 3 "" H 12100 1900 50  0001 C CNN
F 4 "Kemet" H 2300 475 50  0001 C CNN "MFR"
F 5 "C0603X104K5RAC7411" H 2300 475 50  0001 C CNN "MPN"
F 6 "-" H 2300 475 50  0001 C CNN "SPR"
F 7 "-" H 2300 475 50  0001 C CNN "SPN"
F 8 "-" H 2300 475 50  0001 C CNN "SPURL"
	1    12100 1900
	1    0    0    -1  
$EndComp
$Comp
L Device:C_Small C?
U 1 1 613473CC
P 12600 1900
AR Path="/5B11D17D/613473CC" Ref="C?"  Part="1" 
AR Path="/5B13E060/613473CC" Ref="C?"  Part="1" 
AR Path="/5E57930B/613473CC" Ref="C?"  Part="1" 
AR Path="/5EFBE18D/613473CC" Ref="C?"  Part="1" 
AR Path="/5F6C1276/613473CC" Ref="C?"  Part="1" 
AR Path="/5F745286/613473CC" Ref="C16"  Part="1" 
F 0 "C16" H 12450 2000 50  0000 L CNN
F 1 "1u" H 12450 1800 50  0000 L CNN
F 2 "Capacitor_SMD:C_0603_1608Metric_Pad1.05x0.95mm_HandSolder" H 12638 1750 30  0001 C CNN
F 3 "" H 12600 1900 60  0001 C CNN
F 4 "Samsung Electro-Mechanics" H 1525 500 50  0001 C CNN "MFR"
F 5 "CL10B105KO8NFNC" H 1525 500 50  0001 C CNN "MPN"
F 6 "-" H 1525 500 50  0001 C CNN "SPR"
F 7 "-" H 1525 500 50  0001 C CNN "SPN"
F 8 "-" H 1525 500 50  0001 C CNN "SPURL"
	1    12600 1900
	-1   0    0    -1  
$EndComp
Text Label 5800 1100 0    60   ~ 0
3V3
Text HLabel 15000 2275 2    60   Input ~ 0
UC_SCL
Text HLabel 15000 2375 2    60   Input ~ 0
UC_SDA
Text HLabel 15000 1100 2    60   Input ~ 0
UC+3V3
Text HLabel 2425 2175 0    60   Input ~ 0
ADDR_A1
Text HLabel 2425 2075 0    60   Input ~ 0
ADDR_A0
Text HLabel 2425 1100 0    60   Input ~ 0
ADDR_HI
Text HLabel 2425 2275 0    60   Input ~ 0
ADDR_LO
Text HLabel 14925 3100 2    60   Input ~ 0
UC_GND
Text Label 5775 3050 0    60   ~ 0
PACK_SER_GND
Wire Wire Line
	5700 1100 5700 1325
Wire Wire Line
	6700 1975 6700 1525
Wire Wire Line
	8200 1675 8200 1500
Wire Wire Line
	5700 3100 5700 2975
Wire Wire Line
	3475 1100 3475 1325
Wire Wire Line
	3350 1100 3350 1400
Wire Wire Line
	6550 1550 6550 2075
Wire Wire Line
	8050 1525 8050 1775
Wire Wire Line
	6550 1100 6550 1350
Wire Wire Line
	6700 1100 6700 1325
Wire Wire Line
	8050 1100 8050 1325
Wire Wire Line
	8200 1100 8200 1300
Wire Wire Line
	6300 2275 15000 2275
Wire Wire Line
	6300 2375 15000 2375
Wire Wire Line
	12100 1100 12100 1800
Wire Wire Line
	12100 2000 12100 3100
Wire Wire Line
	4925 2275 4925 3100
Wire Wire Line
	2425 2075 5000 2075
Wire Wire Line
	12600 3100 12600 2000
Wire Wire Line
	12600 1100 12600 1800
Wire Wire Line
	2425 2175 5000 2175
Wire Wire Line
	4900 1625 5000 1625
Wire Wire Line
	4925 3100 5700 3100
Connection ~ 5700 1100
Connection ~ 5700 3100
Connection ~ 12100 1100
Connection ~ 12600 1100
Wire Wire Line
	12100 1100 12600 1100
Wire Wire Line
	4925 2275 5000 2275
Wire Wire Line
	12600 1100 13050 1100
Connection ~ 12600 3100
Wire Wire Line
	12600 3100 13050 3100
Connection ~ 12100 3100
Wire Wire Line
	12100 3100 12600 3100
Wire Wire Line
	4900 1100 4900 1625
Connection ~ 4900 1100
Wire Wire Line
	4900 1100 5700 1100
$Comp
L 109633-rescue:Rsmall-dgi2 R?
U 1 1 60E1CB5B
P 14550 1100
AR Path="/60E1CB5B" Ref="R?"  Part="1" 
AR Path="/5F6C1276/60E1CB5B" Ref="R?"  Part="1" 
AR Path="/5E57930B/60E1CB5B" Ref="R?"  Part="1" 
AR Path="/5EFBE18D/60E1CB5B" Ref="R?"  Part="1" 
AR Path="/5F745286/60E1CB5B" Ref="R36"  Part="1" 
F 0 "R36" H 14650 1025 50  0000 C CNN
F 1 "220" H 14425 1025 50  0000 C CNN
F 2 "Resistor_SMD:R_0603_1608Metric_Pad1.05x0.95mm_HandSolder" H 14550 1100 60  0001 C CNN
F 3 "" H 14550 1100 60  0001 C CNN
F 4 "Susumu" H 6325 -4650 50  0001 C CNN "MFR"
F 5 "RR0816P-221-D" H 6325 -4650 50  0001 C CNN "MPN"
F 6 "-" H 6325 -4650 50  0001 C CNN "SPR"
F 7 "-" H 6325 -4650 50  0001 C CNN "SPN"
F 8 "-" H 6325 -4650 50  0001 C CNN "SPURL"
	1    14550 1100
	-1   0    0    1   
$EndComp
Wire Wire Line
	14650 1100 15000 1100
Text Notes 13600 1450 0    60   ~ 0
SOFT START TO PREVENT PIC RESET\nWHEN I2C POWER SWITCHED ON
$Comp
L power:PWR_FLAG #FLG?
U 1 1 60E1CB5C
P 11475 1050
AR Path="/5B34FACD/60E1CB5C" Ref="#FLG?"  Part="1" 
AR Path="/5E57930B/60E1CB5C" Ref="#FLG?"  Part="1" 
AR Path="/5EFBE18D/60E1CB5C" Ref="#FLG?"  Part="1" 
AR Path="/5F6C1276/60E1CB5C" Ref="#FLG?"  Part="1" 
AR Path="/5F745286/60E1CB5C" Ref="#FLG02"  Part="1" 
F 0 "#FLG02" H 11475 1145 50  0001 C CNN
F 1 "PWR_FLAG" H 11475 1230 50  0000 C CNN
F 2 "" H 11475 1050 50  0000 C CNN
F 3 "" H 11475 1050 50  0000 C CNN
	1    11475 1050
	1    0    0    -1  
$EndComp
Wire Wire Line
	11475 1050 11475 1100
Connection ~ 11475 1100
Wire Wire Line
	11475 1100 12100 1100
$Comp
L Device:C_Small C?
U 1 1 613473CD
P 13050 1925
AR Path="/5E57930B/613473CD" Ref="C?"  Part="1" 
AR Path="/5EFBE18D/613473CD" Ref="C?"  Part="1" 
AR Path="/5F6C1276/613473CD" Ref="C?"  Part="1" 
AR Path="/5F745286/613473CD" Ref="C17"  Part="1" 
F 0 "C17" H 13100 2125 50  0000 L CNN
F 1 "10u" H 13100 2025 50  0000 L CNN
F 2 "Capacitor_SMD:C_0805_2012Metric" H 13088 1775 30  0001 C CNN
F 3 "" H 13050 1925 60  0001 C CNN
F 4 "Taiyo Yuden" H 1975 525 50  0001 C CNN "MFR"
F 5 "JMK212AB7106KGHT" H 1975 525 50  0001 C CNN "MPN"
F 6 "-" H 1975 525 50  0001 C CNN "SPR"
F 7 "-" H 1975 525 50  0001 C CNN "SPN"
F 8 "-" H 1975 525 50  0001 C CNN "SPURL"
	1    13050 1925
	1    0    0    -1  
$EndComp
Wire Wire Line
	13050 1100 13050 1825
Connection ~ 13050 1100
Wire Wire Line
	13050 1100 14450 1100
Wire Wire Line
	13050 2025 13050 3100
Connection ~ 13050 3100
Wire Wire Line
	13050 3100 14925 3100
Text Notes 13750 4100 0    60   ~ 0
CONNECT CHARGER HERE
Text Notes 13725 5225 0    60   ~ 0
CONNECT PROFILER HERE
$Comp
L 9546:PCA9546AD U4
U 1 1 60E31D05
P 5700 2525
F 0 "U4" H 5700 3906 50  0000 C CNN
F 1 "PCA9546AD" H 5700 3815 50  0000 C CNN
F 2 "SOIC127P600X175-16N" H 5700 2525 50  0001 L BNN
F 3 "" H 5700 2525 50  0001 L BNN
	1    5700 2525
	1    0    0    -1  
$EndComp
Wire Wire Line
	6300 1675 8200 1675
Wire Wire Line
	6300 1775 8050 1775
Wire Wire Line
	6300 1975 6700 1975
Wire Wire Line
	6300 2075 6550 2075
Wire Wire Line
	4925 2275 2425 2275
Connection ~ 4925 2275
Wire Wire Line
	5700 1100 6550 1100
Connection ~ 4400 2625
Connection ~ 4500 2525
Wire Wire Line
	5000 2525 4500 2525
Wire Wire Line
	4400 2625 4400 1625
Wire Wire Line
	4500 2525 4500 1525
Wire Wire Line
	4400 1100 4400 1425
Wire Wire Line
	4500 1100 4500 1325
$Comp
L 109633-rescue:Rsmall-dgi2 R?
U 1 1 613473C6
P 4400 1525
AR Path="/5B11D17D/613473C6" Ref="R?"  Part="1" 
AR Path="/5B13E060/613473C6" Ref="R?"  Part="1" 
AR Path="/5E57930B/613473C6" Ref="R?"  Part="1" 
AR Path="/5EFBE18D/613473C6" Ref="R?"  Part="1" 
AR Path="/5F6C1276/613473C6" Ref="R?"  Part="1" 
AR Path="/5F745286/613473C6" Ref="R31"  Part="1" 
F 0 "R31" V 4300 1400 50  0000 C CNN
F 1 "4.7K" V 4400 1400 50  0000 C CNN
F 2 "Resistor_SMD:R_0603_1608Metric_Pad1.05x0.95mm_HandSolder" H 4400 1525 60  0001 C CNN
F 3 "" H 4400 1525 60  0001 C CNN
F 4 "Susumu" H -475 0   50  0001 C CNN "MFR"
F 5 "RR0816P-472-D" H -475 0   50  0001 C CNN "MPN"
F 6 "-" H -475 0   50  0001 C CNN "SPR"
F 7 "-" H -475 0   50  0001 C CNN "SPN"
F 8 "-" H -475 0   50  0001 C CNN "SPURL"
	1    4400 1525
	0    1    1    0   
$EndComp
$Comp
L 109633-rescue:Rsmall-dgi2 R?
U 1 1 60E1CB58
P 4500 1425
AR Path="/5B11D17D/60E1CB58" Ref="R?"  Part="1" 
AR Path="/5B13E060/60E1CB58" Ref="R?"  Part="1" 
AR Path="/5E57930B/60E1CB58" Ref="R?"  Part="1" 
AR Path="/5EFBE18D/60E1CB58" Ref="R?"  Part="1" 
AR Path="/5F6C1276/60E1CB58" Ref="R?"  Part="1" 
AR Path="/5F745286/60E1CB58" Ref="R30"  Part="1" 
F 0 "R30" V 4400 1525 50  0000 C CNN
F 1 "4.7K" V 4475 1550 50  0000 C CNN
F 2 "Resistor_SMD:R_0603_1608Metric_Pad1.05x0.95mm_HandSolder" H 4500 1425 60  0001 C CNN
F 3 "" H 4500 1425 60  0001 C CNN
F 4 "Susumu" H -150 100 50  0001 C CNN "MFR"
F 5 "RR0816P-472-D" H -150 100 50  0001 C CNN "MPN"
F 6 "-" H -150 100 50  0001 C CNN "SPR"
F 7 "-" H -150 100 50  0001 C CNN "SPN"
F 8 "-" H -150 100 50  0001 C CNN "SPURL"
	1    4500 1425
	0    1    1    0   
$EndComp
Connection ~ 4400 1100
Wire Wire Line
	4400 1100 4500 1100
Connection ~ 4500 1100
Wire Wire Line
	4500 1100 4900 1100
Connection ~ 3475 1100
Wire Wire Line
	3475 1100 4400 1100
Connection ~ 3350 1100
Wire Wire Line
	3350 1100 3475 1100
Wire Wire Line
	2425 1100 3350 1100
Connection ~ 6550 2075
Connection ~ 6700 1975
Connection ~ 6550 1100
Wire Wire Line
	6550 1100 6700 1100
Connection ~ 6700 1100
Wire Wire Line
	6700 1100 8050 1100
Connection ~ 8050 1775
Connection ~ 8200 1675
Connection ~ 8050 1100
Wire Wire Line
	8050 1100 8200 1100
Connection ~ 8200 1100
Wire Wire Line
	8200 1100 11475 1100
Wire Wire Line
	5000 2625 4400 2625
Wire Wire Line
	3650 3800 3650 3900
Wire Wire Line
	6550 2075 6550 4000
Wire Wire Line
	4500 2525 4500 4100
Wire Wire Line
	4400 2625 4400 4000
Connection ~ 5075 4750
Connection ~ 7075 4750
Wire Wire Line
	7075 4750 5075 4750
Wire Wire Line
	13650 4750 7075 4750
Connection ~ 6875 4625
Text Notes 5600 4200 0    60   ~ 0
SH\nDA\nCL\nGND
Wire Wire Line
	8050 1775 8050 4000
$Comp
L Connector_Generic:Conn_02x04_Top_Bottom J15
U 1 1 60E1CB5F
P 5400 4000
AR Path="/5F745286/60E1CB5F" Ref="J15"  Part="1" 
AR Path="/5E57930B/60E1CB5F" Ref="J?"  Part="1" 
F 0 "J15" H 5450 4225 50  0000 C CNN
F 1 "Conn_02x04_Top_Bottom" H 5450 4226 50  0001 C CNN
F 2 "Connector_Molex:Molex_Mini-Fit_Jr_5569-08A2_2x04_P4.20mm_Horizontal" H 5400 4000 50  0001 C CNN
F 3 "~" H 5400 4000 50  0001 C CNN
	1    5400 4000
	-1   0    0    -1  
$EndComp
Text Notes 4125 4200 0    60   ~ 0
SH\nDA\nCL\nGND
$Comp
L Connector_Generic:Conn_02x04_Top_Bottom J14
U 1 1 61222103
P 3950 4000
AR Path="/5F745286/61222103" Ref="J14"  Part="1" 
AR Path="/5E57930B/61222103" Ref="J?"  Part="1" 
F 0 "J14" H 4000 4225 50  0000 C CNN
F 1 "Conn_02x04_Top_Bottom" H 4000 4226 50  0001 C CNN
F 2 "Connector_Molex:Molex_Mini-Fit_Jr_5569-08A2_2x04_P4.20mm_Horizontal" H 3950 4000 50  0001 C CNN
F 3 "~" H 3950 4000 50  0001 C CNN
	1    3950 4000
	-1   0    0    -1  
$EndComp
Wire Wire Line
	2325 3900 2700 3900
Text Notes 3200 4200 0    60   ~ 0
SH\nDA\nCL\nGND
$Comp
L Connector_Generic:Conn_02x04_Top_Bottom J13
U 1 1 60E1CB5D
P 3000 4000
AR Path="/5F745286/60E1CB5D" Ref="J13"  Part="1" 
AR Path="/5E57930B/60E1CB5D" Ref="J?"  Part="1" 
F 0 "J13" H 3050 4225 50  0000 C CNN
F 1 "Conn_02x04_Top_Bottom" H 3050 4226 50  0001 C CNN
F 2 "Connector_Molex:Molex_Mini-Fit_Jr_5569-08A2_2x04_P4.20mm_Horizontal" H 3000 4000 50  0001 C CNN
F 3 "~" H 3000 4000 50  0001 C CNN
	1    3000 4000
	-1   0    0    -1  
$EndComp
Wire Wire Line
	7975 4500 8650 4500
Wire Wire Line
	6700 1975 6700 4100
Wire Wire Line
	3450 4500 4500 4500
Wire Wire Line
	4400 4000 4150 4000
Wire Wire Line
	2325 3700 2325 3900
Wire Wire Line
	2700 4000 2350 4000
Wire Wire Line
	2350 4000 2350 4625
Wire Wire Line
	2700 4100 2500 4100
Wire Wire Line
	2500 4100 2500 4875
Wire Wire Line
	2700 4200 2625 4200
Wire Wire Line
	2625 4200 2625 4750
Wire Wire Line
	7675 4100 8200 4100
Wire Wire Line
	8200 1675 8200 4100
Wire Wire Line
	7675 4000 8050 4000
Wire Wire Line
	7975 4200 7675 4200
Wire Wire Line
	7975 4200 7975 4500
Wire Wire Line
	7175 3900 6775 3900
Wire Wire Line
	6775 3900 6775 4400
$Comp
L Connector_Generic:Conn_02x04_Top_Bottom J16
U 1 1 6137F349
P 7475 4000
AR Path="/5F745286/6137F349" Ref="J16"  Part="1" 
AR Path="/5E57930B/6137F349" Ref="J?"  Part="1" 
F 0 "J16" H 7525 4225 50  0000 C CNN
F 1 "Conn_02x04_Top_Bottom" H 7525 4226 50  0001 C CNN
F 2 "Connector_Molex:Molex_Mini-Fit_Jr_5569-08A2_2x04_P4.20mm_Horizontal" H 7475 4000 50  0001 C CNN
F 3 "~" H 7475 4000 50  0001 C CNN
	1    7475 4000
	-1   0    0    -1  
$EndComp
Wire Wire Line
	7175 4200 7075 4200
Wire Wire Line
	6875 4000 7175 4000
Wire Wire Line
	7075 4200 7075 4750
Wire Wire Line
	6875 4000 6875 4625
Wire Wire Line
	5600 4200 5975 4200
Connection ~ 7975 4500
Wire Wire Line
	5975 4500 7975 4500
Wire Wire Line
	5975 4200 5975 4500
Connection ~ 5975 4500
Connection ~ 4500 4500
Wire Wire Line
	4500 4500 5975 4500
Wire Wire Line
	4150 4100 4500 4100
Wire Wire Line
	4500 4200 4150 4200
Wire Wire Line
	4500 4200 4500 4500
Wire Wire Line
	3450 4200 3200 4200
Wire Wire Line
	3475 1825 3475 4100
Wire Wire Line
	3475 4100 3200 4100
Wire Wire Line
	5000 1825 3475 1825
Wire Wire Line
	3475 1525 3475 1825
Connection ~ 3475 1825
Wire Wire Line
	5000 1925 3350 1925
Wire Wire Line
	3350 1925 3350 1600
Wire Wire Line
	3350 1925 3350 4000
Wire Wire Line
	3350 4000 3200 4000
Connection ~ 3350 1925
Wire Wire Line
	3450 4200 3450 4500
Wire Wire Line
	5600 4000 6550 4000
Wire Wire Line
	5600 4100 6700 4100
Wire Wire Line
	5100 3900 4850 3900
Wire Wire Line
	5100 4100 4950 4100
Wire Wire Line
	5100 4200 5075 4200
Wire Wire Line
	5075 4200 5075 4750
Wire Wire Line
	4850 3900 4850 4300
Wire Wire Line
	5700 3100 8650 3100
Wire Wire Line
	8650 3100 8650 4500
Wire Wire Line
	12100 3100 8650 3100
Connection ~ 8650 3100
Wire Wire Line
	6950 5475 6950 4100
Wire Wire Line
	6950 4100 7175 4100
Wire Wire Line
	4950 4100 4950 5575
Wire Wire Line
	2625 4750 3650 4750
Wire Wire Line
	3550 4100 3550 4975
Wire Wire Line
	3650 4200 3650 4750
Connection ~ 3650 4750
Wire Wire Line
	3650 4750 5075 4750
Wire Wire Line
	3550 4100 3650 4100
Wire Wire Line
	2350 4625 3375 4625
Wire Wire Line
	5100 4000 4750 4000
Wire Wire Line
	4750 4000 4750 4625
Connection ~ 4750 4625
Wire Wire Line
	4750 4625 6875 4625
Wire Wire Line
	3375 4625 3375 4000
Wire Wire Line
	3375 4000 3650 4000
Connection ~ 3375 4625
Wire Wire Line
	3375 4625 4750 4625
Text Notes 7625 4200 0    60   ~ 0
SH\nDA\nCL\nGND
Wire Wire Line
	6875 4625 13400 4625
$Comp
L Connector_Generic_MountingPin:Conn_02x08_Top_Bottom_MountingPin J17
U 1 1 613473D5
P 13450 4000
AR Path="/5F745286/613473D5" Ref="J17"  Part="1" 
AR Path="/5E57930B/613473D5" Ref="J?"  Part="1" 
F 0 "J17" H 13500 4517 50  0000 C CNN
F 1 "Conn_02x08_Top_Bottom_MountingPin" H 13500 4426 50  0001 C CNN
F 2 "Connector_Molex:Molex_Mini-Fit_Jr_5569-16A2_2x08_P4.20mm_Horizontal" H 13450 4000 50  0001 C CNN
F 3 "~" H 13450 4000 50  0001 C CNN
	1    13450 4000
	-1   0    0    -1  
$EndComp
Wire Wire Line
	3650 3800 13150 3800
Wire Wire Line
	6775 4400 13150 4400
Wire Wire Line
	13150 4300 4850 4300
Wire Wire Line
	13150 3700 2325 3700
Wire Wire Line
	6950 5475 13150 5475
Wire Wire Line
	3550 4975 13150 4975
$Comp
L Connector_Generic_MountingPin:Conn_02x08_Top_Bottom_MountingPin J18
U 1 1 615AFC75
P 13450 5175
AR Path="/5F745286/615AFC75" Ref="J18"  Part="1" 
AR Path="/5E57930B/615AFC75" Ref="J?"  Part="1" 
F 0 "J18" H 13500 5692 50  0000 C CNN
F 1 "Conn_02x08_Top_Bottom_MountingPin" H 13500 5601 50  0001 C CNN
F 2 "Connector_Molex:Molex_Mini-Fit_Jr_5569-16A2_2x08_P4.20mm_Horizontal" H 13450 5175 50  0001 C CNN
F 3 "~" H 13450 5175 50  0001 C CNN
	1    13450 5175
	-1   0    0    -1  
$EndComp
Wire Wire Line
	13150 5575 4950 5575
Wire Wire Line
	13150 4875 2500 4875
Wire Wire Line
	13650 4750 13650 4875
Wire Wire Line
	13650 3700 13650 3800
Wire Wire Line
	13650 3800 13650 3900
Connection ~ 13650 3800
Wire Wire Line
	13650 3900 13650 4000
Connection ~ 13650 3900
Wire Wire Line
	13650 4000 13650 4100
Connection ~ 13650 4000
Wire Wire Line
	13650 4100 13650 4200
Connection ~ 13650 4100
Wire Wire Line
	13650 4200 13650 4300
Connection ~ 13650 4200
Wire Wire Line
	13650 4300 13650 4400
Connection ~ 13650 4300
Wire Wire Line
	13650 4875 13650 4975
Connection ~ 13650 4875
Wire Wire Line
	13650 4975 13650 5075
Connection ~ 13650 4975
Wire Wire Line
	13650 5075 13650 5175
Connection ~ 13650 5075
Wire Wire Line
	13650 5175 13650 5275
Connection ~ 13650 5175
Wire Wire Line
	13650 5275 13650 5375
Connection ~ 13650 5275
Wire Wire Line
	13650 5375 13650 5475
Connection ~ 13650 5375
Wire Wire Line
	13650 5475 13650 5575
Connection ~ 13650 5475
Text HLabel 13775 4750 2    60   Input ~ 0
BAT_GND
Wire Wire Line
	13650 4750 13775 4750
Connection ~ 13650 4750
Wire Wire Line
	13400 4600 13400 4625
Wire Wire Line
	13400 5775 13650 5775
Wire Wire Line
	13650 5775 13650 5575
Connection ~ 13650 5575
Wire Wire Line
	13400 4625 13650 4625
Wire Wire Line
	13650 4625 13650 4750
Connection ~ 13400 4625
Wire Wire Line
	13650 4625 13650 4400
Connection ~ 13650 4625
Connection ~ 13650 4400
$EndSCHEMATC
