Reference, Quantity, Value, MFR, MPN, Datasheet
BT1-BT12 ,12,Conn_02x04_Top_Bottom,Molex,39301082,https://www.molex.com/pdm_docs/sd/039301082_sd.pdf
"C1,C6-C10,C13,C20 ",8,0.1u,Kemet,C0603X104K5RAC7411,https://api.kemet.com/component-edge/download/datasheet/C0603X104K5RAC7411.pdf
C11 ,1,0.01u,Samsung Electro-Mechanics,CL10B103KB8NCNC,http://www.samsungsem.com/kr/support/product-search/mlcc/CL10B103KB8NCNC.jsp
C15 ,1,1u,Samsung Electro-Mechanics,CL10B105KO8NFNC,http://www.samsungsem.com/kr/support/product-search/mlcc/CL10B105KO8NFNC.jsp
C17 ,1,10u,Taiyo Yuden,JMK212AB7106KGHT,https://www.yuden.co.jp/productdata/catalog/mlcc06_hq_e.pdf
C19 ,1,4.7UF,TDK Corporation,C3216X5R1H475K160AB,https://product.tdk.com/info/en/catalog/datasheets/mlcc_commercial_general_en.pdf?ref_disty=digikey
C4 ,1,27p,Kemet,C0603C270J1GACAUTO,https://api.kemet.com/component-edge/download/datasheet/C0603C270J1GACAUTO.pdf
C5 ,1,27 pF,Kemet,C0603C270J1GACAUTO,https://api.kemet.com/component-edge/download/datasheet/C0603C270J1GACAUTO.pdf
D1 ,1,LTST-C155,Lite-On Inc.,LTST-C155KGJRKT,https://optoelectronics.liteon.com/upload/download/DS22-2001-038/LTST-C155KGJRKT.pdf
J1 ,1,Profiler Interconnect,Molex,353181220,https://www.molex.com/pdm_docs/sd/353181220_sd.pdf
J16 ,1,RTE,Molex,469990515,https://www.molex.com/pdm_docs/ps/PS-5556-001.pdf
J17 J18 J20 ,3,43650-300,,43650-0300,https://www.molex.com/pdm_docs/sd/436500300_sd.pdf
J19 ,1,LEAK DET,Molex,430450400,https://media.digikey.com/pdf/Data%20Sheets/Molex%20PDFs/PK-70873-05xx_1_N3.pdf
J2 ,1,PROGRAM,Amphenol ICC (FCI),68016-206HLF,https://cdn.amphenol-icc.com/media/wysiwyg/files/drawing/68015.pdf
J21 J22 J23 ,3,43650-0400,Molex,43650-0400,https://www.molex.com/webdocs/datasheets/pdf/en-us/0436500400_PCB_HEADERS.pdf
J3 ,1,Charge_Ctrl,Molex,43650-0500,https://www.molex.com/webdocs/datasheets/pdf/en-us/0436500500_PCB_HEADERS.pdf
J4 - J15 ,12,460150209,Molex,46015-0209,https://www.molex.com/webdocs/datasheets/pdf/en-us/0460150209_PCB_HEADERS.pdf
JP1 ,1,JUMPER-SMT_2_NO,,,
JP2 - JP8 ,7,JUMPER-SMT_3_NO,,,
L1 ,1,100uH,TDK Corporation,LTF5022T-101MR45-D,https://product.tdk.com/info/en/catalog/datasheets/inductor_automotive_power_ltf5022-d_en.pdf?ref_disty=digikey
R1 R2 ,2,100K,Susumu,RR1220P-104-D,https://www.susumu.co.jp/common/pdf/n_catalog_partition05_en.pdf
R3 R4 R31 ,3,220,Susumu,RR0816P-221-D,https://www.susumu.co.jp/common/pdf/n_catalog_partition05_en.pdf
R32-R35,4,10K,Susumu,RR0816P-103-D,https://www.susumu.co.jp/common/pdf/n_catalog_partition05_en.pdf
R5 - R30 ,26,4.7K,Susumu,RR0816P-472-D,https://www.susumu.co.jp/common/pdf/n_catalog_partition05_en.pdf
RESET1 ,1,MOMENTARY-SWITCH-SPST-2-SMD-4.6X2.8MM,C&K,KSC401J 50SH LFS,https://www.molex.com/webdocs/datasheets/pdf/en-us/0460150209_PCB_HEADERS.pdf
U1,1,MQ-8,"Zhengzhou Winsen Electronics Technology Co., Ltd",MQ-8,https://www.winsen-sensor.com/d/files/semiconductor/mq-8.pdf
U2 ,1,PIC18F27Q10,Microchip Technology,PIC18F27Q10-I/SS,https://ww1.microchip.com/downloads/en/DeviceDoc/PIC18F27-47Q10-Data-Sheet-40002043E.pdf
U3 ,1,MAX3323E,Maxim Integrated,MAX3323EEUE+,https://datasheets.maximintegrated.com/en/ds/MAX3322E-MAX3323E.pdf
U4 ,1,PCA9548A,NXP USA Inc.,"PCA9548APW,118",https://www.nxp.com/docs/en/data-sheet/PCA9548A.pdf
U5 ,1,PCA9546AD,NXP,"PCA9546AD,112",https://www.nxp.com/docs/en/data-sheet/PCA9546A.pdf
U6 ,1,NCS3S1205SC,TDK Corporation,NCS3S1205SC,https://www.murata.com/products/productdata/8807030620190/kdc-ncs3.pdf?1583754812000
U7A1 ,1,10142048-02,,10142048-02,https://www.te.com/commerce/DocumentDelivery/DDEController?Action=showdoc&DocId=Data+Sheet%7FHTU31_RHT_SENSOR_IC%7F3%7Fpdf%7FEnglish%7FENG_DS_HTU31_RHT_SENSOR_IC_3.pdf%7F10142048-01
U7B1 ,1,BMP280,,BMP280,https://www.bosch-sensortec.com/media/boschsensortec/downloads/datasheets/bst-bmp280-ds001.pdf
U7C1 ,1,SCD41-D-R1,,SCD41-D-R1,https://www.sensirion.com/fileadmin/user_upload/customers/sensirion/Dokumente/9.5_CO2/Sensirion_CO2_Sensors_SCD4x_Datasheet.pdf
Y1 ,1,3.686 MHz,ECS Inc.,ECS-36-18-5PLX-AGN-TR,https://ecsxtal.com/store/pdf/csm-7x.pdf
